Ticker,Large,Mid
VGK,Equity,Europe
HEDJ,Equity,Europe
FEZ,Equity,Europe
AGG,Bond,US_Bond
IEV,Equity,Europe
SPY,Equity,US_Index
IVV,Equity,US_Index
VOO,Equity,US_Index
RSP,Equity,US_Index
GLD,AI,Metal
IVE,Equity,US_Index
OEF,Equity,US_Index
IOO,Equity,US_Index
VTWO,Equity,US_Index
VONE,Equity,US_Index
LQD,Bond,US_Bond
QQQ,Equity,US_Index
IYY,Equity,US_Index
VCSH,Bond,US_Bond
VCIT,Bond,US_Bond
BSV,Bond,US_Bond
SPHQ,Equity,US-smartbeta
TIP,Bond,US_Bond
SUSA,Equity,US-smartbeta
EZM,Equity,US-smartbeta
SPLV,Equity,US-smartbeta
HYG,Bond,US_Bond
IWF,Equity,US-smartbeta
VUG,Equity,US-smartbeta
IVW,Equity,US-smartbeta
IWP,Equity,US-smartbeta
MUB,Bond,US_Bond
VBK,Equity,US-smartbeta
IWO,Equity,US-smartbeta
SCHG,Equity,US-smartbeta
IJK,Equity,US-smartbeta
VOT,Equity,US-smartbeta
SPYG,Equity,US-smartbeta
GDX,AI,Metal
MGK,Equity,US-smartbeta
VONG,Equity,US-smartbeta
VOOG,Equity,US-smartbeta
RPG,Equity,US-smartbeta
ONEQ,Equity,US-smartbeta
SLYG,Equity,US-smartbeta
MDYG,Equity,US-smartbeta
IWY,Equity,US-smartbeta
FPX,Equity,US-smartbeta
JKE,Equity,US-smartbeta
VTV,Equity,US-smartbeta
IWD,Equity,US-smartbeta
IWS,Equity,US-smartbeta
VOE,Equity,US-smartbeta
IWN,Equity,US-smartbeta
IJJ,Equity,US-smartbeta
SCHV,Equity,US-smartbeta
PRF,Equity,US-smartbeta
SLV,AI,Metal
SPYV,Equity,US-smartbeta
MGV,Equity,US-smartbeta
VONV,Equity,US-smartbeta
FDL,Equity,US-smartbeta
MDYV,Equity,US-smartbeta
VHT,Equity,US-sector_health
IBB,Equity,US-sector_health
IHI,Equity,US-sector_health
XBI,Equity,US-sector_health
FBT,Equity,US-sector_health
IXJ,Equity,US-sector_health
IYH,Equity,US-sector_health
FXH,Equity,US-sector_health
VOX,Equity,US_sector_etc
IJH,Equity,US_MidSmall
VO,Equity,US_MidSmall
IWR,Equity,US_MidSmall
MDY,Equity,US_MidSmall
VXF,Equity,US_MidSmall
SCHM,Equity,US_MidSmall
VPU,Equity,US_sector_etc
FXU,Equity,US_sector_etc
XLE,Equity,US_sector_energy
AMLP,Equity,US_sector_energy
GUNR,Equity,US_sector_energy
XLB,Equity,US_sector_energy
VDE,Equity,US_sector_energy
VAW,Equity,US_sector_energy
GNR,Equity,US_sector_energy
IJR,Equity,US_MidSmall
IWM,Equity,US_MidSmall
VB,Equity,US_MidSmall
VBR,Equity,US_MidSmall
SCHA,Equity,US_MidSmall
IJS,Equity,US_MidSmall
SLYV,Equity,US_MidSmall
PRFZ,Equity,US_MidSmall
SLY,Equity,US_MidSmall
XLP,Equity,US_sector_Industry
VDC,Equity,US_sector_Industry
VCR,Equity,US_sector_Industry
XLI,Equity,US_sector_Industry
VIS,Equity,US_sector_Industry
XAR,Equity,US_sector_Industry
PPA,Equity,US_sector_Industry
SCHH,Equity,US_sector_Reits
VNQI,Equity,US_sector_Reits
IYR,Equity,US_sector_Reits
RWR,Equity,US_sector_Reits
RWO,Equity,US_sector_Reits
RWX,Equity,US_sector_Reits
USRT,Equity,US_sector_Reits
VTI,Equity,US_Index
ITOT,Equity,US_Index
DIA,Equity,US_Index
IWB,Equity,US_Index
SCHX,Equity,US_Index
SCHB,Equity,US_Index
VV,Equity,US_Index
IWV,Equity,US_Index
EWU,Equity,US_Index
MGC,Equity,US_Index
DSI,Equity,US_sector_etc
FDN,Equity,US_sector_etc
XLF,Equity,US_sector_finance
VFH,Equity,US_sector_finance
KRE,Equity,US_sector_finance
KBE,Equity,US_sector_finance
IYF,Equity,US_sector_finance
IYG,Equity,US_sector_finance
GDXJ,Equity,US_sector_etc
XLK,Equity,US_sector_IT
VGT,Equity,US_sector_IT
IYW,Equity,US_sector_IT
IXN,Equity,US_sector_IT
QTEC,Equity,US_sector_IT
FXL,Equity,US_sector_IT
SKYY,Equity,US_sector_IT
RYT,Equity,US_sector_IT
IGM,Equity,US_sector_IT
SOXX,Equity,US_sector_IT
SMH,Equity,US_sector_IT
DON,Equity,US_dividend
DES,Equity,US_dividend
VNQ,Equity,US_dividend
VIG,Equity,US_dividend
VYM,Equity,US_dividend
SDY,Equity,US_dividend
SCHD,Equity,US_dividend
HDV,Equity,US_dividend
FVD,Equity,US_dividend
DLN,Equity,US_dividend
VT,Equity,Global
ACWI,Equity,Global
DBC,AI,MetalWithout
EWJ,Equity,Individual
EWC,Equity,Individual
DXJ,Equity,Individual
EWG,Equity,Individual
EWA,Equity,Individual
EWL,Equity,Individual
EWQ,Equity,Individual
USO,AI,MetalWithout
VEA,Equity,Global
EFA,Equity,Global
VEU,Equity,Global
SCHF,Equity,Global
VXUS,Equity,Global
VSS,Equity,Global
DBEF,Equity,Global
ACWX,Equity,Global
SCHC,Equity,Global
CWI,Equity,Global
DLS,Equity,Global
PXF,Equity,Global
