20160804,FANH01,K02,_,01,N,01,000,A091160,60.0,20160803,,Y
20160804,FANH01,K02,_,02,N,01,000,A091160,60.0,20160803,,Y
20160804,FANH01,K02,_,03,N,01,000,A091160,60.0,20160803,,Y
20160804,FANH01,K02,_,04,N,01,000,A091160,60.0,20160803,,Y
20160804,FANH01,K02,_,05,N,01,000,A091160,60.0,20160803,,Y
20160804,FANH01,K02,_,01,N,01,000,A132030,20.0,20160803,,Y
20160804,FANH01,K02,_,02,N,01,000,A132030,20.0,20160803,,Y
20160804,FANH01,K02,_,03,N,01,000,A132030,20.0,20160803,,Y
20160804,FANH01,K02,_,04,N,01,000,A132030,20.0,20160803,,Y
20160804,FANH01,K02,_,05,N,01,000,A132030,20.0,20160803,,Y
20160804,FANH01,K02,_,01,N,01,000,A136340,18.37,20160803,,Y
20160804,FANH01,K02,_,02,N,01,000,A136340,18.37,20160803,,Y
20160804,FANH01,K02,_,03,N,01,000,A136340,18.37,20160803,,Y
20160804,FANH01,K02,_,04,N,01,000,A136340,18.37,20160803,,Y
20160804,FANH01,K02,_,05,N,01,000,A136340,18.37,20160803,,Y
20160804,FANH01,K02,_,01,N,01,000,A148070,1.62,20160803,,Y
20160804,FANH01,K02,_,02,N,01,000,A148070,1.62,20160803,,Y
20160804,FANH01,K02,_,03,N,01,000,A148070,1.62,20160803,,Y
20160804,FANH01,K02,_,04,N,01,000,A148070,1.62,20160803,,Y
20160804,FANH01,K02,_,05,N,01,000,A148070,1.62,20160803,,Y
