20161004,FANH01,K02,_,01,N,01,000,A122090,4.24,20160930,,Y
20161004,FANH01,K02,_,02,N,01,000,A122090,4.24,20160930,,Y
20161004,FANH01,K02,_,03,N,01,000,A122090,4.24,20160930,,Y
20161004,FANH01,K02,_,04,N,01,000,A122090,4.24,20160930,,Y
20161004,FANH01,K02,_,05,N,01,000,A122090,4.24,20160930,,Y
20161004,FANH01,K02,_,01,N,01,000,A130680,4.52,20160930,,Y
20161004,FANH01,K02,_,02,N,01,000,A130680,4.52,20160930,,Y
20161004,FANH01,K02,_,03,N,01,000,A130680,4.52,20160930,,Y
20161004,FANH01,K02,_,04,N,01,000,A130680,4.52,20160930,,Y
20161004,FANH01,K02,_,05,N,01,000,A130680,4.52,20160930,,Y
20161004,FANH01,K02,_,01,N,01,000,A131890,14.24,20160930,,Y
20161004,FANH01,K02,_,02,N,01,000,A131890,14.24,20160930,,Y
20161004,FANH01,K02,_,03,N,01,000,A131890,14.24,20160930,,Y
20161004,FANH01,K02,_,04,N,01,000,A131890,14.24,20160930,,Y
20161004,FANH01,K02,_,05,N,01,000,A131890,14.24,20160930,,Y
20161004,FANH01,K02,_,01,N,01,000,A132030,15.47,20160930,,Y
20161004,FANH01,K02,_,02,N,01,000,A132030,15.47,20160930,,Y
20161004,FANH01,K02,_,03,N,01,000,A132030,15.47,20160930,,Y
20161004,FANH01,K02,_,04,N,01,000,A132030,15.47,20160930,,Y
20161004,FANH01,K02,_,05,N,01,000,A132030,15.47,20160930,,Y
20161004,FANH01,K02,_,01,N,01,000,A136340,18.51,20160930,,Y
20161004,FANH01,K02,_,02,N,01,000,A136340,18.51,20160930,,Y
20161004,FANH01,K02,_,03,N,01,000,A136340,18.51,20160930,,Y
20161004,FANH01,K02,_,04,N,01,000,A136340,18.51,20160930,,Y
20161004,FANH01,K02,_,05,N,01,000,A136340,18.51,20160930,,Y
20161004,FANH01,K02,_,01,N,01,000,A139260,4.51,20160930,,Y
20161004,FANH01,K02,_,02,N,01,000,A139260,4.51,20160930,,Y
20161004,FANH01,K02,_,03,N,01,000,A139260,4.51,20160930,,Y
20161004,FANH01,K02,_,04,N,01,000,A139260,4.51,20160930,,Y
20161004,FANH01,K02,_,05,N,01,000,A139260,4.51,20160930,,Y
20161004,FANH01,K02,_,01,N,01,000,A145850,5.07,20160930,,Y
20161004,FANH01,K02,_,02,N,01,000,A145850,5.07,20160930,,Y
20161004,FANH01,K02,_,03,N,01,000,A145850,5.07,20160930,,Y
20161004,FANH01,K02,_,04,N,01,000,A145850,5.07,20160930,,Y
20161004,FANH01,K02,_,05,N,01,000,A145850,5.07,20160930,,Y
20161004,FANH01,K02,_,01,N,01,000,A148070,1.48,20160930,,Y
20161004,FANH01,K02,_,02,N,01,000,A148070,1.48,20160930,,Y
20161004,FANH01,K02,_,03,N,01,000,A148070,1.48,20160930,,Y
20161004,FANH01,K02,_,04,N,01,000,A148070,1.48,20160930,,Y
20161004,FANH01,K02,_,05,N,01,000,A148070,1.48,20160930,,Y
20161004,FANH01,K02,_,01,N,01,000,A161510,31.92,20160930,,Y
20161004,FANH01,K02,_,02,N,01,000,A161510,31.92,20160930,,Y
20161004,FANH01,K02,_,03,N,01,000,A161510,31.92,20160930,,Y
20161004,FANH01,K02,_,04,N,01,000,A161510,31.92,20160930,,Y
20161004,FANH01,K02,_,05,N,01,000,A161510,31.92,20160930,,Y
