20180704,FANH01,K02,_,01,N,01,000,A114260,11.94,20180703,,Y
20180704,FANH01,K02,_,02,N,01,000,A114260,11.94,20180703,,Y
20180704,FANH01,K02,_,03,N,01,000,A114260,11.94,20180703,,Y
20180704,FANH01,K02,_,04,N,01,000,A114260,11.94,20180703,,Y
20180704,FANH01,K02,_,05,N,01,000,A114260,11.94,20180703,,Y
20180704,FANH01,K02,_,01,N,01,000,A117700,3.77,20180703,,Y
20180704,FANH01,K02,_,02,N,01,000,A117700,3.77,20180703,,Y
20180704,FANH01,K02,_,03,N,01,000,A117700,3.77,20180703,,Y
20180704,FANH01,K02,_,04,N,01,000,A117700,3.77,20180703,,Y
20180704,FANH01,K02,_,05,N,01,000,A117700,3.77,20180703,,Y
20180704,FANH01,K02,_,01,N,01,000,A131890,25.21,20180703,,Y
20180704,FANH01,K02,_,02,N,01,000,A131890,25.21,20180703,,Y
20180704,FANH01,K02,_,03,N,01,000,A131890,25.21,20180703,,Y
20180704,FANH01,K02,_,04,N,01,000,A131890,25.21,20180703,,Y
20180704,FANH01,K02,_,05,N,01,000,A131890,25.21,20180703,,Y
20180704,FANH01,K02,_,01,N,01,000,A136340,28.05,20180703,,Y
20180704,FANH01,K02,_,02,N,01,000,A136340,28.05,20180703,,Y
20180704,FANH01,K02,_,03,N,01,000,A136340,28.05,20180703,,Y
20180704,FANH01,K02,_,04,N,01,000,A136340,28.05,20180703,,Y
20180704,FANH01,K02,_,05,N,01,000,A136340,28.05,20180703,,Y
20180704,FANH01,K02,_,01,N,01,000,A137610,10.0,20180703,,Y
20180704,FANH01,K02,_,02,N,01,000,A137610,10.0,20180703,,Y
20180704,FANH01,K02,_,03,N,01,000,A137610,10.0,20180703,,Y
20180704,FANH01,K02,_,04,N,01,000,A137610,10.0,20180703,,Y
20180704,FANH01,K02,_,05,N,01,000,A137610,10.0,20180703,,Y
20180704,FANH01,K02,_,01,N,01,000,A147970,21.0,20180703,,Y
20180704,FANH01,K02,_,02,N,01,000,A147970,21.0,20180703,,Y
20180704,FANH01,K02,_,03,N,01,000,A147970,21.0,20180703,,Y
20180704,FANH01,K02,_,04,N,01,000,A147970,21.0,20180703,,Y
20180704,FANH01,K02,_,05,N,01,000,A147970,21.0,20180703,,Y
