RegDate,CompanyCode,ProductCode,Account,TendencyCode,AutoMake,UniverseCode,CountryCode,Symbol,Ratio,BaseDate,Reason,APMake
20160104,FANH01,K02,_,01,N,01,000,A138230,20.0,20151230,,Y
20160104,FANH01,K02,_,01,N,01,000,A139280,53.9,20151230,,Y
20160104,FANH01,K02,_,01,N,01,000,A143860,6.09,20151230,,Y
20160104,FANH01,K02,_,02,N,01,000,A138230,20.0,20151230,,Y
20160104,FANH01,K02,_,02,N,01,000,A139280,53.9,20151230,,Y
20160104,FANH01,K02,_,02,N,01,000,A143860,6.09,20151230,,Y
20160104,FANH01,K02,_,03,N,01,000,A138230,20.0,20151230,,Y
20160104,FANH01,K02,_,03,N,01,000,A139280,53.9,20151230,,Y
20160104,FANH01,K02,_,03,N,01,000,A143860,6.09,20151230,,Y
20160104,FANH01,K02,_,04,N,01,000,A138230,20.0,20151230,,Y
20160104,FANH01,K02,_,04,N,01,000,A139280,53.9,20151230,,Y
20160104,FANH01,K02,_,04,N,01,000,A143860,6.09,20151230,,Y
20160104,FANH01,K02,_,05,N,01,000,A138230,20.0,20151230,,Y
20160104,FANH01,K02,_,05,N,01,000,A139280,53.9,20151230,,Y
20160104,FANH01,K02,_,05,N,01,000,A143860,6.09,20151230,,Y
20160204,FANH01,K02,_,01,N,01,000,A131890,18.91,20160203,,Y
20160204,FANH01,K02,_,01,N,01,000,A132030,7.3,20160203,,Y
20160204,FANH01,K02,_,01,N,01,000,A136340,16.68,20160203,,Y
20160204,FANH01,K02,_,01,N,01,000,A138230,12.69,20160203,,Y
20160204,FANH01,K02,_,01,N,01,000,A139250,11.55,20160203,,Y
20160204,FANH01,K02,_,01,N,01,000,A147970,29.52,20160203,,Y
20160204,FANH01,K02,_,01,N,01,000,A148070,3.31,20160203,,Y
20160204,FANH01,K02,_,02,N,01,000,A131890,18.91,20160203,,Y
20160204,FANH01,K02,_,02,N,01,000,A132030,7.3,20160203,,Y
20160204,FANH01,K02,_,02,N,01,000,A136340,16.68,20160203,,Y
20160204,FANH01,K02,_,02,N,01,000,A138230,12.69,20160203,,Y
20160204,FANH01,K02,_,02,N,01,000,A139250,11.55,20160203,,Y
20160204,FANH01,K02,_,02,N,01,000,A147970,29.52,20160203,,Y
20160204,FANH01,K02,_,02,N,01,000,A148070,3.31,20160203,,Y
20160204,FANH01,K02,_,03,N,01,000,A131890,18.91,20160203,,Y
20160204,FANH01,K02,_,03,N,01,000,A132030,7.3,20160203,,Y
20160204,FANH01,K02,_,03,N,01,000,A136340,16.68,20160203,,Y
20160204,FANH01,K02,_,03,N,01,000,A138230,12.69,20160203,,Y
20160204,FANH01,K02,_,03,N,01,000,A139250,11.55,20160203,,Y
20160204,FANH01,K02,_,03,N,01,000,A147970,29.52,20160203,,Y
20160204,FANH01,K02,_,03,N,01,000,A148070,3.31,20160203,,Y
20160204,FANH01,K02,_,04,N,01,000,A131890,18.91,20160203,,Y
20160204,FANH01,K02,_,04,N,01,000,A132030,7.3,20160203,,Y
20160204,FANH01,K02,_,04,N,01,000,A136340,16.68,20160203,,Y
20160204,FANH01,K02,_,04,N,01,000,A138230,12.69,20160203,,Y
20160204,FANH01,K02,_,04,N,01,000,A139250,11.55,20160203,,Y
20160204,FANH01,K02,_,04,N,01,000,A147970,29.52,20160203,,Y
20160204,FANH01,K02,_,04,N,01,000,A148070,3.31,20160203,,Y
20160204,FANH01,K02,_,05,N,01,000,A131890,18.91,20160203,,Y
20160204,FANH01,K02,_,05,N,01,000,A132030,7.3,20160203,,Y
20160204,FANH01,K02,_,05,N,01,000,A136340,16.68,20160203,,Y
20160204,FANH01,K02,_,05,N,01,000,A138230,12.69,20160203,,Y
20160204,FANH01,K02,_,05,N,01,000,A139250,11.55,20160203,,Y
20160204,FANH01,K02,_,05,N,01,000,A147970,29.52,20160203,,Y
20160204,FANH01,K02,_,05,N,01,000,A148070,3.31,20160203,,Y
20160304,FANH01,K02,_,01,N,01,000,A132030,5.29,20160303,,Y
20160304,FANH01,K02,_,01,N,01,000,A136340,16.33,20160303,,Y
20160304,FANH01,K02,_,01,N,01,000,A138230,14.7,20160303,,Y
20160304,FANH01,K02,_,01,N,01,000,A139280,28.76,20160303,,Y
20160304,FANH01,K02,_,01,N,01,000,A143860,8.49,20160303,,Y
20160304,FANH01,K02,_,01,N,01,000,A147970,22.73,20160303,,Y
20160304,FANH01,K02,_,01,N,01,000,A148070,3.66,20160303,,Y
20160304,FANH01,K02,_,02,N,01,000,A132030,5.29,20160303,,Y
20160304,FANH01,K02,_,02,N,01,000,A136340,16.33,20160303,,Y
20160304,FANH01,K02,_,02,N,01,000,A138230,14.7,20160303,,Y
20160304,FANH01,K02,_,02,N,01,000,A139280,28.76,20160303,,Y
20160304,FANH01,K02,_,02,N,01,000,A143860,8.49,20160303,,Y
20160304,FANH01,K02,_,02,N,01,000,A147970,22.73,20160303,,Y
20160304,FANH01,K02,_,02,N,01,000,A148070,3.66,20160303,,Y
20160304,FANH01,K02,_,03,N,01,000,A132030,5.29,20160303,,Y
20160304,FANH01,K02,_,03,N,01,000,A136340,16.33,20160303,,Y
20160304,FANH01,K02,_,03,N,01,000,A138230,14.7,20160303,,Y
20160304,FANH01,K02,_,03,N,01,000,A139280,28.76,20160303,,Y
20160304,FANH01,K02,_,03,N,01,000,A143860,8.49,20160303,,Y
20160304,FANH01,K02,_,03,N,01,000,A147970,22.73,20160303,,Y
20160304,FANH01,K02,_,03,N,01,000,A148070,3.66,20160303,,Y
20160304,FANH01,K02,_,04,N,01,000,A132030,5.29,20160303,,Y
20160304,FANH01,K02,_,04,N,01,000,A136340,16.33,20160303,,Y
20160304,FANH01,K02,_,04,N,01,000,A138230,14.7,20160303,,Y
20160304,FANH01,K02,_,04,N,01,000,A139280,28.76,20160303,,Y
20160304,FANH01,K02,_,04,N,01,000,A143860,8.49,20160303,,Y
20160304,FANH01,K02,_,04,N,01,000,A147970,22.73,20160303,,Y
20160304,FANH01,K02,_,04,N,01,000,A148070,3.66,20160303,,Y
20160304,FANH01,K02,_,05,N,01,000,A132030,5.29,20160303,,Y
20160304,FANH01,K02,_,05,N,01,000,A136340,16.33,20160303,,Y
20160304,FANH01,K02,_,05,N,01,000,A138230,14.7,20160303,,Y
20160304,FANH01,K02,_,05,N,01,000,A139280,28.76,20160303,,Y
20160304,FANH01,K02,_,05,N,01,000,A143860,8.49,20160303,,Y
20160304,FANH01,K02,_,05,N,01,000,A147970,22.73,20160303,,Y
20160304,FANH01,K02,_,05,N,01,000,A148070,3.66,20160303,,Y
20160404,FANH01,K02,_,01,N,01,000,A104530,18.42,20160401,,Y
20160404,FANH01,K02,_,01,N,01,000,A105780,16.49,20160401,,Y
20160404,FANH01,K02,_,01,N,01,000,A117680,6.48,20160401,,Y
20160404,FANH01,K02,_,01,N,01,000,A122090,8.63,20160401,,Y
20160404,FANH01,K02,_,01,N,01,000,A132030,4.83,20160401,,Y
20160404,FANH01,K02,_,01,N,01,000,A136340,15.72,20160401,,Y
20160404,FANH01,K02,_,01,N,01,000,A138230,15.16,20160401,,Y
20160404,FANH01,K02,_,01,N,01,000,A145850,9.95,20160401,,Y
20160404,FANH01,K02,_,01,N,01,000,A148070,4.27,20160401,,Y
20160404,FANH01,K02,_,02,N,01,000,A104530,18.42,20160401,,Y
20160404,FANH01,K02,_,02,N,01,000,A105780,16.49,20160401,,Y
20160404,FANH01,K02,_,02,N,01,000,A117680,6.48,20160401,,Y
20160404,FANH01,K02,_,02,N,01,000,A122090,8.63,20160401,,Y
20160404,FANH01,K02,_,02,N,01,000,A132030,4.83,20160401,,Y
20160404,FANH01,K02,_,02,N,01,000,A136340,15.72,20160401,,Y
20160404,FANH01,K02,_,02,N,01,000,A138230,15.16,20160401,,Y
20160404,FANH01,K02,_,02,N,01,000,A145850,9.95,20160401,,Y
20160404,FANH01,K02,_,02,N,01,000,A148070,4.27,20160401,,Y
20160404,FANH01,K02,_,03,N,01,000,A104530,18.42,20160401,,Y
20160404,FANH01,K02,_,03,N,01,000,A105780,16.49,20160401,,Y
20160404,FANH01,K02,_,03,N,01,000,A117680,6.48,20160401,,Y
20160404,FANH01,K02,_,03,N,01,000,A122090,8.63,20160401,,Y
20160404,FANH01,K02,_,03,N,01,000,A132030,4.83,20160401,,Y
20160404,FANH01,K02,_,03,N,01,000,A136340,15.72,20160401,,Y
20160404,FANH01,K02,_,03,N,01,000,A138230,15.16,20160401,,Y
20160404,FANH01,K02,_,03,N,01,000,A145850,9.95,20160401,,Y
20160404,FANH01,K02,_,03,N,01,000,A148070,4.27,20160401,,Y
20160404,FANH01,K02,_,04,N,01,000,A104530,18.42,20160401,,Y
20160404,FANH01,K02,_,04,N,01,000,A105780,16.49,20160401,,Y
20160404,FANH01,K02,_,04,N,01,000,A117680,6.48,20160401,,Y
20160404,FANH01,K02,_,04,N,01,000,A122090,8.63,20160401,,Y
20160404,FANH01,K02,_,04,N,01,000,A132030,4.83,20160401,,Y
20160404,FANH01,K02,_,04,N,01,000,A136340,15.72,20160401,,Y
20160404,FANH01,K02,_,04,N,01,000,A138230,15.16,20160401,,Y
20160404,FANH01,K02,_,04,N,01,000,A145850,9.95,20160401,,Y
20160404,FANH01,K02,_,04,N,01,000,A148070,4.27,20160401,,Y
20160404,FANH01,K02,_,05,N,01,000,A104530,18.42,20160401,,Y
20160404,FANH01,K02,_,05,N,01,000,A105780,16.49,20160401,,Y
20160404,FANH01,K02,_,05,N,01,000,A117680,6.48,20160401,,Y
20160404,FANH01,K02,_,05,N,01,000,A122090,8.63,20160401,,Y
20160404,FANH01,K02,_,05,N,01,000,A132030,4.83,20160401,,Y
20160404,FANH01,K02,_,05,N,01,000,A136340,15.72,20160401,,Y
20160404,FANH01,K02,_,05,N,01,000,A138230,15.16,20160401,,Y
20160404,FANH01,K02,_,05,N,01,000,A145850,9.95,20160401,,Y
20160404,FANH01,K02,_,05,N,01,000,A148070,4.27,20160401,,Y
20160504,FANH01,K02,_,01,N,01,000,A104530,17.47,20160503,,Y
20160504,FANH01,K02,_,01,N,01,000,A122090,6.95,20160503,,Y
20160504,FANH01,K02,_,01,N,01,000,A136340,14.69,20160503,,Y
20160504,FANH01,K02,_,01,N,01,000,A137610,14.33,20160503,,Y
20160504,FANH01,K02,_,01,N,01,000,A139250,3.01,20160503,,Y
20160504,FANH01,K02,_,01,N,01,000,A139280,24.38,20160503,,Y
20160504,FANH01,K02,_,01,N,01,000,A144600,5.66,20160503,,Y
20160504,FANH01,K02,_,01,N,01,000,A145850,8.16,20160503,,Y
20160504,FANH01,K02,_,01,N,01,000,A148070,5.3,20160503,,Y
20160504,FANH01,K02,_,02,N,01,000,A104530,17.47,20160503,,Y
20160504,FANH01,K02,_,02,N,01,000,A122090,6.95,20160503,,Y
20160504,FANH01,K02,_,02,N,01,000,A136340,14.69,20160503,,Y
20160504,FANH01,K02,_,02,N,01,000,A137610,14.33,20160503,,Y
20160504,FANH01,K02,_,02,N,01,000,A139250,3.01,20160503,,Y
20160504,FANH01,K02,_,02,N,01,000,A139280,24.38,20160503,,Y
20160504,FANH01,K02,_,02,N,01,000,A144600,5.66,20160503,,Y
20160504,FANH01,K02,_,02,N,01,000,A145850,8.16,20160503,,Y
20160504,FANH01,K02,_,02,N,01,000,A148070,5.3,20160503,,Y
20160504,FANH01,K02,_,03,N,01,000,A104530,17.47,20160503,,Y
20160504,FANH01,K02,_,03,N,01,000,A122090,6.95,20160503,,Y
20160504,FANH01,K02,_,03,N,01,000,A136340,14.69,20160503,,Y
20160504,FANH01,K02,_,03,N,01,000,A137610,14.33,20160503,,Y
20160504,FANH01,K02,_,03,N,01,000,A139250,3.01,20160503,,Y
20160504,FANH01,K02,_,03,N,01,000,A139280,24.38,20160503,,Y
20160504,FANH01,K02,_,03,N,01,000,A144600,5.66,20160503,,Y
20160504,FANH01,K02,_,03,N,01,000,A145850,8.16,20160503,,Y
20160504,FANH01,K02,_,03,N,01,000,A148070,5.3,20160503,,Y
20160504,FANH01,K02,_,04,N,01,000,A104530,17.47,20160503,,Y
20160504,FANH01,K02,_,04,N,01,000,A122090,6.95,20160503,,Y
20160504,FANH01,K02,_,04,N,01,000,A136340,14.69,20160503,,Y
20160504,FANH01,K02,_,04,N,01,000,A137610,14.33,20160503,,Y
20160504,FANH01,K02,_,04,N,01,000,A139250,3.01,20160503,,Y
20160504,FANH01,K02,_,04,N,01,000,A139280,24.38,20160503,,Y
20160504,FANH01,K02,_,04,N,01,000,A144600,5.66,20160503,,Y
20160504,FANH01,K02,_,04,N,01,000,A145850,8.16,20160503,,Y
20160504,FANH01,K02,_,04,N,01,000,A148070,5.3,20160503,,Y
20160504,FANH01,K02,_,05,N,01,000,A104530,17.47,20160503,,Y
20160504,FANH01,K02,_,05,N,01,000,A122090,6.95,20160503,,Y
20160504,FANH01,K02,_,05,N,01,000,A136340,14.69,20160503,,Y
20160504,FANH01,K02,_,05,N,01,000,A137610,14.33,20160503,,Y
20160504,FANH01,K02,_,05,N,01,000,A139250,3.01,20160503,,Y
20160504,FANH01,K02,_,05,N,01,000,A139280,24.38,20160503,,Y
20160504,FANH01,K02,_,05,N,01,000,A144600,5.66,20160503,,Y
20160504,FANH01,K02,_,05,N,01,000,A145850,8.16,20160503,,Y
20160504,FANH01,K02,_,05,N,01,000,A148070,5.3,20160503,,Y
20160607,FANH01,K02,_,01,N,01,000,A104530,17.5,20160603,,Y
20160607,FANH01,K02,_,01,N,01,000,A117680,4.74,20160603,,Y
20160607,FANH01,K02,_,01,N,01,000,A136340,14.98,20160603,,Y
20160607,FANH01,K02,_,01,N,01,000,A137610,13.08,20160603,,Y
20160607,FANH01,K02,_,01,N,01,000,A139280,37.75,20160603,,Y
20160607,FANH01,K02,_,01,N,01,000,A144600,6.91,20160603,,Y
20160607,FANH01,K02,_,01,N,01,000,A148070,5.01,20160603,,Y
20160607,FANH01,K02,_,02,N,01,000,A104530,17.5,20160603,,Y
20160607,FANH01,K02,_,02,N,01,000,A117680,4.74,20160603,,Y
20160607,FANH01,K02,_,02,N,01,000,A136340,14.98,20160603,,Y
20160607,FANH01,K02,_,02,N,01,000,A137610,13.08,20160603,,Y
20160607,FANH01,K02,_,02,N,01,000,A139280,37.75,20160603,,Y
20160607,FANH01,K02,_,02,N,01,000,A144600,6.91,20160603,,Y
20160607,FANH01,K02,_,02,N,01,000,A148070,5.01,20160603,,Y
20160607,FANH01,K02,_,03,N,01,000,A104530,17.5,20160603,,Y
20160607,FANH01,K02,_,03,N,01,000,A117680,4.74,20160603,,Y
20160607,FANH01,K02,_,03,N,01,000,A136340,14.98,20160603,,Y
20160607,FANH01,K02,_,03,N,01,000,A137610,13.08,20160603,,Y
20160607,FANH01,K02,_,03,N,01,000,A139280,37.75,20160603,,Y
20160607,FANH01,K02,_,03,N,01,000,A144600,6.91,20160603,,Y
20160607,FANH01,K02,_,03,N,01,000,A148070,5.01,20160603,,Y
20160607,FANH01,K02,_,04,N,01,000,A104530,17.5,20160603,,Y
20160607,FANH01,K02,_,04,N,01,000,A117680,4.74,20160603,,Y
20160607,FANH01,K02,_,04,N,01,000,A136340,14.98,20160603,,Y
20160607,FANH01,K02,_,04,N,01,000,A137610,13.08,20160603,,Y
20160607,FANH01,K02,_,04,N,01,000,A139280,37.75,20160603,,Y
20160607,FANH01,K02,_,04,N,01,000,A144600,6.91,20160603,,Y
20160607,FANH01,K02,_,04,N,01,000,A148070,5.01,20160603,,Y
20160607,FANH01,K02,_,05,N,01,000,A104530,17.5,20160603,,Y
20160607,FANH01,K02,_,05,N,01,000,A117680,4.74,20160603,,Y
20160607,FANH01,K02,_,05,N,01,000,A136340,14.98,20160603,,Y
20160607,FANH01,K02,_,05,N,01,000,A137610,13.08,20160603,,Y
20160607,FANH01,K02,_,05,N,01,000,A139280,37.75,20160603,,Y
20160607,FANH01,K02,_,05,N,01,000,A144600,6.91,20160603,,Y
20160607,FANH01,K02,_,05,N,01,000,A148070,5.01,20160603,,Y
20160704,FANH01,K02,_,01,N,01,000,A122090,32.34,20160701,,Y
20160704,FANH01,K02,_,01,N,01,000,A136340,17.07,20160701,,Y
20160704,FANH01,K02,_,01,N,01,000,A137610,20.0,20160701,,Y
20160704,FANH01,K02,_,01,N,01,000,A139280,20.99,20160701,,Y
20160704,FANH01,K02,_,01,N,01,000,A143860,6.65,20160701,,Y
20160704,FANH01,K02,_,01,N,01,000,A148070,2.92,20160701,,Y
20160704,FANH01,K02,_,02,N,01,000,A122090,32.34,20160701,,Y
20160704,FANH01,K02,_,02,N,01,000,A136340,17.07,20160701,,Y
20160704,FANH01,K02,_,02,N,01,000,A137610,20.0,20160701,,Y
20160704,FANH01,K02,_,02,N,01,000,A139280,20.99,20160701,,Y
20160704,FANH01,K02,_,02,N,01,000,A143860,6.65,20160701,,Y
20160704,FANH01,K02,_,02,N,01,000,A148070,2.92,20160701,,Y
20160704,FANH01,K02,_,03,N,01,000,A122090,32.34,20160701,,Y
20160704,FANH01,K02,_,03,N,01,000,A136340,17.07,20160701,,Y
20160704,FANH01,K02,_,03,N,01,000,A137610,20.0,20160701,,Y
20160704,FANH01,K02,_,03,N,01,000,A139280,20.99,20160701,,Y
20160704,FANH01,K02,_,03,N,01,000,A143860,6.65,20160701,,Y
20160704,FANH01,K02,_,03,N,01,000,A148070,2.92,20160701,,Y
20160704,FANH01,K02,_,04,N,01,000,A122090,32.34,20160701,,Y
20160704,FANH01,K02,_,04,N,01,000,A136340,17.07,20160701,,Y
20160704,FANH01,K02,_,04,N,01,000,A137610,20.0,20160701,,Y
20160704,FANH01,K02,_,04,N,01,000,A139280,20.99,20160701,,Y
20160704,FANH01,K02,_,04,N,01,000,A143860,6.65,20160701,,Y
20160704,FANH01,K02,_,04,N,01,000,A148070,2.92,20160701,,Y
20160704,FANH01,K02,_,05,N,01,000,A122090,32.34,20160701,,Y
20160704,FANH01,K02,_,05,N,01,000,A136340,17.07,20160701,,Y
20160704,FANH01,K02,_,05,N,01,000,A137610,20.0,20160701,,Y
20160704,FANH01,K02,_,05,N,01,000,A139280,20.99,20160701,,Y
20160704,FANH01,K02,_,05,N,01,000,A143860,6.65,20160701,,Y
20160704,FANH01,K02,_,05,N,01,000,A148070,2.92,20160701,,Y
20160804,FANH01,K02,_,01,N,01,000,A091160,60.0,20160803,,Y
20160804,FANH01,K02,_,01,N,01,000,A132030,20.0,20160803,,Y
20160804,FANH01,K02,_,01,N,01,000,A136340,18.37,20160803,,Y
20160804,FANH01,K02,_,01,N,01,000,A148070,1.62,20160803,,Y
20160804,FANH01,K02,_,02,N,01,000,A091160,60.0,20160803,,Y
20160804,FANH01,K02,_,02,N,01,000,A132030,20.0,20160803,,Y
20160804,FANH01,K02,_,02,N,01,000,A136340,18.37,20160803,,Y
20160804,FANH01,K02,_,02,N,01,000,A148070,1.62,20160803,,Y
20160804,FANH01,K02,_,03,N,01,000,A091160,60.0,20160803,,Y
20160804,FANH01,K02,_,03,N,01,000,A132030,20.0,20160803,,Y
20160804,FANH01,K02,_,03,N,01,000,A136340,18.37,20160803,,Y
20160804,FANH01,K02,_,03,N,01,000,A148070,1.62,20160803,,Y
20160804,FANH01,K02,_,04,N,01,000,A091160,60.0,20160803,,Y
20160804,FANH01,K02,_,04,N,01,000,A132030,20.0,20160803,,Y
20160804,FANH01,K02,_,04,N,01,000,A136340,18.37,20160803,,Y
20160804,FANH01,K02,_,04,N,01,000,A148070,1.62,20160803,,Y
20160804,FANH01,K02,_,05,N,01,000,A091160,60.0,20160803,,Y
20160804,FANH01,K02,_,05,N,01,000,A132030,20.0,20160803,,Y
20160804,FANH01,K02,_,05,N,01,000,A136340,18.37,20160803,,Y
20160804,FANH01,K02,_,05,N,01,000,A148070,1.62,20160803,,Y
20160905,FANH01,K02,_,01,N,01,000,A091160,19.52,20160902,,Y
20160905,FANH01,K02,_,01,N,01,000,A122090,6.76,20160902,,Y
20160905,FANH01,K02,_,01,N,01,000,A131890,16.89,20160902,,Y
20160905,FANH01,K02,_,01,N,01,000,A136340,18.45,20160902,,Y
20160905,FANH01,K02,_,01,N,01,000,A144600,20.0,20160902,,Y
20160905,FANH01,K02,_,01,N,01,000,A145850,6.3,20160902,,Y
20160905,FANH01,K02,_,01,N,01,000,A148070,1.54,20160902,,Y
20160905,FANH01,K02,_,01,N,01,000,A161510,10.51,20160902,,Y
20160905,FANH01,K02,_,02,N,01,000,A091160,19.52,20160902,,Y
20160905,FANH01,K02,_,02,N,01,000,A122090,6.76,20160902,,Y
20160905,FANH01,K02,_,02,N,01,000,A131890,16.89,20160902,,Y
20160905,FANH01,K02,_,02,N,01,000,A136340,18.45,20160902,,Y
20160905,FANH01,K02,_,02,N,01,000,A144600,20.0,20160902,,Y
20160905,FANH01,K02,_,02,N,01,000,A145850,6.3,20160902,,Y
20160905,FANH01,K02,_,02,N,01,000,A148070,1.54,20160902,,Y
20160905,FANH01,K02,_,02,N,01,000,A161510,10.51,20160902,,Y
20160905,FANH01,K02,_,03,N,01,000,A091160,19.52,20160902,,Y
20160905,FANH01,K02,_,03,N,01,000,A122090,6.76,20160902,,Y
20160905,FANH01,K02,_,03,N,01,000,A131890,16.89,20160902,,Y
20160905,FANH01,K02,_,03,N,01,000,A136340,18.45,20160902,,Y
20160905,FANH01,K02,_,03,N,01,000,A144600,20.0,20160902,,Y
20160905,FANH01,K02,_,03,N,01,000,A145850,6.3,20160902,,Y
20160905,FANH01,K02,_,03,N,01,000,A148070,1.54,20160902,,Y
20160905,FANH01,K02,_,03,N,01,000,A161510,10.51,20160902,,Y
20160905,FANH01,K02,_,04,N,01,000,A091160,19.52,20160902,,Y
20160905,FANH01,K02,_,04,N,01,000,A122090,6.76,20160902,,Y
20160905,FANH01,K02,_,04,N,01,000,A131890,16.89,20160902,,Y
20160905,FANH01,K02,_,04,N,01,000,A136340,18.45,20160902,,Y
20160905,FANH01,K02,_,04,N,01,000,A144600,20.0,20160902,,Y
20160905,FANH01,K02,_,04,N,01,000,A145850,6.3,20160902,,Y
20160905,FANH01,K02,_,04,N,01,000,A148070,1.54,20160902,,Y
20160905,FANH01,K02,_,04,N,01,000,A161510,10.51,20160902,,Y
20160905,FANH01,K02,_,05,N,01,000,A091160,19.52,20160902,,Y
20160905,FANH01,K02,_,05,N,01,000,A122090,6.76,20160902,,Y
20160905,FANH01,K02,_,05,N,01,000,A131890,16.89,20160902,,Y
20160905,FANH01,K02,_,05,N,01,000,A136340,18.45,20160902,,Y
20160905,FANH01,K02,_,05,N,01,000,A144600,20.0,20160902,,Y
20160905,FANH01,K02,_,05,N,01,000,A145850,6.3,20160902,,Y
20160905,FANH01,K02,_,05,N,01,000,A148070,1.54,20160902,,Y
20160905,FANH01,K02,_,05,N,01,000,A161510,10.51,20160902,,Y
20161004,FANH01,K02,_,01,N,01,000,A122090,4.24,20160930,,Y
20161004,FANH01,K02,_,01,N,01,000,A130680,4.52,20160930,,Y
20161004,FANH01,K02,_,01,N,01,000,A131890,14.24,20160930,,Y
20161004,FANH01,K02,_,01,N,01,000,A132030,15.47,20160930,,Y
20161004,FANH01,K02,_,01,N,01,000,A136340,18.51,20160930,,Y
20161004,FANH01,K02,_,01,N,01,000,A139260,4.51,20160930,,Y
20161004,FANH01,K02,_,01,N,01,000,A145850,5.07,20160930,,Y
20161004,FANH01,K02,_,01,N,01,000,A148070,1.48,20160930,,Y
20161004,FANH01,K02,_,01,N,01,000,A161510,31.92,20160930,,Y
20161004,FANH01,K02,_,02,N,01,000,A122090,4.24,20160930,,Y
20161004,FANH01,K02,_,02,N,01,000,A130680,4.52,20160930,,Y
20161004,FANH01,K02,_,02,N,01,000,A131890,14.24,20160930,,Y
20161004,FANH01,K02,_,02,N,01,000,A132030,15.47,20160930,,Y
20161004,FANH01,K02,_,02,N,01,000,A136340,18.51,20160930,,Y
20161004,FANH01,K02,_,02,N,01,000,A139260,4.51,20160930,,Y
20161004,FANH01,K02,_,02,N,01,000,A145850,5.07,20160930,,Y
20161004,FANH01,K02,_,02,N,01,000,A148070,1.48,20160930,,Y
20161004,FANH01,K02,_,02,N,01,000,A161510,31.92,20160930,,Y
20161004,FANH01,K02,_,03,N,01,000,A122090,4.24,20160930,,Y
20161004,FANH01,K02,_,03,N,01,000,A130680,4.52,20160930,,Y
20161004,FANH01,K02,_,03,N,01,000,A131890,14.24,20160930,,Y
20161004,FANH01,K02,_,03,N,01,000,A132030,15.47,20160930,,Y
20161004,FANH01,K02,_,03,N,01,000,A136340,18.51,20160930,,Y
20161004,FANH01,K02,_,03,N,01,000,A139260,4.51,20160930,,Y
20161004,FANH01,K02,_,03,N,01,000,A145850,5.07,20160930,,Y
20161004,FANH01,K02,_,03,N,01,000,A148070,1.48,20160930,,Y
20161004,FANH01,K02,_,03,N,01,000,A161510,31.92,20160930,,Y
20161004,FANH01,K02,_,04,N,01,000,A122090,4.24,20160930,,Y
20161004,FANH01,K02,_,04,N,01,000,A130680,4.52,20160930,,Y
20161004,FANH01,K02,_,04,N,01,000,A131890,14.24,20160930,,Y
20161004,FANH01,K02,_,04,N,01,000,A132030,15.47,20160930,,Y
20161004,FANH01,K02,_,04,N,01,000,A136340,18.51,20160930,,Y
20161004,FANH01,K02,_,04,N,01,000,A139260,4.51,20160930,,Y
20161004,FANH01,K02,_,04,N,01,000,A145850,5.07,20160930,,Y
20161004,FANH01,K02,_,04,N,01,000,A148070,1.48,20160930,,Y
20161004,FANH01,K02,_,04,N,01,000,A161510,31.92,20160930,,Y
20161004,FANH01,K02,_,05,N,01,000,A122090,4.24,20160930,,Y
20161004,FANH01,K02,_,05,N,01,000,A130680,4.52,20160930,,Y
20161004,FANH01,K02,_,05,N,01,000,A131890,14.24,20160930,,Y
20161004,FANH01,K02,_,05,N,01,000,A132030,15.47,20160930,,Y
20161004,FANH01,K02,_,05,N,01,000,A136340,18.51,20160930,,Y
20161004,FANH01,K02,_,05,N,01,000,A139260,4.51,20160930,,Y
20161004,FANH01,K02,_,05,N,01,000,A145850,5.07,20160930,,Y
20161004,FANH01,K02,_,05,N,01,000,A148070,1.48,20160930,,Y
20161004,FANH01,K02,_,05,N,01,000,A161510,31.92,20160930,,Y
20161104,FANH01,K02,_,01,N,01,000,A091160,7.46,20161103,,Y
20161104,FANH01,K02,_,01,N,01,000,A114260,20.0,20161103,,Y
20161104,FANH01,K02,_,01,N,01,000,A122090,16.2,20161103,,Y
20161104,FANH01,K02,_,01,N,01,000,A130680,5.44,20161103,,Y
20161104,FANH01,K02,_,01,N,01,000,A147970,12.46,20161103,,Y
20161104,FANH01,K02,_,01,N,01,000,A150460,10.37,20161103,,Y
20161104,FANH01,K02,_,01,N,01,000,A160580,14.55,20161103,,Y
20161104,FANH01,K02,_,01,N,01,000,A161510,13.49,20161103,,Y
20161104,FANH01,K02,_,02,N,01,000,A091160,7.46,20161103,,Y
20161104,FANH01,K02,_,02,N,01,000,A114260,20.0,20161103,,Y
20161104,FANH01,K02,_,02,N,01,000,A122090,16.2,20161103,,Y
20161104,FANH01,K02,_,02,N,01,000,A130680,5.44,20161103,,Y
20161104,FANH01,K02,_,02,N,01,000,A147970,12.46,20161103,,Y
20161104,FANH01,K02,_,02,N,01,000,A150460,10.37,20161103,,Y
20161104,FANH01,K02,_,02,N,01,000,A160580,14.55,20161103,,Y
20161104,FANH01,K02,_,02,N,01,000,A161510,13.49,20161103,,Y
20161104,FANH01,K02,_,03,N,01,000,A091160,7.46,20161103,,Y
20161104,FANH01,K02,_,03,N,01,000,A114260,20.0,20161103,,Y
20161104,FANH01,K02,_,03,N,01,000,A122090,16.2,20161103,,Y
20161104,FANH01,K02,_,03,N,01,000,A130680,5.44,20161103,,Y
20161104,FANH01,K02,_,03,N,01,000,A147970,12.46,20161103,,Y
20161104,FANH01,K02,_,03,N,01,000,A150460,10.37,20161103,,Y
20161104,FANH01,K02,_,03,N,01,000,A160580,14.55,20161103,,Y
20161104,FANH01,K02,_,03,N,01,000,A161510,13.49,20161103,,Y
20161104,FANH01,K02,_,04,N,01,000,A091160,7.46,20161103,,Y
20161104,FANH01,K02,_,04,N,01,000,A114260,20.0,20161103,,Y
20161104,FANH01,K02,_,04,N,01,000,A122090,16.2,20161103,,Y
20161104,FANH01,K02,_,04,N,01,000,A130680,5.44,20161103,,Y
20161104,FANH01,K02,_,04,N,01,000,A147970,12.46,20161103,,Y
20161104,FANH01,K02,_,04,N,01,000,A150460,10.37,20161103,,Y
20161104,FANH01,K02,_,04,N,01,000,A160580,14.55,20161103,,Y
20161104,FANH01,K02,_,04,N,01,000,A161510,13.49,20161103,,Y
20161104,FANH01,K02,_,05,N,01,000,A091160,7.46,20161103,,Y
20161104,FANH01,K02,_,05,N,01,000,A114260,20.0,20161103,,Y
20161104,FANH01,K02,_,05,N,01,000,A122090,16.2,20161103,,Y
20161104,FANH01,K02,_,05,N,01,000,A130680,5.44,20161103,,Y
20161104,FANH01,K02,_,05,N,01,000,A147970,12.46,20161103,,Y
20161104,FANH01,K02,_,05,N,01,000,A150460,10.37,20161103,,Y
20161104,FANH01,K02,_,05,N,01,000,A160580,14.55,20161103,,Y
20161104,FANH01,K02,_,05,N,01,000,A161510,13.49,20161103,,Y
20161205,FANH01,K02,_,01,N,01,000,A091170,8.51,20161202,,Y
20161205,FANH01,K02,_,01,N,01,000,A102780,9.99,20161202,,Y
20161205,FANH01,K02,_,01,N,01,000,A122090,7.89,20161202,,Y
20161205,FANH01,K02,_,01,N,01,000,A138230,18.63,20161202,,Y
20161205,FANH01,K02,_,01,N,01,000,A145850,10.95,20161202,,Y
20161205,FANH01,K02,_,01,N,01,000,A160580,1.36,20161202,,Y
20161205,FANH01,K02,_,01,N,01,000,A161510,22.63,20161202,,Y
20161205,FANH01,K02,_,02,N,01,000,A091170,8.51,20161202,,Y
20161205,FANH01,K02,_,02,N,01,000,A102780,9.99,20161202,,Y
20161205,FANH01,K02,_,02,N,01,000,A122090,7.89,20161202,,Y
20161205,FANH01,K02,_,02,N,01,000,A138230,18.63,20161202,,Y
20161205,FANH01,K02,_,02,N,01,000,A145850,10.95,20161202,,Y
20161205,FANH01,K02,_,02,N,01,000,A160580,1.36,20161202,,Y
20161205,FANH01,K02,_,02,N,01,000,A161510,22.63,20161202,,Y
20161205,FANH01,K02,_,03,N,01,000,A091170,8.51,20161202,,Y
20161205,FANH01,K02,_,03,N,01,000,A102780,9.99,20161202,,Y
20161205,FANH01,K02,_,03,N,01,000,A122090,7.89,20161202,,Y
20161205,FANH01,K02,_,03,N,01,000,A138230,18.63,20161202,,Y
20161205,FANH01,K02,_,03,N,01,000,A145850,10.95,20161202,,Y
20161205,FANH01,K02,_,03,N,01,000,A160580,1.36,20161202,,Y
20161205,FANH01,K02,_,03,N,01,000,A161510,22.63,20161202,,Y
20161205,FANH01,K02,_,04,N,01,000,A091170,8.51,20161202,,Y
20161205,FANH01,K02,_,04,N,01,000,A102780,9.99,20161202,,Y
20161205,FANH01,K02,_,04,N,01,000,A122090,7.89,20161202,,Y
20161205,FANH01,K02,_,04,N,01,000,A138230,18.63,20161202,,Y
20161205,FANH01,K02,_,04,N,01,000,A145850,10.95,20161202,,Y
20161205,FANH01,K02,_,04,N,01,000,A160580,1.36,20161202,,Y
20161205,FANH01,K02,_,04,N,01,000,A161510,22.63,20161202,,Y
20161205,FANH01,K02,_,05,N,01,000,A091170,8.51,20161202,,Y
20161205,FANH01,K02,_,05,N,01,000,A102780,9.99,20161202,,Y
20161205,FANH01,K02,_,05,N,01,000,A122090,7.89,20161202,,Y
20161205,FANH01,K02,_,05,N,01,000,A138230,18.63,20161202,,Y
20161205,FANH01,K02,_,05,N,01,000,A145850,10.95,20161202,,Y
20161205,FANH01,K02,_,05,N,01,000,A160580,1.36,20161202,,Y
20161205,FANH01,K02,_,05,N,01,000,A161510,22.63,20161202,,Y
20170104,FANH01,K02,_,01,N,01,000,A117680,14.51,20170103,,Y
20170104,FANH01,K02,_,01,N,01,000,A122090,18.25,20170103,,Y
20170104,FANH01,K02,_,01,N,01,000,A138230,19.02,20170103,,Y
20170104,FANH01,K02,_,01,N,01,000,A145850,27.22,20170103,,Y
20170104,FANH01,K02,_,02,N,01,000,A117680,14.51,20170103,,Y
20170104,FANH01,K02,_,02,N,01,000,A122090,18.25,20170103,,Y
20170104,FANH01,K02,_,02,N,01,000,A138230,19.02,20170103,,Y
20170104,FANH01,K02,_,02,N,01,000,A145850,27.22,20170103,,Y
20170104,FANH01,K02,_,03,N,01,000,A117680,14.51,20170103,,Y
20170104,FANH01,K02,_,03,N,01,000,A122090,18.25,20170103,,Y
20170104,FANH01,K02,_,03,N,01,000,A138230,19.02,20170103,,Y
20170104,FANH01,K02,_,03,N,01,000,A145850,27.22,20170103,,Y
20170104,FANH01,K02,_,04,N,01,000,A117680,14.51,20170103,,Y
20170104,FANH01,K02,_,04,N,01,000,A122090,18.25,20170103,,Y
20170104,FANH01,K02,_,04,N,01,000,A138230,19.02,20170103,,Y
20170104,FANH01,K02,_,04,N,01,000,A145850,27.22,20170103,,Y
20170104,FANH01,K02,_,05,N,01,000,A117680,14.51,20170103,,Y
20170104,FANH01,K02,_,05,N,01,000,A122090,18.25,20170103,,Y
20170104,FANH01,K02,_,05,N,01,000,A138230,19.02,20170103,,Y
20170104,FANH01,K02,_,05,N,01,000,A145850,27.22,20170103,,Y
20170206,FANH01,K02,_,01,N,01,000,A091160,10.86,20170203,,Y
20170206,FANH01,K02,_,01,N,01,000,A122090,4.13,20170203,,Y
20170206,FANH01,K02,_,01,N,01,000,A136340,37.92,20170203,,Y
20170206,FANH01,K02,_,01,N,01,000,A138230,10.0,20170203,,Y
20170206,FANH01,K02,_,01,N,01,000,A138520,9.01,20170203,,Y
20170206,FANH01,K02,_,01,N,01,000,A145850,5.97,20170203,,Y
20170206,FANH01,K02,_,01,N,01,000,A148070,2.07,20170203,,Y
20170206,FANH01,K02,_,01,N,01,000,A161510,20.02,20170203,,Y
20170206,FANH01,K02,_,02,N,01,000,A091160,10.86,20170203,,Y
20170206,FANH01,K02,_,02,N,01,000,A122090,4.13,20170203,,Y
20170206,FANH01,K02,_,02,N,01,000,A136340,37.92,20170203,,Y
20170206,FANH01,K02,_,02,N,01,000,A138230,10.0,20170203,,Y
20170206,FANH01,K02,_,02,N,01,000,A138520,9.01,20170203,,Y
20170206,FANH01,K02,_,02,N,01,000,A145850,5.97,20170203,,Y
20170206,FANH01,K02,_,02,N,01,000,A148070,2.07,20170203,,Y
20170206,FANH01,K02,_,02,N,01,000,A161510,20.02,20170203,,Y
20170206,FANH01,K02,_,03,N,01,000,A091160,10.86,20170203,,Y
20170206,FANH01,K02,_,03,N,01,000,A122090,4.13,20170203,,Y
20170206,FANH01,K02,_,03,N,01,000,A136340,37.92,20170203,,Y
20170206,FANH01,K02,_,03,N,01,000,A138230,10.0,20170203,,Y
20170206,FANH01,K02,_,03,N,01,000,A138520,9.01,20170203,,Y
20170206,FANH01,K02,_,03,N,01,000,A145850,5.97,20170203,,Y
20170206,FANH01,K02,_,03,N,01,000,A148070,2.07,20170203,,Y
20170206,FANH01,K02,_,03,N,01,000,A161510,20.02,20170203,,Y
20170206,FANH01,K02,_,04,N,01,000,A091160,10.86,20170203,,Y
20170206,FANH01,K02,_,04,N,01,000,A122090,4.13,20170203,,Y
20170206,FANH01,K02,_,04,N,01,000,A136340,37.92,20170203,,Y
20170206,FANH01,K02,_,04,N,01,000,A138230,10.0,20170203,,Y
20170206,FANH01,K02,_,04,N,01,000,A138520,9.01,20170203,,Y
20170206,FANH01,K02,_,04,N,01,000,A145850,5.97,20170203,,Y
20170206,FANH01,K02,_,04,N,01,000,A148070,2.07,20170203,,Y
20170206,FANH01,K02,_,04,N,01,000,A161510,20.02,20170203,,Y
20170206,FANH01,K02,_,05,N,01,000,A091160,10.86,20170203,,Y
20170206,FANH01,K02,_,05,N,01,000,A122090,4.13,20170203,,Y
20170206,FANH01,K02,_,05,N,01,000,A136340,37.92,20170203,,Y
20170206,FANH01,K02,_,05,N,01,000,A138230,10.0,20170203,,Y
20170206,FANH01,K02,_,05,N,01,000,A138520,9.01,20170203,,Y
20170206,FANH01,K02,_,05,N,01,000,A145850,5.97,20170203,,Y
20170206,FANH01,K02,_,05,N,01,000,A148070,2.07,20170203,,Y
20170206,FANH01,K02,_,05,N,01,000,A161510,20.02,20170203,,Y
20170306,FANH01,K02,_,01,N,01,000,A122090,5.7,20170303,,Y
20170306,FANH01,K02,_,01,N,01,000,A136340,45.0,20170303,,Y
20170306,FANH01,K02,_,01,N,01,000,A137610,6.86,20170303,,Y
20170306,FANH01,K02,_,01,N,01,000,A138520,14.41,20170303,,Y
20170306,FANH01,K02,_,01,N,01,000,A139260,3.11,20170303,,Y
20170306,FANH01,K02,_,01,N,01,000,A160580,3.13,20170303,,Y
20170306,FANH01,K02,_,01,N,01,000,A161510,21.35,20170303,,Y
20170306,FANH01,K02,_,02,N,01,000,A122090,5.7,20170303,,Y
20170306,FANH01,K02,_,02,N,01,000,A136340,45.0,20170303,,Y
20170306,FANH01,K02,_,02,N,01,000,A137610,6.86,20170303,,Y
20170306,FANH01,K02,_,02,N,01,000,A138520,14.41,20170303,,Y
20170306,FANH01,K02,_,02,N,01,000,A139260,3.11,20170303,,Y
20170306,FANH01,K02,_,02,N,01,000,A160580,3.13,20170303,,Y
20170306,FANH01,K02,_,02,N,01,000,A161510,21.35,20170303,,Y
20170306,FANH01,K02,_,03,N,01,000,A122090,5.7,20170303,,Y
20170306,FANH01,K02,_,03,N,01,000,A136340,45.0,20170303,,Y
20170306,FANH01,K02,_,03,N,01,000,A137610,6.86,20170303,,Y
20170306,FANH01,K02,_,03,N,01,000,A138520,14.41,20170303,,Y
20170306,FANH01,K02,_,03,N,01,000,A139260,3.11,20170303,,Y
20170306,FANH01,K02,_,03,N,01,000,A160580,3.13,20170303,,Y
20170306,FANH01,K02,_,03,N,01,000,A161510,21.35,20170303,,Y
20170306,FANH01,K02,_,04,N,01,000,A122090,5.7,20170303,,Y
20170306,FANH01,K02,_,04,N,01,000,A136340,45.0,20170303,,Y
20170306,FANH01,K02,_,04,N,01,000,A137610,6.86,20170303,,Y
20170306,FANH01,K02,_,04,N,01,000,A138520,14.41,20170303,,Y
20170306,FANH01,K02,_,04,N,01,000,A139260,3.11,20170303,,Y
20170306,FANH01,K02,_,04,N,01,000,A160580,3.13,20170303,,Y
20170306,FANH01,K02,_,04,N,01,000,A161510,21.35,20170303,,Y
20170306,FANH01,K02,_,05,N,01,000,A122090,5.7,20170303,,Y
20170306,FANH01,K02,_,05,N,01,000,A136340,45.0,20170303,,Y
20170306,FANH01,K02,_,05,N,01,000,A137610,6.86,20170303,,Y
20170306,FANH01,K02,_,05,N,01,000,A138520,14.41,20170303,,Y
20170306,FANH01,K02,_,05,N,01,000,A139260,3.11,20170303,,Y
20170306,FANH01,K02,_,05,N,01,000,A160580,3.13,20170303,,Y
20170306,FANH01,K02,_,05,N,01,000,A161510,21.35,20170303,,Y
20170404,FANH01,K02,_,01,N,01,000,A114260,11.47,20170403,,Y
20170404,FANH01,K02,_,01,N,01,000,A122090,12.67,20170403,,Y
20170404,FANH01,K02,_,01,N,01,000,A131890,13.41,20170403,,Y
20170404,FANH01,K02,_,01,N,01,000,A136340,28.52,20170403,,Y
20170404,FANH01,K02,_,01,N,01,000,A137610,7.06,20170403,,Y
20170404,FANH01,K02,_,01,N,01,000,A139260,5.86,20170403,,Y
20170404,FANH01,K02,_,01,N,01,000,A160580,2.93,20170403,,Y
20170404,FANH01,K02,_,01,N,01,000,A161510,17.53,20170403,,Y
20170404,FANH01,K02,_,02,N,01,000,A114260,11.47,20170403,,Y
20170404,FANH01,K02,_,02,N,01,000,A122090,12.67,20170403,,Y
20170404,FANH01,K02,_,02,N,01,000,A131890,13.41,20170403,,Y
20170404,FANH01,K02,_,02,N,01,000,A136340,28.52,20170403,,Y
20170404,FANH01,K02,_,02,N,01,000,A137610,7.06,20170403,,Y
20170404,FANH01,K02,_,02,N,01,000,A139260,5.86,20170403,,Y
20170404,FANH01,K02,_,02,N,01,000,A160580,2.93,20170403,,Y
20170404,FANH01,K02,_,02,N,01,000,A161510,17.53,20170403,,Y
20170404,FANH01,K02,_,03,N,01,000,A114260,11.47,20170403,,Y
20170404,FANH01,K02,_,03,N,01,000,A122090,12.67,20170403,,Y
20170404,FANH01,K02,_,03,N,01,000,A131890,13.41,20170403,,Y
20170404,FANH01,K02,_,03,N,01,000,A136340,28.52,20170403,,Y
20170404,FANH01,K02,_,03,N,01,000,A137610,7.06,20170403,,Y
20170404,FANH01,K02,_,03,N,01,000,A139260,5.86,20170403,,Y
20170404,FANH01,K02,_,03,N,01,000,A160580,2.93,20170403,,Y
20170404,FANH01,K02,_,03,N,01,000,A161510,17.53,20170403,,Y
20170404,FANH01,K02,_,04,N,01,000,A114260,11.47,20170403,,Y
20170404,FANH01,K02,_,04,N,01,000,A122090,12.67,20170403,,Y
20170404,FANH01,K02,_,04,N,01,000,A131890,13.41,20170403,,Y
20170404,FANH01,K02,_,04,N,01,000,A136340,28.52,20170403,,Y
20170404,FANH01,K02,_,04,N,01,000,A137610,7.06,20170403,,Y
20170404,FANH01,K02,_,04,N,01,000,A139260,5.86,20170403,,Y
20170404,FANH01,K02,_,04,N,01,000,A160580,2.93,20170403,,Y
20170404,FANH01,K02,_,04,N,01,000,A161510,17.53,20170403,,Y
20170404,FANH01,K02,_,05,N,01,000,A114260,11.47,20170403,,Y
20170404,FANH01,K02,_,05,N,01,000,A122090,12.67,20170403,,Y
20170404,FANH01,K02,_,05,N,01,000,A131890,13.41,20170403,,Y
20170404,FANH01,K02,_,05,N,01,000,A136340,28.52,20170403,,Y
20170404,FANH01,K02,_,05,N,01,000,A137610,7.06,20170403,,Y
20170404,FANH01,K02,_,05,N,01,000,A139260,5.86,20170403,,Y
20170404,FANH01,K02,_,05,N,01,000,A160580,2.93,20170403,,Y
20170404,FANH01,K02,_,05,N,01,000,A161510,17.53,20170403,,Y
20170504,FANH01,K02,_,01,N,01,000,A114260,7.73,20170502,,Y
20170504,FANH01,K02,_,01,N,01,000,A122090,8.9,20170502,,Y
20170504,FANH01,K02,_,01,N,01,000,A132030,20.0,20170502,,Y
20170504,FANH01,K02,_,01,N,01,000,A136340,22.26,20170502,,Y
20170504,FANH01,K02,_,01,N,01,000,A138520,12.89,20170502,,Y
20170504,FANH01,K02,_,01,N,01,000,A139260,4.1,20170502,,Y
20170504,FANH01,K02,_,01,N,01,000,A161510,23.46,20170502,,Y
20170504,FANH01,K02,_,02,N,01,000,A114260,7.73,20170502,,Y
20170504,FANH01,K02,_,02,N,01,000,A122090,8.9,20170502,,Y
20170504,FANH01,K02,_,02,N,01,000,A132030,20.0,20170502,,Y
20170504,FANH01,K02,_,02,N,01,000,A136340,22.26,20170502,,Y
20170504,FANH01,K02,_,02,N,01,000,A138520,12.89,20170502,,Y
20170504,FANH01,K02,_,02,N,01,000,A139260,4.1,20170502,,Y
20170504,FANH01,K02,_,02,N,01,000,A161510,23.46,20170502,,Y
20170504,FANH01,K02,_,03,N,01,000,A114260,7.73,20170502,,Y
20170504,FANH01,K02,_,03,N,01,000,A122090,8.9,20170502,,Y
20170504,FANH01,K02,_,03,N,01,000,A132030,20.0,20170502,,Y
20170504,FANH01,K02,_,03,N,01,000,A136340,22.26,20170502,,Y
20170504,FANH01,K02,_,03,N,01,000,A138520,12.89,20170502,,Y
20170504,FANH01,K02,_,03,N,01,000,A139260,4.1,20170502,,Y
20170504,FANH01,K02,_,03,N,01,000,A161510,23.46,20170502,,Y
20170504,FANH01,K02,_,04,N,01,000,A114260,7.73,20170502,,Y
20170504,FANH01,K02,_,04,N,01,000,A122090,8.9,20170502,,Y
20170504,FANH01,K02,_,04,N,01,000,A132030,20.0,20170502,,Y
20170504,FANH01,K02,_,04,N,01,000,A136340,22.26,20170502,,Y
20170504,FANH01,K02,_,04,N,01,000,A138520,12.89,20170502,,Y
20170504,FANH01,K02,_,04,N,01,000,A139260,4.1,20170502,,Y
20170504,FANH01,K02,_,04,N,01,000,A161510,23.46,20170502,,Y
20170504,FANH01,K02,_,05,N,01,000,A114260,7.73,20170502,,Y
20170504,FANH01,K02,_,05,N,01,000,A122090,8.9,20170502,,Y
20170504,FANH01,K02,_,05,N,01,000,A132030,20.0,20170502,,Y
20170504,FANH01,K02,_,05,N,01,000,A136340,22.26,20170502,,Y
20170504,FANH01,K02,_,05,N,01,000,A138520,12.89,20170502,,Y
20170504,FANH01,K02,_,05,N,01,000,A139260,4.1,20170502,,Y
20170504,FANH01,K02,_,05,N,01,000,A161510,23.46,20170502,,Y
20170605,FANH01,K02,_,01,N,01,000,A091160,9.29,20170602,,Y
20170605,FANH01,K02,_,01,N,01,000,A122090,6.55,20170602,,Y
20170605,FANH01,K02,_,01,N,01,000,A136340,40.0,20170602,,Y
20170605,FANH01,K02,_,01,N,01,000,A138230,10.0,20170602,,Y
20170605,FANH01,K02,_,01,N,01,000,A145850,8.12,20170602,,Y
20170605,FANH01,K02,_,01,N,01,000,A150460,10.65,20170602,,Y
20170605,FANH01,K02,_,01,N,01,000,A161510,15.36,20170602,,Y
20170605,FANH01,K02,_,02,N,01,000,A091160,9.29,20170602,,Y
20170605,FANH01,K02,_,02,N,01,000,A122090,6.55,20170602,,Y
20170605,FANH01,K02,_,02,N,01,000,A136340,40.0,20170602,,Y
20170605,FANH01,K02,_,02,N,01,000,A138230,10.0,20170602,,Y
20170605,FANH01,K02,_,02,N,01,000,A145850,8.12,20170602,,Y
20170605,FANH01,K02,_,02,N,01,000,A150460,10.65,20170602,,Y
20170605,FANH01,K02,_,02,N,01,000,A161510,15.36,20170602,,Y
20170605,FANH01,K02,_,03,N,01,000,A091160,9.29,20170602,,Y
20170605,FANH01,K02,_,03,N,01,000,A122090,6.55,20170602,,Y
20170605,FANH01,K02,_,03,N,01,000,A136340,40.0,20170602,,Y
20170605,FANH01,K02,_,03,N,01,000,A138230,10.0,20170602,,Y
20170605,FANH01,K02,_,03,N,01,000,A145850,8.12,20170602,,Y
20170605,FANH01,K02,_,03,N,01,000,A150460,10.65,20170602,,Y
20170605,FANH01,K02,_,03,N,01,000,A161510,15.36,20170602,,Y
20170605,FANH01,K02,_,04,N,01,000,A091160,9.29,20170602,,Y
20170605,FANH01,K02,_,04,N,01,000,A122090,6.55,20170602,,Y
20170605,FANH01,K02,_,04,N,01,000,A136340,40.0,20170602,,Y
20170605,FANH01,K02,_,04,N,01,000,A138230,10.0,20170602,,Y
20170605,FANH01,K02,_,04,N,01,000,A145850,8.12,20170602,,Y
20170605,FANH01,K02,_,04,N,01,000,A150460,10.65,20170602,,Y
20170605,FANH01,K02,_,04,N,01,000,A161510,15.36,20170602,,Y
20170605,FANH01,K02,_,05,N,01,000,A091160,9.29,20170602,,Y
20170605,FANH01,K02,_,05,N,01,000,A122090,6.55,20170602,,Y
20170605,FANH01,K02,_,05,N,01,000,A136340,40.0,20170602,,Y
20170605,FANH01,K02,_,05,N,01,000,A138230,10.0,20170602,,Y
20170605,FANH01,K02,_,05,N,01,000,A145850,8.12,20170602,,Y
20170605,FANH01,K02,_,05,N,01,000,A150460,10.65,20170602,,Y
20170605,FANH01,K02,_,05,N,01,000,A161510,15.36,20170602,,Y
20170704,FANH01,K02,_,01,N,01,000,A114260,9.99,20170703,,Y
20170704,FANH01,K02,_,01,N,01,000,A122090,5.01,20170703,,Y
20170704,FANH01,K02,_,01,N,01,000,A131890,19.88,20170703,,Y
20170704,FANH01,K02,_,01,N,01,000,A132030,20.0,20170703,,Y
20170704,FANH01,K02,_,01,N,01,000,A136340,20.0,20170703,,Y
20170704,FANH01,K02,_,01,N,01,000,A139290,8.65,20170703,,Y
20170704,FANH01,K02,_,01,N,01,000,A145850,6.21,20170703,,Y
20170704,FANH01,K02,_,01,N,01,000,A161510,10.23,20170703,,Y
20170704,FANH01,K02,_,02,N,01,000,A114260,9.99,20170703,,Y
20170704,FANH01,K02,_,02,N,01,000,A122090,5.01,20170703,,Y
20170704,FANH01,K02,_,02,N,01,000,A131890,19.88,20170703,,Y
20170704,FANH01,K02,_,02,N,01,000,A132030,20.0,20170703,,Y
20170704,FANH01,K02,_,02,N,01,000,A136340,20.0,20170703,,Y
20170704,FANH01,K02,_,02,N,01,000,A139290,8.65,20170703,,Y
20170704,FANH01,K02,_,02,N,01,000,A145850,6.21,20170703,,Y
20170704,FANH01,K02,_,02,N,01,000,A161510,10.23,20170703,,Y
20170704,FANH01,K02,_,03,N,01,000,A114260,9.99,20170703,,Y
20170704,FANH01,K02,_,03,N,01,000,A122090,5.01,20170703,,Y
20170704,FANH01,K02,_,03,N,01,000,A131890,19.88,20170703,,Y
20170704,FANH01,K02,_,03,N,01,000,A132030,20.0,20170703,,Y
20170704,FANH01,K02,_,03,N,01,000,A136340,20.0,20170703,,Y
20170704,FANH01,K02,_,03,N,01,000,A139290,8.65,20170703,,Y
20170704,FANH01,K02,_,03,N,01,000,A145850,6.21,20170703,,Y
20170704,FANH01,K02,_,03,N,01,000,A161510,10.23,20170703,,Y
20170704,FANH01,K02,_,04,N,01,000,A114260,9.99,20170703,,Y
20170704,FANH01,K02,_,04,N,01,000,A122090,5.01,20170703,,Y
20170704,FANH01,K02,_,04,N,01,000,A131890,19.88,20170703,,Y
20170704,FANH01,K02,_,04,N,01,000,A132030,20.0,20170703,,Y
20170704,FANH01,K02,_,04,N,01,000,A136340,20.0,20170703,,Y
20170704,FANH01,K02,_,04,N,01,000,A139290,8.65,20170703,,Y
20170704,FANH01,K02,_,04,N,01,000,A145850,6.21,20170703,,Y
20170704,FANH01,K02,_,04,N,01,000,A161510,10.23,20170703,,Y
20170704,FANH01,K02,_,05,N,01,000,A114260,9.99,20170703,,Y
20170704,FANH01,K02,_,05,N,01,000,A122090,5.01,20170703,,Y
20170704,FANH01,K02,_,05,N,01,000,A131890,19.88,20170703,,Y
20170704,FANH01,K02,_,05,N,01,000,A132030,20.0,20170703,,Y
20170704,FANH01,K02,_,05,N,01,000,A136340,20.0,20170703,,Y
20170704,FANH01,K02,_,05,N,01,000,A139290,8.65,20170703,,Y
20170704,FANH01,K02,_,05,N,01,000,A145850,6.21,20170703,,Y
20170704,FANH01,K02,_,05,N,01,000,A161510,10.23,20170703,,Y
20170804,FANH01,K02,_,01,N,01,000,A091160,3.78,20170803,,Y
20170804,FANH01,K02,_,01,N,01,000,A122090,6.79,20170803,,Y
20170804,FANH01,K02,_,01,N,01,000,A131890,8.85,20170803,,Y
20170804,FANH01,K02,_,01,N,01,000,A136340,18.92,20170803,,Y
20170804,FANH01,K02,_,01,N,01,000,A138230,16.11,20170803,,Y
20170804,FANH01,K02,_,01,N,01,000,A145850,8.93,20170803,,Y
20170804,FANH01,K02,_,01,N,01,000,A148070,1.07,20170803,,Y
20170804,FANH01,K02,_,01,N,01,000,A160580,3.88,20170803,,Y
20170804,FANH01,K02,_,01,N,01,000,A161510,31.62,20170803,,Y
20170804,FANH01,K02,_,02,N,01,000,A091160,3.78,20170803,,Y
20170804,FANH01,K02,_,02,N,01,000,A122090,6.79,20170803,,Y
20170804,FANH01,K02,_,02,N,01,000,A131890,8.85,20170803,,Y
20170804,FANH01,K02,_,02,N,01,000,A136340,18.92,20170803,,Y
20170804,FANH01,K02,_,02,N,01,000,A138230,16.11,20170803,,Y
20170804,FANH01,K02,_,02,N,01,000,A145850,8.93,20170803,,Y
20170804,FANH01,K02,_,02,N,01,000,A148070,1.07,20170803,,Y
20170804,FANH01,K02,_,02,N,01,000,A160580,3.88,20170803,,Y
20170804,FANH01,K02,_,02,N,01,000,A161510,31.62,20170803,,Y
20170804,FANH01,K02,_,03,N,01,000,A091160,3.78,20170803,,Y
20170804,FANH01,K02,_,03,N,01,000,A122090,6.79,20170803,,Y
20170804,FANH01,K02,_,03,N,01,000,A131890,8.85,20170803,,Y
20170804,FANH01,K02,_,03,N,01,000,A136340,18.92,20170803,,Y
20170804,FANH01,K02,_,03,N,01,000,A138230,16.11,20170803,,Y
20170804,FANH01,K02,_,03,N,01,000,A145850,8.93,20170803,,Y
20170804,FANH01,K02,_,03,N,01,000,A148070,1.07,20170803,,Y
20170804,FANH01,K02,_,03,N,01,000,A160580,3.88,20170803,,Y
20170804,FANH01,K02,_,03,N,01,000,A161510,31.62,20170803,,Y
20170804,FANH01,K02,_,04,N,01,000,A091160,3.78,20170803,,Y
20170804,FANH01,K02,_,04,N,01,000,A122090,6.79,20170803,,Y
20170804,FANH01,K02,_,04,N,01,000,A131890,8.85,20170803,,Y
20170804,FANH01,K02,_,04,N,01,000,A136340,18.92,20170803,,Y
20170804,FANH01,K02,_,04,N,01,000,A138230,16.11,20170803,,Y
20170804,FANH01,K02,_,04,N,01,000,A145850,8.93,20170803,,Y
20170804,FANH01,K02,_,04,N,01,000,A148070,1.07,20170803,,Y
20170804,FANH01,K02,_,04,N,01,000,A160580,3.88,20170803,,Y
20170804,FANH01,K02,_,04,N,01,000,A161510,31.62,20170803,,Y
20170804,FANH01,K02,_,05,N,01,000,A091160,3.78,20170803,,Y
20170804,FANH01,K02,_,05,N,01,000,A122090,6.79,20170803,,Y
20170804,FANH01,K02,_,05,N,01,000,A131890,8.85,20170803,,Y
20170804,FANH01,K02,_,05,N,01,000,A136340,18.92,20170803,,Y
20170804,FANH01,K02,_,05,N,01,000,A138230,16.11,20170803,,Y
20170804,FANH01,K02,_,05,N,01,000,A145850,8.93,20170803,,Y
20170804,FANH01,K02,_,05,N,01,000,A148070,1.07,20170803,,Y
20170804,FANH01,K02,_,05,N,01,000,A160580,3.88,20170803,,Y
20170804,FANH01,K02,_,05,N,01,000,A161510,31.62,20170803,,Y
20170904,FANH01,K02,_,01,N,01,000,A114260,15.18,20170901,,Y
20170904,FANH01,K02,_,01,N,01,000,A122090,5.5,20170901,,Y
20170904,FANH01,K02,_,01,N,01,000,A130680,3.25,20170901,,Y
20170904,FANH01,K02,_,01,N,01,000,A131890,7.42,20170901,,Y
20170904,FANH01,K02,_,01,N,01,000,A136340,24.81,20170901,,Y
20170904,FANH01,K02,_,01,N,01,000,A140700,10.53,20170901,,Y
20170904,FANH01,K02,_,01,N,01,000,A145850,7.93,20170901,,Y
20170904,FANH01,K02,_,01,N,01,000,A160580,6.74,20170901,,Y
20170904,FANH01,K02,_,01,N,01,000,A161510,18.6,20170901,,Y
20170904,FANH01,K02,_,02,N,01,000,A114260,15.18,20170901,,Y
20170904,FANH01,K02,_,02,N,01,000,A122090,5.5,20170901,,Y
20170904,FANH01,K02,_,02,N,01,000,A130680,3.25,20170901,,Y
20170904,FANH01,K02,_,02,N,01,000,A131890,7.42,20170901,,Y
20170904,FANH01,K02,_,02,N,01,000,A136340,24.81,20170901,,Y
20170904,FANH01,K02,_,02,N,01,000,A140700,10.53,20170901,,Y
20170904,FANH01,K02,_,02,N,01,000,A145850,7.93,20170901,,Y
20170904,FANH01,K02,_,02,N,01,000,A160580,6.74,20170901,,Y
20170904,FANH01,K02,_,02,N,01,000,A161510,18.6,20170901,,Y
20170904,FANH01,K02,_,03,N,01,000,A114260,15.18,20170901,,Y
20170904,FANH01,K02,_,03,N,01,000,A122090,5.5,20170901,,Y
20170904,FANH01,K02,_,03,N,01,000,A130680,3.25,20170901,,Y
20170904,FANH01,K02,_,03,N,01,000,A131890,7.42,20170901,,Y
20170904,FANH01,K02,_,03,N,01,000,A136340,24.81,20170901,,Y
20170904,FANH01,K02,_,03,N,01,000,A140700,10.53,20170901,,Y
20170904,FANH01,K02,_,03,N,01,000,A145850,7.93,20170901,,Y
20170904,FANH01,K02,_,03,N,01,000,A160580,6.74,20170901,,Y
20170904,FANH01,K02,_,03,N,01,000,A161510,18.6,20170901,,Y
20170904,FANH01,K02,_,04,N,01,000,A114260,15.18,20170901,,Y
20170904,FANH01,K02,_,04,N,01,000,A122090,5.5,20170901,,Y
20170904,FANH01,K02,_,04,N,01,000,A130680,3.25,20170901,,Y
20170904,FANH01,K02,_,04,N,01,000,A131890,7.42,20170901,,Y
20170904,FANH01,K02,_,04,N,01,000,A136340,24.81,20170901,,Y
20170904,FANH01,K02,_,04,N,01,000,A140700,10.53,20170901,,Y
20170904,FANH01,K02,_,04,N,01,000,A145850,7.93,20170901,,Y
20170904,FANH01,K02,_,04,N,01,000,A160580,6.74,20170901,,Y
20170904,FANH01,K02,_,04,N,01,000,A161510,18.6,20170901,,Y
20170904,FANH01,K02,_,05,N,01,000,A114260,15.18,20170901,,Y
20170904,FANH01,K02,_,05,N,01,000,A122090,5.5,20170901,,Y
20170904,FANH01,K02,_,05,N,01,000,A130680,3.25,20170901,,Y
20170904,FANH01,K02,_,05,N,01,000,A131890,7.42,20170901,,Y
20170904,FANH01,K02,_,05,N,01,000,A136340,24.81,20170901,,Y
20170904,FANH01,K02,_,05,N,01,000,A140700,10.53,20170901,,Y
20170904,FANH01,K02,_,05,N,01,000,A145850,7.93,20170901,,Y
20170904,FANH01,K02,_,05,N,01,000,A160580,6.74,20170901,,Y
20170904,FANH01,K02,_,05,N,01,000,A161510,18.6,20170901,,Y
20171010,FANH01,K02,_,01,N,01,000,A105780,16.12,20170929,,Y
20171010,FANH01,K02,_,01,N,01,000,A114260,18.63,20170929,,Y
20171010,FANH01,K02,_,01,N,01,000,A132030,2.43,20170929,,Y
20171010,FANH01,K02,_,01,N,01,000,A136340,26.36,20170929,,Y
20171010,FANH01,K02,_,01,N,01,000,A138230,7.56,20170929,,Y
20171010,FANH01,K02,_,01,N,01,000,A139250,16.74,20170929,,Y
20171010,FANH01,K02,_,01,N,01,000,A147970,12.13,20170929,,Y
20171010,FANH01,K02,_,02,N,01,000,A105780,16.12,20170929,,Y
20171010,FANH01,K02,_,02,N,01,000,A114260,18.63,20170929,,Y
20171010,FANH01,K02,_,02,N,01,000,A132030,2.43,20170929,,Y
20171010,FANH01,K02,_,02,N,01,000,A136340,26.36,20170929,,Y
20171010,FANH01,K02,_,02,N,01,000,A138230,7.56,20170929,,Y
20171010,FANH01,K02,_,02,N,01,000,A139250,16.74,20170929,,Y
20171010,FANH01,K02,_,02,N,01,000,A147970,12.13,20170929,,Y
20171010,FANH01,K02,_,03,N,01,000,A105780,16.12,20170929,,Y
20171010,FANH01,K02,_,03,N,01,000,A114260,18.63,20170929,,Y
20171010,FANH01,K02,_,03,N,01,000,A132030,2.43,20170929,,Y
20171010,FANH01,K02,_,03,N,01,000,A136340,26.36,20170929,,Y
20171010,FANH01,K02,_,03,N,01,000,A138230,7.56,20170929,,Y
20171010,FANH01,K02,_,03,N,01,000,A139250,16.74,20170929,,Y
20171010,FANH01,K02,_,03,N,01,000,A147970,12.13,20170929,,Y
20171010,FANH01,K02,_,04,N,01,000,A105780,16.12,20170929,,Y
20171010,FANH01,K02,_,04,N,01,000,A114260,18.63,20170929,,Y
20171010,FANH01,K02,_,04,N,01,000,A132030,2.43,20170929,,Y
20171010,FANH01,K02,_,04,N,01,000,A136340,26.36,20170929,,Y
20171010,FANH01,K02,_,04,N,01,000,A138230,7.56,20170929,,Y
20171010,FANH01,K02,_,04,N,01,000,A139250,16.74,20170929,,Y
20171010,FANH01,K02,_,04,N,01,000,A147970,12.13,20170929,,Y
20171010,FANH01,K02,_,05,N,01,000,A105780,16.12,20170929,,Y
20171010,FANH01,K02,_,05,N,01,000,A114260,18.63,20170929,,Y
20171010,FANH01,K02,_,05,N,01,000,A132030,2.43,20170929,,Y
20171010,FANH01,K02,_,05,N,01,000,A136340,26.36,20170929,,Y
20171010,FANH01,K02,_,05,N,01,000,A138230,7.56,20170929,,Y
20171010,FANH01,K02,_,05,N,01,000,A139250,16.74,20170929,,Y
20171010,FANH01,K02,_,05,N,01,000,A147970,12.13,20170929,,Y
20171106,FANH01,K02,_,01,N,01,000,A108450,8.58,20171103,,Y
20171106,FANH01,K02,_,01,N,01,000,A122090,8.58,20171103,,Y
20171106,FANH01,K02,_,01,N,01,000,A132030,2.14,20171103,,Y
20171106,FANH01,K02,_,01,N,01,000,A136340,39.15,20171103,,Y
20171106,FANH01,K02,_,01,N,01,000,A138230,7.85,20171103,,Y
20171106,FANH01,K02,_,01,N,01,000,A139260,13.03,20171103,,Y
20171106,FANH01,K02,_,01,N,01,000,A145850,14.79,20171103,,Y
20171106,FANH01,K02,_,01,N,01,000,A148070,5.84,20171103,,Y
20171106,FANH01,K02,_,02,N,01,000,A108450,8.58,20171103,,Y
20171106,FANH01,K02,_,02,N,01,000,A122090,8.58,20171103,,Y
20171106,FANH01,K02,_,02,N,01,000,A132030,2.14,20171103,,Y
20171106,FANH01,K02,_,02,N,01,000,A136340,39.15,20171103,,Y
20171106,FANH01,K02,_,02,N,01,000,A138230,7.85,20171103,,Y
20171106,FANH01,K02,_,02,N,01,000,A139260,13.03,20171103,,Y
20171106,FANH01,K02,_,02,N,01,000,A145850,14.79,20171103,,Y
20171106,FANH01,K02,_,02,N,01,000,A148070,5.84,20171103,,Y
20171106,FANH01,K02,_,03,N,01,000,A108450,8.58,20171103,,Y
20171106,FANH01,K02,_,03,N,01,000,A122090,8.58,20171103,,Y
20171106,FANH01,K02,_,03,N,01,000,A132030,2.14,20171103,,Y
20171106,FANH01,K02,_,03,N,01,000,A136340,39.15,20171103,,Y
20171106,FANH01,K02,_,03,N,01,000,A138230,7.85,20171103,,Y
20171106,FANH01,K02,_,03,N,01,000,A139260,13.03,20171103,,Y
20171106,FANH01,K02,_,03,N,01,000,A145850,14.79,20171103,,Y
20171106,FANH01,K02,_,03,N,01,000,A148070,5.84,20171103,,Y
20171106,FANH01,K02,_,04,N,01,000,A108450,8.58,20171103,,Y
20171106,FANH01,K02,_,04,N,01,000,A122090,8.58,20171103,,Y
20171106,FANH01,K02,_,04,N,01,000,A132030,2.14,20171103,,Y
20171106,FANH01,K02,_,04,N,01,000,A136340,39.15,20171103,,Y
20171106,FANH01,K02,_,04,N,01,000,A138230,7.85,20171103,,Y
20171106,FANH01,K02,_,04,N,01,000,A139260,13.03,20171103,,Y
20171106,FANH01,K02,_,04,N,01,000,A145850,14.79,20171103,,Y
20171106,FANH01,K02,_,04,N,01,000,A148070,5.84,20171103,,Y
20171106,FANH01,K02,_,05,N,01,000,A108450,8.58,20171103,,Y
20171106,FANH01,K02,_,05,N,01,000,A122090,8.58,20171103,,Y
20171106,FANH01,K02,_,05,N,01,000,A132030,2.14,20171103,,Y
20171106,FANH01,K02,_,05,N,01,000,A136340,39.15,20171103,,Y
20171106,FANH01,K02,_,05,N,01,000,A138230,7.85,20171103,,Y
20171106,FANH01,K02,_,05,N,01,000,A139260,13.03,20171103,,Y
20171106,FANH01,K02,_,05,N,01,000,A145850,14.79,20171103,,Y
20171106,FANH01,K02,_,05,N,01,000,A148070,5.84,20171103,,Y
20171204,FANH01,K02,_,01,N,01,000,A122090,7.34,20171201,,Y
20171204,FANH01,K02,_,01,N,01,000,A130680,11.0,20171201,,Y
20171204,FANH01,K02,_,01,N,01,000,A139280,14.54,20171201,,Y
20171204,FANH01,K02,_,01,N,01,000,A143860,2.73,20171201,,Y
20171204,FANH01,K02,_,01,N,01,000,A145850,15.19,20171201,,Y
20171204,FANH01,K02,_,01,N,01,000,A160580,8.99,20171201,,Y
20171204,FANH01,K02,_,01,N,01,000,A161510,20.18,20171201,,Y
20171204,FANH01,K02,_,02,N,01,000,A122090,7.34,20171201,,Y
20171204,FANH01,K02,_,02,N,01,000,A130680,11.0,20171201,,Y
20171204,FANH01,K02,_,02,N,01,000,A139280,14.54,20171201,,Y
20171204,FANH01,K02,_,02,N,01,000,A143860,2.73,20171201,,Y
20171204,FANH01,K02,_,02,N,01,000,A145850,15.19,20171201,,Y
20171204,FANH01,K02,_,02,N,01,000,A160580,8.99,20171201,,Y
20171204,FANH01,K02,_,02,N,01,000,A161510,20.18,20171201,,Y
20171204,FANH01,K02,_,03,N,01,000,A122090,7.34,20171201,,Y
20171204,FANH01,K02,_,03,N,01,000,A130680,11.0,20171201,,Y
20171204,FANH01,K02,_,03,N,01,000,A139280,14.54,20171201,,Y
20171204,FANH01,K02,_,03,N,01,000,A143860,2.73,20171201,,Y
20171204,FANH01,K02,_,03,N,01,000,A145850,15.19,20171201,,Y
20171204,FANH01,K02,_,03,N,01,000,A160580,8.99,20171201,,Y
20171204,FANH01,K02,_,03,N,01,000,A161510,20.18,20171201,,Y
20171204,FANH01,K02,_,04,N,01,000,A122090,7.34,20171201,,Y
20171204,FANH01,K02,_,04,N,01,000,A130680,11.0,20171201,,Y
20171204,FANH01,K02,_,04,N,01,000,A139280,14.54,20171201,,Y
20171204,FANH01,K02,_,04,N,01,000,A143860,2.73,20171201,,Y
20171204,FANH01,K02,_,04,N,01,000,A145850,15.19,20171201,,Y
20171204,FANH01,K02,_,04,N,01,000,A160580,8.99,20171201,,Y
20171204,FANH01,K02,_,04,N,01,000,A161510,20.18,20171201,,Y
20171204,FANH01,K02,_,05,N,01,000,A122090,7.34,20171201,,Y
20171204,FANH01,K02,_,05,N,01,000,A130680,11.0,20171201,,Y
20171204,FANH01,K02,_,05,N,01,000,A139280,14.54,20171201,,Y
20171204,FANH01,K02,_,05,N,01,000,A143860,2.73,20171201,,Y
20171204,FANH01,K02,_,05,N,01,000,A145850,15.19,20171201,,Y
20171204,FANH01,K02,_,05,N,01,000,A160580,8.99,20171201,,Y
20171204,FANH01,K02,_,05,N,01,000,A161510,20.18,20171201,,Y
20180104,FANH01,K02,_,01,N,01,000,A104530,16.13,20180103,,Y
20180104,FANH01,K02,_,01,N,01,000,A130680,10.0,20180103,,Y
20180104,FANH01,K02,_,01,N,01,000,A136340,37.54,20180103,,Y
20180104,FANH01,K02,_,01,N,01,000,A139280,11.78,20180103,,Y
20180104,FANH01,K02,_,01,N,01,000,A143860,1.76,20180103,,Y
20180104,FANH01,K02,_,01,N,01,000,A147970,15.3,20180103,,Y
20180104,FANH01,K02,_,01,N,01,000,A148070,7.45,20180103,,Y
20180104,FANH01,K02,_,02,N,01,000,A104530,16.13,20180103,,Y
20180104,FANH01,K02,_,02,N,01,000,A130680,10.0,20180103,,Y
20180104,FANH01,K02,_,02,N,01,000,A136340,37.54,20180103,,Y
20180104,FANH01,K02,_,02,N,01,000,A139280,11.78,20180103,,Y
20180104,FANH01,K02,_,02,N,01,000,A143860,1.76,20180103,,Y
20180104,FANH01,K02,_,02,N,01,000,A147970,15.3,20180103,,Y
20180104,FANH01,K02,_,02,N,01,000,A148070,7.45,20180103,,Y
20180104,FANH01,K02,_,03,N,01,000,A104530,16.13,20180103,,Y
20180104,FANH01,K02,_,03,N,01,000,A130680,10.0,20180103,,Y
20180104,FANH01,K02,_,03,N,01,000,A136340,37.54,20180103,,Y
20180104,FANH01,K02,_,03,N,01,000,A139280,11.78,20180103,,Y
20180104,FANH01,K02,_,03,N,01,000,A143860,1.76,20180103,,Y
20180104,FANH01,K02,_,03,N,01,000,A147970,15.3,20180103,,Y
20180104,FANH01,K02,_,03,N,01,000,A148070,7.45,20180103,,Y
20180104,FANH01,K02,_,04,N,01,000,A104530,16.13,20180103,,Y
20180104,FANH01,K02,_,04,N,01,000,A130680,10.0,20180103,,Y
20180104,FANH01,K02,_,04,N,01,000,A136340,37.54,20180103,,Y
20180104,FANH01,K02,_,04,N,01,000,A139280,11.78,20180103,,Y
20180104,FANH01,K02,_,04,N,01,000,A143860,1.76,20180103,,Y
20180104,FANH01,K02,_,04,N,01,000,A147970,15.3,20180103,,Y
20180104,FANH01,K02,_,04,N,01,000,A148070,7.45,20180103,,Y
20180104,FANH01,K02,_,05,N,01,000,A104530,16.13,20180103,,Y
20180104,FANH01,K02,_,05,N,01,000,A130680,10.0,20180103,,Y
20180104,FANH01,K02,_,05,N,01,000,A136340,37.54,20180103,,Y
20180104,FANH01,K02,_,05,N,01,000,A139280,11.78,20180103,,Y
20180104,FANH01,K02,_,05,N,01,000,A143860,1.76,20180103,,Y
20180104,FANH01,K02,_,05,N,01,000,A147970,15.3,20180103,,Y
20180104,FANH01,K02,_,05,N,01,000,A148070,7.45,20180103,,Y
20180205,FANH01,K02,_,01,N,01,000,A122090,6.61,20180202,,Y
20180205,FANH01,K02,_,01,N,01,000,A130680,8.23,20180202,,Y
20180205,FANH01,K02,_,01,N,01,000,A131890,4.73,20180202,,Y
20180205,FANH01,K02,_,01,N,01,000,A136340,20.0,20180202,,Y
20180205,FANH01,K02,_,01,N,01,000,A143860,2.76,20180202,,Y
20180205,FANH01,K02,_,01,N,01,000,A147970,11.51,20180202,,Y
20180205,FANH01,K02,_,01,N,01,000,A160580,11.76,20180202,,Y
20180205,FANH01,K02,_,01,N,01,000,A161510,34.37,20180202,,Y
20180205,FANH01,K02,_,02,N,01,000,A122090,6.61,20180202,,Y
20180205,FANH01,K02,_,02,N,01,000,A130680,8.23,20180202,,Y
20180205,FANH01,K02,_,02,N,01,000,A131890,4.73,20180202,,Y
20180205,FANH01,K02,_,02,N,01,000,A136340,20.0,20180202,,Y
20180205,FANH01,K02,_,02,N,01,000,A143860,2.76,20180202,,Y
20180205,FANH01,K02,_,02,N,01,000,A147970,11.51,20180202,,Y
20180205,FANH01,K02,_,02,N,01,000,A160580,11.76,20180202,,Y
20180205,FANH01,K02,_,02,N,01,000,A161510,34.37,20180202,,Y
20180205,FANH01,K02,_,03,N,01,000,A122090,6.61,20180202,,Y
20180205,FANH01,K02,_,03,N,01,000,A130680,8.23,20180202,,Y
20180205,FANH01,K02,_,03,N,01,000,A131890,4.73,20180202,,Y
20180205,FANH01,K02,_,03,N,01,000,A136340,20.0,20180202,,Y
20180205,FANH01,K02,_,03,N,01,000,A143860,2.76,20180202,,Y
20180205,FANH01,K02,_,03,N,01,000,A147970,11.51,20180202,,Y
20180205,FANH01,K02,_,03,N,01,000,A160580,11.76,20180202,,Y
20180205,FANH01,K02,_,03,N,01,000,A161510,34.37,20180202,,Y
20180205,FANH01,K02,_,04,N,01,000,A122090,6.61,20180202,,Y
20180205,FANH01,K02,_,04,N,01,000,A130680,8.23,20180202,,Y
20180205,FANH01,K02,_,04,N,01,000,A131890,4.73,20180202,,Y
20180205,FANH01,K02,_,04,N,01,000,A136340,20.0,20180202,,Y
20180205,FANH01,K02,_,04,N,01,000,A143860,2.76,20180202,,Y
20180205,FANH01,K02,_,04,N,01,000,A147970,11.51,20180202,,Y
20180205,FANH01,K02,_,04,N,01,000,A160580,11.76,20180202,,Y
20180205,FANH01,K02,_,04,N,01,000,A161510,34.37,20180202,,Y
20180205,FANH01,K02,_,05,N,01,000,A122090,6.61,20180202,,Y
20180205,FANH01,K02,_,05,N,01,000,A130680,8.23,20180202,,Y
20180205,FANH01,K02,_,05,N,01,000,A131890,4.73,20180202,,Y
20180205,FANH01,K02,_,05,N,01,000,A136340,20.0,20180202,,Y
20180205,FANH01,K02,_,05,N,01,000,A143860,2.76,20180202,,Y
20180205,FANH01,K02,_,05,N,01,000,A147970,11.51,20180202,,Y
20180205,FANH01,K02,_,05,N,01,000,A160580,11.76,20180202,,Y
20180205,FANH01,K02,_,05,N,01,000,A161510,34.37,20180202,,Y
20180305,FANH01,K02,_,01,N,01,000,A130680,3.77,20180302,,Y
20180305,FANH01,K02,_,01,N,01,000,A131890,5.7,20180302,,Y
20180305,FANH01,K02,_,01,N,01,000,A132030,16.22,20180302,,Y
20180305,FANH01,K02,_,01,N,01,000,A136340,20.0,20180302,,Y
20180305,FANH01,K02,_,01,N,01,000,A143860,5.21,20180302,,Y
20180305,FANH01,K02,_,01,N,01,000,A147970,11.87,20180302,,Y
20180305,FANH01,K02,_,01,N,01,000,A156080,7.89,20180302,,Y
20180305,FANH01,K02,_,01,N,01,000,A161510,29.31,20180302,,Y
20180305,FANH01,K02,_,02,N,01,000,A130680,3.77,20180302,,Y
20180305,FANH01,K02,_,02,N,01,000,A131890,5.7,20180302,,Y
20180305,FANH01,K02,_,02,N,01,000,A132030,16.22,20180302,,Y
20180305,FANH01,K02,_,02,N,01,000,A136340,20.0,20180302,,Y
20180305,FANH01,K02,_,02,N,01,000,A143860,5.21,20180302,,Y
20180305,FANH01,K02,_,02,N,01,000,A147970,11.87,20180302,,Y
20180305,FANH01,K02,_,02,N,01,000,A156080,7.89,20180302,,Y
20180305,FANH01,K02,_,02,N,01,000,A161510,29.31,20180302,,Y
20180305,FANH01,K02,_,03,N,01,000,A130680,3.77,20180302,,Y
20180305,FANH01,K02,_,03,N,01,000,A131890,5.7,20180302,,Y
20180305,FANH01,K02,_,03,N,01,000,A132030,16.22,20180302,,Y
20180305,FANH01,K02,_,03,N,01,000,A136340,20.0,20180302,,Y
20180305,FANH01,K02,_,03,N,01,000,A143860,5.21,20180302,,Y
20180305,FANH01,K02,_,03,N,01,000,A147970,11.87,20180302,,Y
20180305,FANH01,K02,_,03,N,01,000,A156080,7.89,20180302,,Y
20180305,FANH01,K02,_,03,N,01,000,A161510,29.31,20180302,,Y
20180305,FANH01,K02,_,04,N,01,000,A130680,3.77,20180302,,Y
20180305,FANH01,K02,_,04,N,01,000,A131890,5.7,20180302,,Y
20180305,FANH01,K02,_,04,N,01,000,A132030,16.22,20180302,,Y
20180305,FANH01,K02,_,04,N,01,000,A136340,20.0,20180302,,Y
20180305,FANH01,K02,_,04,N,01,000,A143860,5.21,20180302,,Y
20180305,FANH01,K02,_,04,N,01,000,A147970,11.87,20180302,,Y
20180305,FANH01,K02,_,04,N,01,000,A156080,7.89,20180302,,Y
20180305,FANH01,K02,_,04,N,01,000,A161510,29.31,20180302,,Y
20180305,FANH01,K02,_,05,N,01,000,A130680,3.77,20180302,,Y
20180305,FANH01,K02,_,05,N,01,000,A131890,5.7,20180302,,Y
20180305,FANH01,K02,_,05,N,01,000,A132030,16.22,20180302,,Y
20180305,FANH01,K02,_,05,N,01,000,A136340,20.0,20180302,,Y
20180305,FANH01,K02,_,05,N,01,000,A143860,5.21,20180302,,Y
20180305,FANH01,K02,_,05,N,01,000,A147970,11.87,20180302,,Y
20180305,FANH01,K02,_,05,N,01,000,A156080,7.89,20180302,,Y
20180305,FANH01,K02,_,05,N,01,000,A161510,29.31,20180302,,Y
20180404,FANH01,K02,_,01,N,01,000,A114260,11.88,20180403,,Y
20180404,FANH01,K02,_,01,N,01,000,A136340,28.11,20180403,,Y
20180404,FANH01,K02,_,01,N,01,000,A137610,10.0,20180403,,Y
20180404,FANH01,K02,_,01,N,01,000,A143860,50.0,20180403,,Y
20180404,FANH01,K02,_,02,N,01,000,A114260,11.88,20180403,,Y
20180404,FANH01,K02,_,02,N,01,000,A136340,28.11,20180403,,Y
20180404,FANH01,K02,_,02,N,01,000,A137610,10.0,20180403,,Y
20180404,FANH01,K02,_,02,N,01,000,A143860,50.0,20180403,,Y
20180404,FANH01,K02,_,03,N,01,000,A114260,11.88,20180403,,Y
20180404,FANH01,K02,_,03,N,01,000,A136340,28.11,20180403,,Y
20180404,FANH01,K02,_,03,N,01,000,A137610,10.0,20180403,,Y
20180404,FANH01,K02,_,03,N,01,000,A143860,50.0,20180403,,Y
20180404,FANH01,K02,_,04,N,01,000,A114260,11.88,20180403,,Y
20180404,FANH01,K02,_,04,N,01,000,A136340,28.11,20180403,,Y
20180404,FANH01,K02,_,04,N,01,000,A137610,10.0,20180403,,Y
20180404,FANH01,K02,_,04,N,01,000,A143860,50.0,20180403,,Y
20180404,FANH01,K02,_,05,N,01,000,A114260,11.88,20180403,,Y
20180404,FANH01,K02,_,05,N,01,000,A136340,28.11,20180403,,Y
20180404,FANH01,K02,_,05,N,01,000,A137610,10.0,20180403,,Y
20180404,FANH01,K02,_,05,N,01,000,A143860,50.0,20180403,,Y
20180504,FANH01,K02,_,01,N,01,000,A130680,1.56,20180503,,Y
20180504,FANH01,K02,_,01,N,01,000,A131890,20.98,20180503,,Y
20180504,FANH01,K02,_,01,N,01,000,A132030,8.43,20180503,,Y
20180504,FANH01,K02,_,01,N,01,000,A136340,38.47,20180503,,Y
20180504,FANH01,K02,_,01,N,01,000,A143860,9.29,20180503,,Y
20180504,FANH01,K02,_,01,N,01,000,A147970,19.72,20180503,,Y
20180504,FANH01,K02,_,01,N,01,000,A148070,1.52,20180503,,Y
20180504,FANH01,K02,_,02,N,01,000,A130680,1.56,20180503,,Y
20180504,FANH01,K02,_,02,N,01,000,A131890,20.98,20180503,,Y
20180504,FANH01,K02,_,02,N,01,000,A132030,8.43,20180503,,Y
20180504,FANH01,K02,_,02,N,01,000,A136340,38.47,20180503,,Y
20180504,FANH01,K02,_,02,N,01,000,A143860,9.29,20180503,,Y
20180504,FANH01,K02,_,02,N,01,000,A147970,19.72,20180503,,Y
20180504,FANH01,K02,_,02,N,01,000,A148070,1.52,20180503,,Y
20180504,FANH01,K02,_,03,N,01,000,A130680,1.56,20180503,,Y
20180504,FANH01,K02,_,03,N,01,000,A131890,20.98,20180503,,Y
20180504,FANH01,K02,_,03,N,01,000,A132030,8.43,20180503,,Y
20180504,FANH01,K02,_,03,N,01,000,A136340,38.47,20180503,,Y
20180504,FANH01,K02,_,03,N,01,000,A143860,9.29,20180503,,Y
20180504,FANH01,K02,_,03,N,01,000,A147970,19.72,20180503,,Y
20180504,FANH01,K02,_,03,N,01,000,A148070,1.52,20180503,,Y
20180504,FANH01,K02,_,04,N,01,000,A130680,1.56,20180503,,Y
20180504,FANH01,K02,_,04,N,01,000,A131890,20.98,20180503,,Y
20180504,FANH01,K02,_,04,N,01,000,A132030,8.43,20180503,,Y
20180504,FANH01,K02,_,04,N,01,000,A136340,38.47,20180503,,Y
20180504,FANH01,K02,_,04,N,01,000,A143860,9.29,20180503,,Y
20180504,FANH01,K02,_,04,N,01,000,A147970,19.72,20180503,,Y
20180504,FANH01,K02,_,04,N,01,000,A148070,1.52,20180503,,Y
20180504,FANH01,K02,_,05,N,01,000,A130680,1.56,20180503,,Y
20180504,FANH01,K02,_,05,N,01,000,A131890,20.98,20180503,,Y
20180504,FANH01,K02,_,05,N,01,000,A132030,8.43,20180503,,Y
20180504,FANH01,K02,_,05,N,01,000,A136340,38.47,20180503,,Y
20180504,FANH01,K02,_,05,N,01,000,A143860,9.29,20180503,,Y
20180504,FANH01,K02,_,05,N,01,000,A147970,19.72,20180503,,Y
20180504,FANH01,K02,_,05,N,01,000,A148070,1.52,20180503,,Y
20180604,FANH01,K02,_,01,N,01,000,A114260,13.49,20180601,,Y
20180604,FANH01,K02,_,01,N,01,000,A130680,2.15,20180601,,Y
20180604,FANH01,K02,_,01,N,01,000,A136340,26.5,20180601,,Y
20180604,FANH01,K02,_,01,N,01,000,A139220,2.1,20180601,,Y
20180604,FANH01,K02,_,01,N,01,000,A145850,8.79,20180601,,Y
20180604,FANH01,K02,_,01,N,01,000,A150460,17.96,20180601,,Y
20180604,FANH01,K02,_,01,N,01,000,A156080,12.77,20180601,,Y
20180604,FANH01,K02,_,01,N,01,000,A160580,7.84,20180601,,Y
20180604,FANH01,K02,_,01,N,01,000,A161510,8.35,20180601,,Y
20180604,FANH01,K02,_,02,N,01,000,A114260,13.49,20180601,,Y
20180604,FANH01,K02,_,02,N,01,000,A130680,2.15,20180601,,Y
20180604,FANH01,K02,_,02,N,01,000,A136340,26.5,20180601,,Y
20180604,FANH01,K02,_,02,N,01,000,A139220,2.1,20180601,,Y
20180604,FANH01,K02,_,02,N,01,000,A145850,8.79,20180601,,Y
20180604,FANH01,K02,_,02,N,01,000,A150460,17.96,20180601,,Y
20180604,FANH01,K02,_,02,N,01,000,A156080,12.77,20180601,,Y
20180604,FANH01,K02,_,02,N,01,000,A160580,7.84,20180601,,Y
20180604,FANH01,K02,_,02,N,01,000,A161510,8.35,20180601,,Y
20180604,FANH01,K02,_,03,N,01,000,A114260,13.49,20180601,,Y
20180604,FANH01,K02,_,03,N,01,000,A130680,2.15,20180601,,Y
20180604,FANH01,K02,_,03,N,01,000,A136340,26.5,20180601,,Y
20180604,FANH01,K02,_,03,N,01,000,A139220,2.1,20180601,,Y
20180604,FANH01,K02,_,03,N,01,000,A145850,8.79,20180601,,Y
20180604,FANH01,K02,_,03,N,01,000,A150460,17.96,20180601,,Y
20180604,FANH01,K02,_,03,N,01,000,A156080,12.77,20180601,,Y
20180604,FANH01,K02,_,03,N,01,000,A160580,7.84,20180601,,Y
20180604,FANH01,K02,_,03,N,01,000,A161510,8.35,20180601,,Y
20180604,FANH01,K02,_,04,N,01,000,A114260,13.49,20180601,,Y
20180604,FANH01,K02,_,04,N,01,000,A130680,2.15,20180601,,Y
20180604,FANH01,K02,_,04,N,01,000,A136340,26.5,20180601,,Y
20180604,FANH01,K02,_,04,N,01,000,A139220,2.1,20180601,,Y
20180604,FANH01,K02,_,04,N,01,000,A145850,8.79,20180601,,Y
20180604,FANH01,K02,_,04,N,01,000,A150460,17.96,20180601,,Y
20180604,FANH01,K02,_,04,N,01,000,A156080,12.77,20180601,,Y
20180604,FANH01,K02,_,04,N,01,000,A160580,7.84,20180601,,Y
20180604,FANH01,K02,_,04,N,01,000,A161510,8.35,20180601,,Y
20180604,FANH01,K02,_,05,N,01,000,A114260,13.49,20180601,,Y
20180604,FANH01,K02,_,05,N,01,000,A130680,2.15,20180601,,Y
20180604,FANH01,K02,_,05,N,01,000,A136340,26.5,20180601,,Y
20180604,FANH01,K02,_,05,N,01,000,A139220,2.1,20180601,,Y
20180604,FANH01,K02,_,05,N,01,000,A145850,8.79,20180601,,Y
20180604,FANH01,K02,_,05,N,01,000,A150460,17.96,20180601,,Y
20180604,FANH01,K02,_,05,N,01,000,A156080,12.77,20180601,,Y
20180604,FANH01,K02,_,05,N,01,000,A160580,7.84,20180601,,Y
20180604,FANH01,K02,_,05,N,01,000,A161510,8.35,20180601,,Y
20180704,FANH01,K02,_,01,N,01,000,A114260,8.96,20180703,,Y
20180704,FANH01,K02,_,01,N,01,000,A117700,3.77,20180703,,Y
20180704,FANH01,K02,_,01,N,01,000,A131890,25.21,20180703,,Y
20180704,FANH01,K02,_,01,N,01,000,A136340,21.03,20180703,,Y
20180704,FANH01,K02,_,01,N,01,000,A137610,20.0,20180703,,Y
20180704,FANH01,K02,_,01,N,01,000,A147970,21.0,20180703,,Y
20180704,FANH01,K02,_,02,N,01,000,A114260,8.96,20180703,,Y
20180704,FANH01,K02,_,02,N,01,000,A117700,3.77,20180703,,Y
20180704,FANH01,K02,_,02,N,01,000,A131890,25.21,20180703,,Y
20180704,FANH01,K02,_,02,N,01,000,A136340,21.03,20180703,,Y
20180704,FANH01,K02,_,02,N,01,000,A137610,20.0,20180703,,Y
20180704,FANH01,K02,_,02,N,01,000,A147970,21.0,20180703,,Y
20180704,FANH01,K02,_,03,N,01,000,A114260,8.96,20180703,,Y
20180704,FANH01,K02,_,03,N,01,000,A117700,3.77,20180703,,Y
20180704,FANH01,K02,_,03,N,01,000,A131890,25.21,20180703,,Y
20180704,FANH01,K02,_,03,N,01,000,A136340,21.03,20180703,,Y
20180704,FANH01,K02,_,03,N,01,000,A137610,20.0,20180703,,Y
20180704,FANH01,K02,_,03,N,01,000,A147970,21.0,20180703,,Y
20180704,FANH01,K02,_,04,N,01,000,A114260,8.96,20180703,,Y
20180704,FANH01,K02,_,04,N,01,000,A117700,3.77,20180703,,Y
20180704,FANH01,K02,_,04,N,01,000,A131890,25.21,20180703,,Y
20180704,FANH01,K02,_,04,N,01,000,A136340,21.03,20180703,,Y
20180704,FANH01,K02,_,04,N,01,000,A137610,20.0,20180703,,Y
20180704,FANH01,K02,_,04,N,01,000,A147970,21.0,20180703,,Y
20180704,FANH01,K02,_,05,N,01,000,A114260,8.96,20180703,,Y
20180704,FANH01,K02,_,05,N,01,000,A117700,3.77,20180703,,Y
20180704,FANH01,K02,_,05,N,01,000,A131890,25.21,20180703,,Y
20180704,FANH01,K02,_,05,N,01,000,A136340,21.03,20180703,,Y
20180704,FANH01,K02,_,05,N,01,000,A137610,20.0,20180703,,Y
20180704,FANH01,K02,_,05,N,01,000,A147970,21.0,20180703,,Y
20180806,FANH01,K02,_,01,N,01,000,A136340,37.17,20180803,,Y
20180806,FANH01,K02,_,01,N,01,000,A138230,10.0,20180803,,Y
20180806,FANH01,K02,_,01,N,01,000,A143860,50.0,20180803,,Y
20180806,FANH01,K02,_,01,N,01,000,A148070,2.82,20180803,,Y
20180806,FANH01,K02,_,02,N,01,000,A136340,37.17,20180803,,Y
20180806,FANH01,K02,_,02,N,01,000,A138230,10.0,20180803,,Y
20180806,FANH01,K02,_,02,N,01,000,A143860,50.0,20180803,,Y
20180806,FANH01,K02,_,02,N,01,000,A148070,2.82,20180803,,Y
20180806,FANH01,K02,_,03,N,01,000,A136340,37.17,20180803,,Y
20180806,FANH01,K02,_,03,N,01,000,A138230,10.0,20180803,,Y
20180806,FANH01,K02,_,03,N,01,000,A143860,50.0,20180803,,Y
20180806,FANH01,K02,_,03,N,01,000,A148070,2.82,20180803,,Y
20180806,FANH01,K02,_,04,N,01,000,A136340,37.17,20180803,,Y
20180806,FANH01,K02,_,04,N,01,000,A138230,10.0,20180803,,Y
20180806,FANH01,K02,_,04,N,01,000,A143860,50.0,20180803,,Y
20180806,FANH01,K02,_,04,N,01,000,A148070,2.82,20180803,,Y
20180806,FANH01,K02,_,05,N,01,000,A136340,37.17,20180803,,Y
20180806,FANH01,K02,_,05,N,01,000,A138230,10.0,20180803,,Y
20180806,FANH01,K02,_,05,N,01,000,A143860,50.0,20180803,,Y
20180806,FANH01,K02,_,05,N,01,000,A148070,2.82,20180803,,Y
20180904,FANH01,K02,_,01,N,01,000,A105780,4.71,20180903,,Y
20180904,FANH01,K02,_,01,N,01,000,A114260,17.92,20180903,,Y
20180904,FANH01,K02,_,01,N,01,000,A122090,10.49,20180903,,Y
20180904,FANH01,K02,_,01,N,01,000,A136340,22.07,20180903,,Y
20180904,FANH01,K02,_,01,N,01,000,A137610,10.0,20180903,,Y
20180904,FANH01,K02,_,01,N,01,000,A139290,19.91,20180903,,Y
20180904,FANH01,K02,_,01,N,01,000,A145850,6.06,20180903,,Y
20180904,FANH01,K02,_,01,N,01,000,A161510,8.8,20180903,,Y
20180904,FANH01,K02,_,02,N,01,000,A105780,4.71,20180903,,Y
20180904,FANH01,K02,_,02,N,01,000,A114260,17.92,20180903,,Y
20180904,FANH01,K02,_,02,N,01,000,A122090,10.49,20180903,,Y
20180904,FANH01,K02,_,02,N,01,000,A136340,22.07,20180903,,Y
20180904,FANH01,K02,_,02,N,01,000,A137610,10.0,20180903,,Y
20180904,FANH01,K02,_,02,N,01,000,A139290,19.91,20180903,,Y
20180904,FANH01,K02,_,02,N,01,000,A145850,6.06,20180903,,Y
20180904,FANH01,K02,_,02,N,01,000,A161510,8.8,20180903,,Y
20180904,FANH01,K02,_,03,N,01,000,A105780,4.71,20180903,,Y
20180904,FANH01,K02,_,03,N,01,000,A114260,17.92,20180903,,Y
20180904,FANH01,K02,_,03,N,01,000,A122090,10.49,20180903,,Y
20180904,FANH01,K02,_,03,N,01,000,A136340,22.07,20180903,,Y
20180904,FANH01,K02,_,03,N,01,000,A137610,10.0,20180903,,Y
20180904,FANH01,K02,_,03,N,01,000,A139290,19.91,20180903,,Y
20180904,FANH01,K02,_,03,N,01,000,A145850,6.06,20180903,,Y
20180904,FANH01,K02,_,03,N,01,000,A161510,8.8,20180903,,Y
20180904,FANH01,K02,_,04,N,01,000,A105780,4.71,20180903,,Y
20180904,FANH01,K02,_,04,N,01,000,A114260,17.92,20180903,,Y
20180904,FANH01,K02,_,04,N,01,000,A122090,10.49,20180903,,Y
20180904,FANH01,K02,_,04,N,01,000,A136340,22.07,20180903,,Y
20180904,FANH01,K02,_,04,N,01,000,A137610,10.0,20180903,,Y
20180904,FANH01,K02,_,04,N,01,000,A139290,19.91,20180903,,Y
20180904,FANH01,K02,_,04,N,01,000,A145850,6.06,20180903,,Y
20180904,FANH01,K02,_,04,N,01,000,A161510,8.8,20180903,,Y
20180904,FANH01,K02,_,05,N,01,000,A105780,4.71,20180903,,Y
20180904,FANH01,K02,_,05,N,01,000,A114260,17.92,20180903,,Y
20180904,FANH01,K02,_,05,N,01,000,A122090,10.49,20180903,,Y
20180904,FANH01,K02,_,05,N,01,000,A136340,22.07,20180903,,Y
20180904,FANH01,K02,_,05,N,01,000,A137610,10.0,20180903,,Y
20180904,FANH01,K02,_,05,N,01,000,A139290,19.91,20180903,,Y
20180904,FANH01,K02,_,05,N,01,000,A145850,6.06,20180903,,Y
20180904,FANH01,K02,_,05,N,01,000,A161510,8.8,20180903,,Y
20181004,FANH01,K02,_,01,N,01,000,A098560,22.01,20181002,,Y
20181004,FANH01,K02,_,01,N,01,000,A108450,27.98,20181002,,Y
20181004,FANH01,K02,_,01,N,01,000,A136340,27.16,20181002,,Y
20181004,FANH01,K02,_,01,N,01,000,A138230,20.0,20181002,,Y
20181004,FANH01,K02,_,01,N,01,000,A148070,2.83,20181002,,Y
20181004,FANH01,K02,_,02,N,01,000,A098560,22.01,20181002,,Y
20181004,FANH01,K02,_,02,N,01,000,A108450,27.98,20181002,,Y
20181004,FANH01,K02,_,02,N,01,000,A136340,27.16,20181002,,Y
20181004,FANH01,K02,_,02,N,01,000,A138230,20.0,20181002,,Y
20181004,FANH01,K02,_,02,N,01,000,A148070,2.83,20181002,,Y
20181004,FANH01,K02,_,03,N,01,000,A098560,22.01,20181002,,Y
20181004,FANH01,K02,_,03,N,01,000,A108450,27.98,20181002,,Y
20181004,FANH01,K02,_,03,N,01,000,A136340,27.16,20181002,,Y
20181004,FANH01,K02,_,03,N,01,000,A138230,20.0,20181002,,Y
20181004,FANH01,K02,_,03,N,01,000,A148070,2.83,20181002,,Y
20181004,FANH01,K02,_,04,N,01,000,A098560,22.01,20181002,,Y
20181004,FANH01,K02,_,04,N,01,000,A108450,27.98,20181002,,Y
20181004,FANH01,K02,_,04,N,01,000,A136340,27.16,20181002,,Y
20181004,FANH01,K02,_,04,N,01,000,A138230,20.0,20181002,,Y
20181004,FANH01,K02,_,04,N,01,000,A148070,2.83,20181002,,Y
20181004,FANH01,K02,_,05,N,01,000,A098560,22.01,20181002,,Y
20181004,FANH01,K02,_,05,N,01,000,A108450,27.98,20181002,,Y
20181004,FANH01,K02,_,05,N,01,000,A136340,27.16,20181002,,Y
20181004,FANH01,K02,_,05,N,01,000,A138230,20.0,20181002,,Y
20181004,FANH01,K02,_,05,N,01,000,A148070,2.83,20181002,,Y
20181105,FANH01,K02,_,01,N,01,000,A098560,22.05,20181102,,Y
20181105,FANH01,K02,_,01,N,01,000,A131890,16.3,20181102,,Y
20181105,FANH01,K02,_,01,N,01,000,A136340,18.1,20181102,,Y
20181105,FANH01,K02,_,01,N,01,000,A138230,17.26,20181102,,Y
20181105,FANH01,K02,_,01,N,01,000,A148070,1.89,20181102,,Y
20181105,FANH01,K02,_,01,N,01,000,A160580,2.73,20181102,,Y
20181105,FANH01,K02,_,01,N,01,000,A161510,21.64,20181102,,Y
20181105,FANH01,K02,_,02,N,01,000,A098560,22.05,20181102,,Y
20181105,FANH01,K02,_,02,N,01,000,A131890,16.3,20181102,,Y
20181105,FANH01,K02,_,02,N,01,000,A136340,18.1,20181102,,Y
20181105,FANH01,K02,_,02,N,01,000,A138230,17.26,20181102,,Y
20181105,FANH01,K02,_,02,N,01,000,A148070,1.89,20181102,,Y
20181105,FANH01,K02,_,02,N,01,000,A160580,2.73,20181102,,Y
20181105,FANH01,K02,_,02,N,01,000,A161510,21.64,20181102,,Y
20181105,FANH01,K02,_,03,N,01,000,A098560,22.05,20181102,,Y
20181105,FANH01,K02,_,03,N,01,000,A131890,16.3,20181102,,Y
20181105,FANH01,K02,_,03,N,01,000,A136340,18.1,20181102,,Y
20181105,FANH01,K02,_,03,N,01,000,A138230,17.26,20181102,,Y
20181105,FANH01,K02,_,03,N,01,000,A148070,1.89,20181102,,Y
20181105,FANH01,K02,_,03,N,01,000,A160580,2.73,20181102,,Y
20181105,FANH01,K02,_,03,N,01,000,A161510,21.64,20181102,,Y
20181105,FANH01,K02,_,04,N,01,000,A098560,22.05,20181102,,Y
20181105,FANH01,K02,_,04,N,01,000,A131890,16.3,20181102,,Y
20181105,FANH01,K02,_,04,N,01,000,A136340,18.1,20181102,,Y
20181105,FANH01,K02,_,04,N,01,000,A138230,17.26,20181102,,Y
20181105,FANH01,K02,_,04,N,01,000,A148070,1.89,20181102,,Y
20181105,FANH01,K02,_,04,N,01,000,A160580,2.73,20181102,,Y
20181105,FANH01,K02,_,04,N,01,000,A161510,21.64,20181102,,Y
20181105,FANH01,K02,_,05,N,01,000,A098560,22.05,20181102,,Y
20181105,FANH01,K02,_,05,N,01,000,A131890,16.3,20181102,,Y
20181105,FANH01,K02,_,05,N,01,000,A136340,18.1,20181102,,Y
20181105,FANH01,K02,_,05,N,01,000,A138230,17.26,20181102,,Y
20181105,FANH01,K02,_,05,N,01,000,A148070,1.89,20181102,,Y
20181105,FANH01,K02,_,05,N,01,000,A160580,2.73,20181102,,Y
20181105,FANH01,K02,_,05,N,01,000,A161510,21.64,20181102,,Y
20181204,FANH01,K02,_,01,N,01,000,A136340,27.68,20181203,,Y
20181204,FANH01,K02,_,01,N,01,000,A138230,16.71,20181203,,Y
20181204,FANH01,K02,_,01,N,01,000,A140700,50.0,20181203,,Y
20181204,FANH01,K02,_,01,N,01,000,A148070,2.31,20181203,,Y
20181204,FANH01,K02,_,01,N,01,000,A160580,3.28,20181203,,Y
20181204,FANH01,K02,_,02,N,01,000,A136340,27.68,20181203,,Y
20181204,FANH01,K02,_,02,N,01,000,A138230,16.71,20181203,,Y
20181204,FANH01,K02,_,02,N,01,000,A140700,50.0,20181203,,Y
20181204,FANH01,K02,_,02,N,01,000,A148070,2.31,20181203,,Y
20181204,FANH01,K02,_,02,N,01,000,A160580,3.28,20181203,,Y
20181204,FANH01,K02,_,03,N,01,000,A136340,27.68,20181203,,Y
20181204,FANH01,K02,_,03,N,01,000,A138230,16.71,20181203,,Y
20181204,FANH01,K02,_,03,N,01,000,A140700,50.0,20181203,,Y
20181204,FANH01,K02,_,03,N,01,000,A148070,2.31,20181203,,Y
20181204,FANH01,K02,_,03,N,01,000,A160580,3.28,20181203,,Y
20181204,FANH01,K02,_,04,N,01,000,A136340,27.68,20181203,,Y
20181204,FANH01,K02,_,04,N,01,000,A138230,16.71,20181203,,Y
20181204,FANH01,K02,_,04,N,01,000,A140700,50.0,20181203,,Y
20181204,FANH01,K02,_,04,N,01,000,A148070,2.31,20181203,,Y
20181204,FANH01,K02,_,04,N,01,000,A160580,3.28,20181203,,Y
20181204,FANH01,K02,_,05,N,01,000,A136340,27.68,20181203,,Y
20181204,FANH01,K02,_,05,N,01,000,A138230,16.71,20181203,,Y
20181204,FANH01,K02,_,05,N,01,000,A140700,50.0,20181203,,Y
20181204,FANH01,K02,_,05,N,01,000,A148070,2.31,20181203,,Y
20181204,FANH01,K02,_,05,N,01,000,A160580,3.28,20181203,,Y
20190104,FANH01,K02,_,01,N,01,000,A098560,22.91,20190103,,Y
20190104,FANH01,K02,_,01,N,01,000,A136340,18.58,20190103,,Y
20190104,FANH01,K02,_,01,N,01,000,A139280,6.56,20190103,,Y
20190104,FANH01,K02,_,01,N,01,000,A147970,3.38,20190103,,Y
20190104,FANH01,K02,_,01,N,01,000,A148070,1.41,20190103,,Y
20190104,FANH01,K02,_,01,N,01,000,A152280,5.28,20190103,,Y
20190104,FANH01,K02,_,01,N,01,000,A160580,20.0,20190103,,Y
20190104,FANH01,K02,_,01,N,01,000,A161510,21.84,20190103,,Y
20190104,FANH01,K02,_,02,N,01,000,A098560,22.91,20190103,,Y
20190104,FANH01,K02,_,02,N,01,000,A136340,18.58,20190103,,Y
20190104,FANH01,K02,_,02,N,01,000,A139280,6.56,20190103,,Y
20190104,FANH01,K02,_,02,N,01,000,A147970,3.38,20190103,,Y
20190104,FANH01,K02,_,02,N,01,000,A148070,1.41,20190103,,Y
20190104,FANH01,K02,_,02,N,01,000,A152280,5.28,20190103,,Y
20190104,FANH01,K02,_,02,N,01,000,A160580,20.0,20190103,,Y
20190104,FANH01,K02,_,02,N,01,000,A161510,21.84,20190103,,Y
20190104,FANH01,K02,_,03,N,01,000,A098560,22.91,20190103,,Y
20190104,FANH01,K02,_,03,N,01,000,A136340,18.58,20190103,,Y
20190104,FANH01,K02,_,03,N,01,000,A139280,6.56,20190103,,Y
20190104,FANH01,K02,_,03,N,01,000,A147970,3.38,20190103,,Y
20190104,FANH01,K02,_,03,N,01,000,A148070,1.41,20190103,,Y
20190104,FANH01,K02,_,03,N,01,000,A152280,5.28,20190103,,Y
20190104,FANH01,K02,_,03,N,01,000,A160580,20.0,20190103,,Y
20190104,FANH01,K02,_,03,N,01,000,A161510,21.84,20190103,,Y
20190104,FANH01,K02,_,04,N,01,000,A098560,22.91,20190103,,Y
20190104,FANH01,K02,_,04,N,01,000,A136340,18.58,20190103,,Y
20190104,FANH01,K02,_,04,N,01,000,A139280,6.56,20190103,,Y
20190104,FANH01,K02,_,04,N,01,000,A147970,3.38,20190103,,Y
20190104,FANH01,K02,_,04,N,01,000,A148070,1.41,20190103,,Y
20190104,FANH01,K02,_,04,N,01,000,A152280,5.28,20190103,,Y
20190104,FANH01,K02,_,04,N,01,000,A160580,20.0,20190103,,Y
20190104,FANH01,K02,_,04,N,01,000,A161510,21.84,20190103,,Y
20190104,FANH01,K02,_,05,N,01,000,A098560,22.91,20190103,,Y
20190104,FANH01,K02,_,05,N,01,000,A136340,18.58,20190103,,Y
20190104,FANH01,K02,_,05,N,01,000,A139280,6.56,20190103,,Y
20190104,FANH01,K02,_,05,N,01,000,A147970,3.38,20190103,,Y
20190104,FANH01,K02,_,05,N,01,000,A148070,1.41,20190103,,Y
20190104,FANH01,K02,_,05,N,01,000,A152280,5.28,20190103,,Y
20190104,FANH01,K02,_,05,N,01,000,A160580,20.0,20190103,,Y
20190104,FANH01,K02,_,05,N,01,000,A161510,21.84,20190103,,Y
20190207,FANH01,K02,_,01,N,01,000,A132030,3.78,20190201,,Y
20190207,FANH01,K02,_,01,N,01,000,A136340,37.13,20190201,,Y
20190207,FANH01,K02,_,01,N,01,000,A138230,6.21,20190201,,Y
20190207,FANH01,K02,_,01,N,01,000,A139280,31.03,20190201,,Y
20190207,FANH01,K02,_,01,N,01,000,A139290,18.96,20190201,,Y
20190207,FANH01,K02,_,01,N,01,000,A148070,2.86,20190201,,Y
20190207,FANH01,K02,_,02,N,01,000,A132030,3.78,20190201,,Y
20190207,FANH01,K02,_,02,N,01,000,A136340,37.13,20190201,,Y
20190207,FANH01,K02,_,02,N,01,000,A138230,6.21,20190201,,Y
20190207,FANH01,K02,_,02,N,01,000,A139280,31.03,20190201,,Y
20190207,FANH01,K02,_,02,N,01,000,A139290,18.96,20190201,,Y
20190207,FANH01,K02,_,02,N,01,000,A148070,2.86,20190201,,Y
20190207,FANH01,K02,_,03,N,01,000,A132030,3.78,20190201,,Y
20190207,FANH01,K02,_,03,N,01,000,A136340,37.13,20190201,,Y
20190207,FANH01,K02,_,03,N,01,000,A138230,6.21,20190201,,Y
20190207,FANH01,K02,_,03,N,01,000,A139280,31.03,20190201,,Y
20190207,FANH01,K02,_,03,N,01,000,A139290,18.96,20190201,,Y
20190207,FANH01,K02,_,03,N,01,000,A148070,2.86,20190201,,Y
20190207,FANH01,K02,_,04,N,01,000,A132030,3.78,20190201,,Y
20190207,FANH01,K02,_,04,N,01,000,A136340,37.13,20190201,,Y
20190207,FANH01,K02,_,04,N,01,000,A138230,6.21,20190201,,Y
20190207,FANH01,K02,_,04,N,01,000,A139280,31.03,20190201,,Y
20190207,FANH01,K02,_,04,N,01,000,A139290,18.96,20190201,,Y
20190207,FANH01,K02,_,04,N,01,000,A148070,2.86,20190201,,Y
20190207,FANH01,K02,_,05,N,01,000,A132030,3.78,20190201,,Y
20190207,FANH01,K02,_,05,N,01,000,A136340,37.13,20190201,,Y
20190207,FANH01,K02,_,05,N,01,000,A138230,6.21,20190201,,Y
20190207,FANH01,K02,_,05,N,01,000,A139280,31.03,20190201,,Y
20190207,FANH01,K02,_,05,N,01,000,A139290,18.96,20190201,,Y
20190207,FANH01,K02,_,05,N,01,000,A148070,2.86,20190201,,Y
20190304,FANH01,K02,_,01,N,01,000,A114260,10.91,20190228,,Y
20190304,FANH01,K02,_,01,N,01,000,A122090,3.02,20190228,,Y
20190304,FANH01,K02,_,01,N,01,000,A130680,1.14,20190228,,Y
20190304,FANH01,K02,_,01,N,01,000,A131890,13.67,20190228,,Y
20190304,FANH01,K02,_,01,N,01,000,A132030,18.85,20190228,,Y
20190304,FANH01,K02,_,01,N,01,000,A136340,9.08,20190228,,Y
20190304,FANH01,K02,_,01,N,01,000,A139260,1.93,20190228,,Y
20190304,FANH01,K02,_,01,N,01,000,A145850,5.23,20190228,,Y
20190304,FANH01,K02,_,01,N,01,000,A161510,36.12,20190228,,Y
20190304,FANH01,K02,_,02,N,01,000,A114260,10.91,20190228,,Y
20190304,FANH01,K02,_,02,N,01,000,A122090,3.02,20190228,,Y
20190304,FANH01,K02,_,02,N,01,000,A130680,1.14,20190228,,Y
20190304,FANH01,K02,_,02,N,01,000,A131890,13.67,20190228,,Y
20190304,FANH01,K02,_,02,N,01,000,A132030,18.85,20190228,,Y
20190304,FANH01,K02,_,02,N,01,000,A136340,9.08,20190228,,Y
20190304,FANH01,K02,_,02,N,01,000,A139260,1.93,20190228,,Y
20190304,FANH01,K02,_,02,N,01,000,A145850,5.23,20190228,,Y
20190304,FANH01,K02,_,02,N,01,000,A161510,36.12,20190228,,Y
20190304,FANH01,K02,_,03,N,01,000,A114260,10.91,20190228,,Y
20190304,FANH01,K02,_,03,N,01,000,A122090,3.02,20190228,,Y
20190304,FANH01,K02,_,03,N,01,000,A130680,1.14,20190228,,Y
20190304,FANH01,K02,_,03,N,01,000,A131890,13.67,20190228,,Y
20190304,FANH01,K02,_,03,N,01,000,A132030,18.85,20190228,,Y
20190304,FANH01,K02,_,03,N,01,000,A136340,9.08,20190228,,Y
20190304,FANH01,K02,_,03,N,01,000,A139260,1.93,20190228,,Y
20190304,FANH01,K02,_,03,N,01,000,A145850,5.23,20190228,,Y
20190304,FANH01,K02,_,03,N,01,000,A161510,36.12,20190228,,Y
20190304,FANH01,K02,_,04,N,01,000,A114260,10.91,20190228,,Y
20190304,FANH01,K02,_,04,N,01,000,A122090,3.02,20190228,,Y
20190304,FANH01,K02,_,04,N,01,000,A130680,1.14,20190228,,Y
20190304,FANH01,K02,_,04,N,01,000,A131890,13.67,20190228,,Y
20190304,FANH01,K02,_,04,N,01,000,A132030,18.85,20190228,,Y
20190304,FANH01,K02,_,04,N,01,000,A136340,9.08,20190228,,Y
20190304,FANH01,K02,_,04,N,01,000,A139260,1.93,20190228,,Y
20190304,FANH01,K02,_,04,N,01,000,A145850,5.23,20190228,,Y
20190304,FANH01,K02,_,04,N,01,000,A161510,36.12,20190228,,Y
20190304,FANH01,K02,_,05,N,01,000,A114260,10.91,20190228,,Y
20190304,FANH01,K02,_,05,N,01,000,A122090,3.02,20190228,,Y
20190304,FANH01,K02,_,05,N,01,000,A130680,1.14,20190228,,Y
20190304,FANH01,K02,_,05,N,01,000,A131890,13.67,20190228,,Y
20190304,FANH01,K02,_,05,N,01,000,A132030,18.85,20190228,,Y
20190304,FANH01,K02,_,05,N,01,000,A136340,9.08,20190228,,Y
20190304,FANH01,K02,_,05,N,01,000,A139260,1.93,20190228,,Y
20190304,FANH01,K02,_,05,N,01,000,A145850,5.23,20190228,,Y
20190304,FANH01,K02,_,05,N,01,000,A161510,36.12,20190228,,Y
20190404,FANH01,K02,_,01,N,01,000,A091160,2.32,20190403,,Y
20190404,FANH01,K02,_,01,N,01,000,A104530,19.71,20190403,,Y
20190404,FANH01,K02,_,01,N,01,000,A114260,29.27,20190403,,Y
20190404,FANH01,K02,_,01,N,01,000,A122090,8.36,20190403,,Y
20190404,FANH01,K02,_,01,N,01,000,A130680,3.01,20190403,,Y
20190404,FANH01,K02,_,01,N,01,000,A136340,15.72,20190403,,Y
20190404,FANH01,K02,_,01,N,01,000,A147970,8.41,20190403,,Y
20190404,FANH01,K02,_,01,N,01,000,A150460,6.17,20190403,,Y
20190404,FANH01,K02,_,01,N,01,000,A160580,6.98,20190403,,Y
20190404,FANH01,K02,_,02,N,01,000,A091160,2.32,20190403,,Y
20190404,FANH01,K02,_,02,N,01,000,A104530,19.71,20190403,,Y
20190404,FANH01,K02,_,02,N,01,000,A114260,29.27,20190403,,Y
20190404,FANH01,K02,_,02,N,01,000,A122090,8.36,20190403,,Y
20190404,FANH01,K02,_,02,N,01,000,A130680,3.01,20190403,,Y
20190404,FANH01,K02,_,02,N,01,000,A136340,15.72,20190403,,Y
20190404,FANH01,K02,_,02,N,01,000,A147970,8.41,20190403,,Y
20190404,FANH01,K02,_,02,N,01,000,A150460,6.17,20190403,,Y
20190404,FANH01,K02,_,02,N,01,000,A160580,6.98,20190403,,Y
20190404,FANH01,K02,_,03,N,01,000,A091160,2.32,20190403,,Y
20190404,FANH01,K02,_,03,N,01,000,A104530,19.71,20190403,,Y
20190404,FANH01,K02,_,03,N,01,000,A114260,29.27,20190403,,Y
20190404,FANH01,K02,_,03,N,01,000,A122090,8.36,20190403,,Y
20190404,FANH01,K02,_,03,N,01,000,A130680,3.01,20190403,,Y
20190404,FANH01,K02,_,03,N,01,000,A136340,15.72,20190403,,Y
20190404,FANH01,K02,_,03,N,01,000,A147970,8.41,20190403,,Y
20190404,FANH01,K02,_,03,N,01,000,A150460,6.17,20190403,,Y
20190404,FANH01,K02,_,03,N,01,000,A160580,6.98,20190403,,Y
20190404,FANH01,K02,_,04,N,01,000,A091160,2.32,20190403,,Y
20190404,FANH01,K02,_,04,N,01,000,A104530,19.71,20190403,,Y
20190404,FANH01,K02,_,04,N,01,000,A114260,29.27,20190403,,Y
20190404,FANH01,K02,_,04,N,01,000,A122090,8.36,20190403,,Y
20190404,FANH01,K02,_,04,N,01,000,A130680,3.01,20190403,,Y
20190404,FANH01,K02,_,04,N,01,000,A136340,15.72,20190403,,Y
20190404,FANH01,K02,_,04,N,01,000,A147970,8.41,20190403,,Y
20190404,FANH01,K02,_,04,N,01,000,A150460,6.17,20190403,,Y
20190404,FANH01,K02,_,04,N,01,000,A160580,6.98,20190403,,Y
20190404,FANH01,K02,_,05,N,01,000,A091160,2.32,20190403,,Y
20190404,FANH01,K02,_,05,N,01,000,A104530,19.71,20190403,,Y
20190404,FANH01,K02,_,05,N,01,000,A114260,29.27,20190403,,Y
20190404,FANH01,K02,_,05,N,01,000,A122090,8.36,20190403,,Y
20190404,FANH01,K02,_,05,N,01,000,A130680,3.01,20190403,,Y
20190404,FANH01,K02,_,05,N,01,000,A136340,15.72,20190403,,Y
20190404,FANH01,K02,_,05,N,01,000,A147970,8.41,20190403,,Y
20190404,FANH01,K02,_,05,N,01,000,A150460,6.17,20190403,,Y
20190404,FANH01,K02,_,05,N,01,000,A160580,6.98,20190403,,Y
20190507,FANH01,K02,_,01,N,01,000,A091160,3.64,20190503,,Y
20190507,FANH01,K02,_,01,N,01,000,A104530,20.66,20190503,,Y
20190507,FANH01,K02,_,01,N,01,000,A122090,7.69,20190503,,Y
20190507,FANH01,K02,_,01,N,01,000,A131890,13.18,20190503,,Y
20190507,FANH01,K02,_,01,N,01,000,A136340,18.31,20190503,,Y
20190507,FANH01,K02,_,01,N,01,000,A138230,17.07,20190503,,Y
20190507,FANH01,K02,_,01,N,01,000,A147970,14.82,20190503,,Y
20190507,FANH01,K02,_,01,N,01,000,A148070,1.68,20190503,,Y
20190507,FANH01,K02,_,01,N,01,000,A160580,2.92,20190503,,Y
20190507,FANH01,K02,_,02,N,01,000,A091160,3.64,20190503,,Y
20190507,FANH01,K02,_,02,N,01,000,A104530,20.66,20190503,,Y
20190507,FANH01,K02,_,02,N,01,000,A122090,7.69,20190503,,Y
20190507,FANH01,K02,_,02,N,01,000,A131890,13.18,20190503,,Y
20190507,FANH01,K02,_,02,N,01,000,A136340,18.31,20190503,,Y
20190507,FANH01,K02,_,02,N,01,000,A138230,17.07,20190503,,Y
20190507,FANH01,K02,_,02,N,01,000,A147970,14.82,20190503,,Y
20190507,FANH01,K02,_,02,N,01,000,A148070,1.68,20190503,,Y
20190507,FANH01,K02,_,02,N,01,000,A160580,2.92,20190503,,Y
20190507,FANH01,K02,_,03,N,01,000,A091160,3.64,20190503,,Y
20190507,FANH01,K02,_,03,N,01,000,A104530,20.66,20190503,,Y
20190507,FANH01,K02,_,03,N,01,000,A122090,7.69,20190503,,Y
20190507,FANH01,K02,_,03,N,01,000,A131890,13.18,20190503,,Y
20190507,FANH01,K02,_,03,N,01,000,A136340,18.31,20190503,,Y
20190507,FANH01,K02,_,03,N,01,000,A138230,17.07,20190503,,Y
20190507,FANH01,K02,_,03,N,01,000,A147970,14.82,20190503,,Y
20190507,FANH01,K02,_,03,N,01,000,A148070,1.68,20190503,,Y
20190507,FANH01,K02,_,03,N,01,000,A160580,2.92,20190503,,Y
20190507,FANH01,K02,_,04,N,01,000,A091160,3.64,20190503,,Y
20190507,FANH01,K02,_,04,N,01,000,A104530,20.66,20190503,,Y
20190507,FANH01,K02,_,04,N,01,000,A122090,7.69,20190503,,Y
20190507,FANH01,K02,_,04,N,01,000,A131890,13.18,20190503,,Y
20190507,FANH01,K02,_,04,N,01,000,A136340,18.31,20190503,,Y
20190507,FANH01,K02,_,04,N,01,000,A138230,17.07,20190503,,Y
20190507,FANH01,K02,_,04,N,01,000,A147970,14.82,20190503,,Y
20190507,FANH01,K02,_,04,N,01,000,A148070,1.68,20190503,,Y
20190507,FANH01,K02,_,04,N,01,000,A160580,2.92,20190503,,Y
20190507,FANH01,K02,_,05,N,01,000,A091160,3.64,20190503,,Y
20190507,FANH01,K02,_,05,N,01,000,A104530,20.66,20190503,,Y
20190507,FANH01,K02,_,05,N,01,000,A122090,7.69,20190503,,Y
20190507,FANH01,K02,_,05,N,01,000,A131890,13.18,20190503,,Y
20190507,FANH01,K02,_,05,N,01,000,A136340,18.31,20190503,,Y
20190507,FANH01,K02,_,05,N,01,000,A138230,17.07,20190503,,Y
20190507,FANH01,K02,_,05,N,01,000,A147970,14.82,20190503,,Y
20190507,FANH01,K02,_,05,N,01,000,A148070,1.68,20190503,,Y
20190507,FANH01,K02,_,05,N,01,000,A160580,2.92,20190503,,Y
20190604,FANH01,K02,_,01,N,01,000,A091160,2.33,20190603,,Y
20190604,FANH01,K02,_,01,N,01,000,A104530,16.95,20190603,,Y
20190604,FANH01,K02,_,01,N,01,000,A114260,20.35,20190603,,Y
20190604,FANH01,K02,_,01,N,01,000,A122090,3.63,20190603,,Y
20190604,FANH01,K02,_,01,N,01,000,A131890,4.65,20190603,,Y
20190604,FANH01,K02,_,01,N,01,000,A136340,19.64,20190603,,Y
20190604,FANH01,K02,_,01,N,01,000,A138230,8.2,20190603,,Y
20190604,FANH01,K02,_,01,N,01,000,A147970,22.42,20190603,,Y
20190604,FANH01,K02,_,01,N,01,000,A160580,1.79,20190603,,Y
20190604,FANH01,K02,_,02,N,01,000,A091160,2.33,20190603,,Y
20190604,FANH01,K02,_,02,N,01,000,A104530,16.95,20190603,,Y
20190604,FANH01,K02,_,02,N,01,000,A114260,20.35,20190603,,Y
20190604,FANH01,K02,_,02,N,01,000,A122090,3.63,20190603,,Y
20190604,FANH01,K02,_,02,N,01,000,A131890,4.65,20190603,,Y
20190604,FANH01,K02,_,02,N,01,000,A136340,19.64,20190603,,Y
20190604,FANH01,K02,_,02,N,01,000,A138230,8.2,20190603,,Y
20190604,FANH01,K02,_,02,N,01,000,A147970,22.42,20190603,,Y
20190604,FANH01,K02,_,02,N,01,000,A160580,1.79,20190603,,Y
20190604,FANH01,K02,_,03,N,01,000,A091160,2.33,20190603,,Y
20190604,FANH01,K02,_,03,N,01,000,A104530,16.95,20190603,,Y
20190604,FANH01,K02,_,03,N,01,000,A114260,20.35,20190603,,Y
20190604,FANH01,K02,_,03,N,01,000,A122090,3.63,20190603,,Y
20190604,FANH01,K02,_,03,N,01,000,A131890,4.65,20190603,,Y
20190604,FANH01,K02,_,03,N,01,000,A136340,19.64,20190603,,Y
20190604,FANH01,K02,_,03,N,01,000,A138230,8.2,20190603,,Y
20190604,FANH01,K02,_,03,N,01,000,A147970,22.42,20190603,,Y
20190604,FANH01,K02,_,03,N,01,000,A160580,1.79,20190603,,Y
20190604,FANH01,K02,_,04,N,01,000,A091160,2.33,20190603,,Y
20190604,FANH01,K02,_,04,N,01,000,A104530,16.95,20190603,,Y
20190604,FANH01,K02,_,04,N,01,000,A114260,20.35,20190603,,Y
20190604,FANH01,K02,_,04,N,01,000,A122090,3.63,20190603,,Y
20190604,FANH01,K02,_,04,N,01,000,A131890,4.65,20190603,,Y
20190604,FANH01,K02,_,04,N,01,000,A136340,19.64,20190603,,Y
20190604,FANH01,K02,_,04,N,01,000,A138230,8.2,20190603,,Y
20190604,FANH01,K02,_,04,N,01,000,A147970,22.42,20190603,,Y
20190604,FANH01,K02,_,04,N,01,000,A160580,1.79,20190603,,Y
20190604,FANH01,K02,_,05,N,01,000,A091160,2.33,20190603,,Y
20190604,FANH01,K02,_,05,N,01,000,A104530,16.95,20190603,,Y
20190604,FANH01,K02,_,05,N,01,000,A114260,20.35,20190603,,Y
20190604,FANH01,K02,_,05,N,01,000,A122090,3.63,20190603,,Y
20190604,FANH01,K02,_,05,N,01,000,A131890,4.65,20190603,,Y
20190604,FANH01,K02,_,05,N,01,000,A136340,19.64,20190603,,Y
20190604,FANH01,K02,_,05,N,01,000,A138230,8.2,20190603,,Y
20190604,FANH01,K02,_,05,N,01,000,A147970,22.42,20190603,,Y
20190604,FANH01,K02,_,05,N,01,000,A160580,1.79,20190603,,Y
20190704,FANH01,K02,_,01,N,01,000,A102970,45.0,20190703,,Y
20190704,FANH01,K02,_,01,N,01,000,A132030,1.97,20190703,,Y
20190704,FANH01,K02,_,01,N,01,000,A136340,41.86,20190703,,Y
20190704,FANH01,K02,_,01,N,01,000,A138230,8.02,20190703,,Y
20190704,FANH01,K02,_,01,N,01,000,A148070,3.13,20190703,,Y
20190704,FANH01,K02,_,02,N,01,000,A102970,45.0,20190703,,Y
20190704,FANH01,K02,_,02,N,01,000,A132030,1.97,20190703,,Y
20190704,FANH01,K02,_,02,N,01,000,A136340,41.86,20190703,,Y
20190704,FANH01,K02,_,02,N,01,000,A138230,8.02,20190703,,Y
20190704,FANH01,K02,_,02,N,01,000,A148070,3.13,20190703,,Y
20190704,FANH01,K02,_,03,N,01,000,A102970,45.0,20190703,,Y
20190704,FANH01,K02,_,03,N,01,000,A132030,1.97,20190703,,Y
20190704,FANH01,K02,_,03,N,01,000,A136340,41.86,20190703,,Y
20190704,FANH01,K02,_,03,N,01,000,A138230,8.02,20190703,,Y
20190704,FANH01,K02,_,03,N,01,000,A148070,3.13,20190703,,Y
20190704,FANH01,K02,_,04,N,01,000,A102970,45.0,20190703,,Y
20190704,FANH01,K02,_,04,N,01,000,A132030,1.97,20190703,,Y
20190704,FANH01,K02,_,04,N,01,000,A136340,41.86,20190703,,Y
20190704,FANH01,K02,_,04,N,01,000,A138230,8.02,20190703,,Y
20190704,FANH01,K02,_,04,N,01,000,A148070,3.13,20190703,,Y
20190704,FANH01,K02,_,05,N,01,000,A102970,45.0,20190703,,Y
20190704,FANH01,K02,_,05,N,01,000,A132030,1.97,20190703,,Y
20190704,FANH01,K02,_,05,N,01,000,A136340,41.86,20190703,,Y
20190704,FANH01,K02,_,05,N,01,000,A138230,8.02,20190703,,Y
20190704,FANH01,K02,_,05,N,01,000,A148070,3.13,20190703,,Y
20190805,FANH01,K02,_,01,N,01,000,A104530,15.54,20190802,,Y
20190805,FANH01,K02,_,01,N,01,000,A122090,6.61,20190802,,Y
20190805,FANH01,K02,_,01,N,01,000,A131890,13.65,20190802,,Y
20190805,FANH01,K02,_,01,N,01,000,A132030,12.99,20190802,,Y
20190805,FANH01,K02,_,01,N,01,000,A136340,27.63,20190802,,Y
20190805,FANH01,K02,_,01,N,01,000,A137610,7.0,20190802,,Y
20190805,FANH01,K02,_,01,N,01,000,A139260,6.52,20190802,,Y
20190805,FANH01,K02,_,01,N,01,000,A145850,7.67,20190802,,Y
20190805,FANH01,K02,_,01,N,01,000,A148070,2.36,20190802,,Y
20190805,FANH01,K02,_,02,N,01,000,A104530,15.54,20190802,,Y
20190805,FANH01,K02,_,02,N,01,000,A122090,6.61,20190802,,Y
20190805,FANH01,K02,_,02,N,01,000,A131890,13.65,20190802,,Y
20190805,FANH01,K02,_,02,N,01,000,A132030,12.99,20190802,,Y
20190805,FANH01,K02,_,02,N,01,000,A136340,27.63,20190802,,Y
20190805,FANH01,K02,_,02,N,01,000,A137610,7.0,20190802,,Y
20190805,FANH01,K02,_,02,N,01,000,A139260,6.52,20190802,,Y
20190805,FANH01,K02,_,02,N,01,000,A145850,7.67,20190802,,Y
20190805,FANH01,K02,_,02,N,01,000,A148070,2.36,20190802,,Y
20190805,FANH01,K02,_,03,N,01,000,A104530,15.54,20190802,,Y
20190805,FANH01,K02,_,03,N,01,000,A122090,6.61,20190802,,Y
20190805,FANH01,K02,_,03,N,01,000,A131890,13.65,20190802,,Y
20190805,FANH01,K02,_,03,N,01,000,A132030,12.99,20190802,,Y
20190805,FANH01,K02,_,03,N,01,000,A136340,27.63,20190802,,Y
20190805,FANH01,K02,_,03,N,01,000,A137610,7.0,20190802,,Y
20190805,FANH01,K02,_,03,N,01,000,A139260,6.52,20190802,,Y
20190805,FANH01,K02,_,03,N,01,000,A145850,7.67,20190802,,Y
20190805,FANH01,K02,_,03,N,01,000,A148070,2.36,20190802,,Y
20190805,FANH01,K02,_,04,N,01,000,A104530,15.54,20190802,,Y
20190805,FANH01,K02,_,04,N,01,000,A122090,6.61,20190802,,Y
20190805,FANH01,K02,_,04,N,01,000,A131890,13.65,20190802,,Y
20190805,FANH01,K02,_,04,N,01,000,A132030,12.99,20190802,,Y
20190805,FANH01,K02,_,04,N,01,000,A136340,27.63,20190802,,Y
20190805,FANH01,K02,_,04,N,01,000,A137610,7.0,20190802,,Y
20190805,FANH01,K02,_,04,N,01,000,A139260,6.52,20190802,,Y
20190805,FANH01,K02,_,04,N,01,000,A145850,7.67,20190802,,Y
20190805,FANH01,K02,_,04,N,01,000,A148070,2.36,20190802,,Y
20190805,FANH01,K02,_,05,N,01,000,A104530,15.54,20190802,,Y
20190805,FANH01,K02,_,05,N,01,000,A122090,6.61,20190802,,Y
20190805,FANH01,K02,_,05,N,01,000,A131890,13.65,20190802,,Y
20190805,FANH01,K02,_,05,N,01,000,A132030,12.99,20190802,,Y
20190805,FANH01,K02,_,05,N,01,000,A136340,27.63,20190802,,Y
20190805,FANH01,K02,_,05,N,01,000,A137610,7.0,20190802,,Y
20190805,FANH01,K02,_,05,N,01,000,A139260,6.52,20190802,,Y
20190805,FANH01,K02,_,05,N,01,000,A145850,7.67,20190802,,Y
20190805,FANH01,K02,_,05,N,01,000,A148070,2.36,20190802,,Y
20190904,FANH01,K02,_,01,N,01,000,A132030,1.38,20190903,,Y
20190904,FANH01,K02,_,01,N,01,000,A136340,41.49,20190903,,Y
20190904,FANH01,K02,_,01,N,01,000,A138230,8.61,20190903,,Y
20190904,FANH01,K02,_,01,N,01,000,A148070,3.5,20190903,,Y
20190904,FANH01,K02,_,01,N,01,000,A157490,45.0,20190903,,Y
20190904,FANH01,K02,_,02,N,01,000,A132030,1.38,20190903,,Y
20190904,FANH01,K02,_,02,N,01,000,A136340,41.49,20190903,,Y
20190904,FANH01,K02,_,02,N,01,000,A138230,8.61,20190903,,Y
20190904,FANH01,K02,_,02,N,01,000,A148070,3.5,20190903,,Y
20190904,FANH01,K02,_,02,N,01,000,A157490,45.0,20190903,,Y
20190904,FANH01,K02,_,03,N,01,000,A132030,1.38,20190903,,Y
20190904,FANH01,K02,_,03,N,01,000,A136340,41.49,20190903,,Y
20190904,FANH01,K02,_,03,N,01,000,A138230,8.61,20190903,,Y
20190904,FANH01,K02,_,03,N,01,000,A148070,3.5,20190903,,Y
20190904,FANH01,K02,_,03,N,01,000,A157490,45.0,20190903,,Y
20190904,FANH01,K02,_,04,N,01,000,A132030,1.38,20190903,,Y
20190904,FANH01,K02,_,04,N,01,000,A136340,41.49,20190903,,Y
20190904,FANH01,K02,_,04,N,01,000,A138230,8.61,20190903,,Y
20190904,FANH01,K02,_,04,N,01,000,A148070,3.5,20190903,,Y
20190904,FANH01,K02,_,04,N,01,000,A157490,45.0,20190903,,Y
20190904,FANH01,K02,_,05,N,01,000,A132030,1.38,20190903,,Y
20190904,FANH01,K02,_,05,N,01,000,A136340,41.49,20190903,,Y
20190904,FANH01,K02,_,05,N,01,000,A138230,8.61,20190903,,Y
20190904,FANH01,K02,_,05,N,01,000,A148070,3.5,20190903,,Y
20190904,FANH01,K02,_,05,N,01,000,A157490,45.0,20190903,,Y
20191004,FANH01,K02,_,01,N,01,000,A132030,1.37,20191002,,Y
20191004,FANH01,K02,_,01,N,01,000,A136340,41.63,20191002,,Y
20191004,FANH01,K02,_,01,N,01,000,A138230,8.62,20191002,,Y
20191004,FANH01,K02,_,01,N,01,000,A148070,3.36,20191002,,Y
20191004,FANH01,K02,_,01,N,01,000,A157490,45.0,20191002,,Y
20191004,FANH01,K02,_,02,N,01,000,A132030,1.37,20191002,,Y
20191004,FANH01,K02,_,02,N,01,000,A136340,41.63,20191002,,Y
20191004,FANH01,K02,_,02,N,01,000,A138230,8.62,20191002,,Y
20191004,FANH01,K02,_,02,N,01,000,A148070,3.36,20191002,,Y
20191004,FANH01,K02,_,02,N,01,000,A157490,45.0,20191002,,Y
20191004,FANH01,K02,_,03,N,01,000,A132030,1.37,20191002,,Y
20191004,FANH01,K02,_,03,N,01,000,A136340,41.63,20191002,,Y
20191004,FANH01,K02,_,03,N,01,000,A138230,8.62,20191002,,Y
20191004,FANH01,K02,_,03,N,01,000,A148070,3.36,20191002,,Y
20191004,FANH01,K02,_,03,N,01,000,A157490,45.0,20191002,,Y
20191004,FANH01,K02,_,04,N,01,000,A132030,1.37,20191002,,Y
20191004,FANH01,K02,_,04,N,01,000,A136340,41.63,20191002,,Y
20191004,FANH01,K02,_,04,N,01,000,A138230,8.62,20191002,,Y
20191004,FANH01,K02,_,04,N,01,000,A148070,3.36,20191002,,Y
20191004,FANH01,K02,_,04,N,01,000,A157490,45.0,20191002,,Y
20191004,FANH01,K02,_,05,N,01,000,A132030,1.37,20191002,,Y
20191004,FANH01,K02,_,05,N,01,000,A136340,41.63,20191002,,Y
20191004,FANH01,K02,_,05,N,01,000,A138230,8.62,20191002,,Y
20191004,FANH01,K02,_,05,N,01,000,A148070,3.36,20191002,,Y
20191004,FANH01,K02,_,05,N,01,000,A157490,45.0,20191002,,Y
20191104,FANH01,K02,_,01,N,01,000,A091160,8.29,20191101,,Y
20191104,FANH01,K02,_,01,N,01,000,A114260,18.98,20191101,,Y
20191104,FANH01,K02,_,01,N,01,000,A122090,4.7,20191101,,Y
20191104,FANH01,K02,_,01,N,01,000,A131890,9.1,20191101,,Y
20191104,FANH01,K02,_,01,N,01,000,A132030,4.8,20191101,,Y
20191104,FANH01,K02,_,01,N,01,000,A136340,26.01,20191101,,Y
20191104,FANH01,K02,_,01,N,01,000,A137610,5.19,20191101,,Y
20191104,FANH01,K02,_,01,N,01,000,A145850,5.86,20191101,,Y
20191104,FANH01,K02,_,01,N,01,000,A161510,17.03,20191101,,Y
20191104,FANH01,K02,_,02,N,01,000,A091160,8.29,20191101,,Y
20191104,FANH01,K02,_,02,N,01,000,A114260,18.98,20191101,,Y
20191104,FANH01,K02,_,02,N,01,000,A122090,4.7,20191101,,Y
20191104,FANH01,K02,_,02,N,01,000,A131890,9.1,20191101,,Y
20191104,FANH01,K02,_,02,N,01,000,A132030,4.8,20191101,,Y
20191104,FANH01,K02,_,02,N,01,000,A136340,26.01,20191101,,Y
20191104,FANH01,K02,_,02,N,01,000,A137610,5.19,20191101,,Y
20191104,FANH01,K02,_,02,N,01,000,A145850,5.86,20191101,,Y
20191104,FANH01,K02,_,02,N,01,000,A161510,17.03,20191101,,Y
20191104,FANH01,K02,_,03,N,01,000,A091160,8.29,20191101,,Y
20191104,FANH01,K02,_,03,N,01,000,A114260,18.98,20191101,,Y
20191104,FANH01,K02,_,03,N,01,000,A122090,4.7,20191101,,Y
20191104,FANH01,K02,_,03,N,01,000,A131890,9.1,20191101,,Y
20191104,FANH01,K02,_,03,N,01,000,A132030,4.8,20191101,,Y
20191104,FANH01,K02,_,03,N,01,000,A136340,26.01,20191101,,Y
20191104,FANH01,K02,_,03,N,01,000,A137610,5.19,20191101,,Y
20191104,FANH01,K02,_,03,N,01,000,A145850,5.86,20191101,,Y
20191104,FANH01,K02,_,03,N,01,000,A161510,17.03,20191101,,Y
20191104,FANH01,K02,_,04,N,01,000,A091160,8.29,20191101,,Y
20191104,FANH01,K02,_,04,N,01,000,A114260,18.98,20191101,,Y
20191104,FANH01,K02,_,04,N,01,000,A122090,4.7,20191101,,Y
20191104,FANH01,K02,_,04,N,01,000,A131890,9.1,20191101,,Y
20191104,FANH01,K02,_,04,N,01,000,A132030,4.8,20191101,,Y
20191104,FANH01,K02,_,04,N,01,000,A136340,26.01,20191101,,Y
20191104,FANH01,K02,_,04,N,01,000,A137610,5.19,20191101,,Y
20191104,FANH01,K02,_,04,N,01,000,A145850,5.86,20191101,,Y
20191104,FANH01,K02,_,04,N,01,000,A161510,17.03,20191101,,Y
20191104,FANH01,K02,_,05,N,01,000,A091160,8.29,20191101,,Y
20191104,FANH01,K02,_,05,N,01,000,A114260,18.98,20191101,,Y
20191104,FANH01,K02,_,05,N,01,000,A122090,4.7,20191101,,Y
20191104,FANH01,K02,_,05,N,01,000,A131890,9.1,20191101,,Y
20191104,FANH01,K02,_,05,N,01,000,A132030,4.8,20191101,,Y
20191104,FANH01,K02,_,05,N,01,000,A136340,26.01,20191101,,Y
20191104,FANH01,K02,_,05,N,01,000,A137610,5.19,20191101,,Y
20191104,FANH01,K02,_,05,N,01,000,A145850,5.86,20191101,,Y
20191104,FANH01,K02,_,05,N,01,000,A161510,17.03,20191101,,Y
