RegDate,CompanyCode,ProductCode,Account,TendencyCode,AutoMake,UniverseCode,CountryCode,Symbol,Ratio,BaseDate,Reason,APMake
20160104,FANH01,K02,_,01,N,01,000,A138230,20.0,20151230,,Y
20160104,FANH01,K02,_,01,N,01,000,A139280,53.9,20151230,,Y
20160104,FANH01,K02,_,01,N,01,000,A143860,6.09,20151230,,Y
20160104,FANH01,K02,_,01,N,01,000,A153130,20.0,20151230,,Y
20160104,FANH01,K02,_,02,N,01,000,A138230,20.0,20151230,,Y
20160104,FANH01,K02,_,02,N,01,000,A139280,53.9,20151230,,Y
20160104,FANH01,K02,_,02,N,01,000,A143860,6.09,20151230,,Y
20160104,FANH01,K02,_,02,N,01,000,A153130,20.0,20151230,,Y
20160104,FANH01,K02,_,03,N,01,000,A138230,20.0,20151230,,Y
20160104,FANH01,K02,_,03,N,01,000,A139280,53.9,20151230,,Y
20160104,FANH01,K02,_,03,N,01,000,A143860,6.09,20151230,,Y
20160104,FANH01,K02,_,03,N,01,000,A153130,20.0,20151230,,Y
20160104,FANH01,K02,_,04,N,01,000,A138230,20.0,20151230,,Y
20160104,FANH01,K02,_,04,N,01,000,A139280,53.9,20151230,,Y
20160104,FANH01,K02,_,04,N,01,000,A143860,6.09,20151230,,Y
20160104,FANH01,K02,_,04,N,01,000,A153130,20.0,20151230,,Y
20160104,FANH01,K02,_,05,N,01,000,A138230,20.0,20151230,,Y
20160104,FANH01,K02,_,05,N,01,000,A139280,53.9,20151230,,Y
20160104,FANH01,K02,_,05,N,01,000,A143860,6.09,20151230,,Y
20160104,FANH01,K02,_,05,N,01,000,A153130,20.0,20151230,,Y
20160204,FANH01,K02,_,01,N,01,000,A131890,18.91,20160203,,Y
20160204,FANH01,K02,_,01,N,01,000,A132030,7.3,20160203,,Y
20160204,FANH01,K02,_,01,N,01,000,A136340,16.68,20160203,,Y
20160204,FANH01,K02,_,01,N,01,000,A138230,12.69,20160203,,Y
20160204,FANH01,K02,_,01,N,01,000,A139250,11.55,20160203,,Y
20160204,FANH01,K02,_,01,N,01,000,A147970,29.52,20160203,,Y
20160204,FANH01,K02,_,01,N,01,000,A148070,3.31,20160203,,Y
20160204,FANH01,K02,_,02,N,01,000,A131890,18.91,20160203,,Y
20160204,FANH01,K02,_,02,N,01,000,A132030,7.3,20160203,,Y
20160204,FANH01,K02,_,02,N,01,000,A136340,16.68,20160203,,Y
20160204,FANH01,K02,_,02,N,01,000,A138230,12.69,20160203,,Y
20160204,FANH01,K02,_,02,N,01,000,A139250,11.55,20160203,,Y
20160204,FANH01,K02,_,02,N,01,000,A147970,29.52,20160203,,Y
20160204,FANH01,K02,_,02,N,01,000,A148070,3.31,20160203,,Y
20160204,FANH01,K02,_,03,N,01,000,A131890,18.91,20160203,,Y
20160204,FANH01,K02,_,03,N,01,000,A132030,7.3,20160203,,Y
20160204,FANH01,K02,_,03,N,01,000,A136340,16.68,20160203,,Y
20160204,FANH01,K02,_,03,N,01,000,A138230,12.69,20160203,,Y
20160204,FANH01,K02,_,03,N,01,000,A139250,11.55,20160203,,Y
20160204,FANH01,K02,_,03,N,01,000,A147970,29.52,20160203,,Y
20160204,FANH01,K02,_,03,N,01,000,A148070,3.31,20160203,,Y
20160204,FANH01,K02,_,04,N,01,000,A131890,18.91,20160203,,Y
20160204,FANH01,K02,_,04,N,01,000,A132030,7.3,20160203,,Y
20160204,FANH01,K02,_,04,N,01,000,A136340,16.68,20160203,,Y
20160204,FANH01,K02,_,04,N,01,000,A138230,12.69,20160203,,Y
20160204,FANH01,K02,_,04,N,01,000,A139250,11.55,20160203,,Y
20160204,FANH01,K02,_,04,N,01,000,A147970,29.52,20160203,,Y
20160204,FANH01,K02,_,04,N,01,000,A148070,3.31,20160203,,Y
20160204,FANH01,K02,_,05,N,01,000,A131890,18.91,20160203,,Y
20160204,FANH01,K02,_,05,N,01,000,A132030,7.3,20160203,,Y
20160204,FANH01,K02,_,05,N,01,000,A136340,16.68,20160203,,Y
20160204,FANH01,K02,_,05,N,01,000,A138230,12.69,20160203,,Y
20160204,FANH01,K02,_,05,N,01,000,A139250,11.55,20160203,,Y
20160204,FANH01,K02,_,05,N,01,000,A147970,29.52,20160203,,Y
20160204,FANH01,K02,_,05,N,01,000,A148070,3.31,20160203,,Y
20160304,FANH01,K02,_,01,N,01,000,A132030,5.29,20160303,,Y
20160304,FANH01,K02,_,01,N,01,000,A136340,16.33,20160303,,Y
20160304,FANH01,K02,_,01,N,01,000,A138230,14.7,20160303,,Y
20160304,FANH01,K02,_,01,N,01,000,A139280,28.76,20160303,,Y
20160304,FANH01,K02,_,01,N,01,000,A143860,8.49,20160303,,Y
20160304,FANH01,K02,_,01,N,01,000,A147970,22.73,20160303,,Y
20160304,FANH01,K02,_,01,N,01,000,A148070,3.66,20160303,,Y
20160304,FANH01,K02,_,02,N,01,000,A132030,5.29,20160303,,Y
20160304,FANH01,K02,_,02,N,01,000,A136340,16.33,20160303,,Y
20160304,FANH01,K02,_,02,N,01,000,A138230,14.7,20160303,,Y
20160304,FANH01,K02,_,02,N,01,000,A139280,28.76,20160303,,Y
20160304,FANH01,K02,_,02,N,01,000,A143860,8.49,20160303,,Y
20160304,FANH01,K02,_,02,N,01,000,A147970,22.73,20160303,,Y
20160304,FANH01,K02,_,02,N,01,000,A148070,3.66,20160303,,Y
20160304,FANH01,K02,_,03,N,01,000,A132030,5.29,20160303,,Y
20160304,FANH01,K02,_,03,N,01,000,A136340,16.33,20160303,,Y
20160304,FANH01,K02,_,03,N,01,000,A138230,14.7,20160303,,Y
20160304,FANH01,K02,_,03,N,01,000,A139280,28.76,20160303,,Y
20160304,FANH01,K02,_,03,N,01,000,A143860,8.49,20160303,,Y
20160304,FANH01,K02,_,03,N,01,000,A147970,22.73,20160303,,Y
20160304,FANH01,K02,_,03,N,01,000,A148070,3.66,20160303,,Y
20160304,FANH01,K02,_,04,N,01,000,A132030,5.29,20160303,,Y
20160304,FANH01,K02,_,04,N,01,000,A136340,16.33,20160303,,Y
20160304,FANH01,K02,_,04,N,01,000,A138230,14.7,20160303,,Y
20160304,FANH01,K02,_,04,N,01,000,A139280,28.76,20160303,,Y
20160304,FANH01,K02,_,04,N,01,000,A143860,8.49,20160303,,Y
20160304,FANH01,K02,_,04,N,01,000,A147970,22.73,20160303,,Y
20160304,FANH01,K02,_,04,N,01,000,A148070,3.66,20160303,,Y
20160304,FANH01,K02,_,05,N,01,000,A132030,5.29,20160303,,Y
20160304,FANH01,K02,_,05,N,01,000,A136340,16.33,20160303,,Y
20160304,FANH01,K02,_,05,N,01,000,A138230,14.7,20160303,,Y
20160304,FANH01,K02,_,05,N,01,000,A139280,28.76,20160303,,Y
20160304,FANH01,K02,_,05,N,01,000,A143860,8.49,20160303,,Y
20160304,FANH01,K02,_,05,N,01,000,A147970,22.73,20160303,,Y
20160304,FANH01,K02,_,05,N,01,000,A148070,3.66,20160303,,Y
20160404,FANH01,K02,_,01,N,01,000,A104530,18.42,20160401,,Y
20160404,FANH01,K02,_,01,N,01,000,A105780,16.49,20160401,,Y
20160404,FANH01,K02,_,01,N,01,000,A117680,6.48,20160401,,Y
20160404,FANH01,K02,_,01,N,01,000,A122090,8.63,20160401,,Y
20160404,FANH01,K02,_,01,N,01,000,A132030,4.83,20160401,,Y
20160404,FANH01,K02,_,01,N,01,000,A136340,15.72,20160401,,Y
20160404,FANH01,K02,_,01,N,01,000,A138230,15.16,20160401,,Y
20160404,FANH01,K02,_,01,N,01,000,A145850,9.95,20160401,,Y
20160404,FANH01,K02,_,01,N,01,000,A148070,4.27,20160401,,Y
20160404,FANH01,K02,_,02,N,01,000,A104530,18.42,20160401,,Y
20160404,FANH01,K02,_,02,N,01,000,A105780,16.49,20160401,,Y
20160404,FANH01,K02,_,02,N,01,000,A117680,6.48,20160401,,Y
20160404,FANH01,K02,_,02,N,01,000,A122090,8.63,20160401,,Y
20160404,FANH01,K02,_,02,N,01,000,A132030,4.83,20160401,,Y
20160404,FANH01,K02,_,02,N,01,000,A136340,15.72,20160401,,Y
20160404,FANH01,K02,_,02,N,01,000,A138230,15.16,20160401,,Y
20160404,FANH01,K02,_,02,N,01,000,A145850,9.95,20160401,,Y
20160404,FANH01,K02,_,02,N,01,000,A148070,4.27,20160401,,Y
20160404,FANH01,K02,_,03,N,01,000,A104530,18.42,20160401,,Y
20160404,FANH01,K02,_,03,N,01,000,A105780,16.49,20160401,,Y
20160404,FANH01,K02,_,03,N,01,000,A117680,6.48,20160401,,Y
20160404,FANH01,K02,_,03,N,01,000,A122090,8.63,20160401,,Y
20160404,FANH01,K02,_,03,N,01,000,A132030,4.83,20160401,,Y
20160404,FANH01,K02,_,03,N,01,000,A136340,15.72,20160401,,Y
20160404,FANH01,K02,_,03,N,01,000,A138230,15.16,20160401,,Y
20160404,FANH01,K02,_,03,N,01,000,A145850,9.95,20160401,,Y
20160404,FANH01,K02,_,03,N,01,000,A148070,4.27,20160401,,Y
20160404,FANH01,K02,_,04,N,01,000,A104530,18.42,20160401,,Y
20160404,FANH01,K02,_,04,N,01,000,A105780,16.49,20160401,,Y
20160404,FANH01,K02,_,04,N,01,000,A117680,6.48,20160401,,Y
20160404,FANH01,K02,_,04,N,01,000,A122090,8.63,20160401,,Y
20160404,FANH01,K02,_,04,N,01,000,A132030,4.83,20160401,,Y
20160404,FANH01,K02,_,04,N,01,000,A136340,15.72,20160401,,Y
20160404,FANH01,K02,_,04,N,01,000,A138230,15.16,20160401,,Y
20160404,FANH01,K02,_,04,N,01,000,A145850,9.95,20160401,,Y
20160404,FANH01,K02,_,04,N,01,000,A148070,4.27,20160401,,Y
20160404,FANH01,K02,_,05,N,01,000,A104530,18.42,20160401,,Y
20160404,FANH01,K02,_,05,N,01,000,A105780,16.49,20160401,,Y
20160404,FANH01,K02,_,05,N,01,000,A117680,6.48,20160401,,Y
20160404,FANH01,K02,_,05,N,01,000,A122090,8.63,20160401,,Y
20160404,FANH01,K02,_,05,N,01,000,A132030,4.83,20160401,,Y
20160404,FANH01,K02,_,05,N,01,000,A136340,15.72,20160401,,Y
20160404,FANH01,K02,_,05,N,01,000,A138230,15.16,20160401,,Y
20160404,FANH01,K02,_,05,N,01,000,A145850,9.95,20160401,,Y
20160404,FANH01,K02,_,05,N,01,000,A148070,4.27,20160401,,Y
20160504,FANH01,K02,_,01,N,01,000,A104530,17.47,20160503,,Y
20160504,FANH01,K02,_,01,N,01,000,A122090,6.95,20160503,,Y
20160504,FANH01,K02,_,01,N,01,000,A136340,14.69,20160503,,Y
20160504,FANH01,K02,_,01,N,01,000,A137610,14.33,20160503,,Y
20160504,FANH01,K02,_,01,N,01,000,A139250,3.01,20160503,,Y
20160504,FANH01,K02,_,01,N,01,000,A139280,24.38,20160503,,Y
20160504,FANH01,K02,_,01,N,01,000,A144600,5.66,20160503,,Y
20160504,FANH01,K02,_,01,N,01,000,A145850,8.16,20160503,,Y
20160504,FANH01,K02,_,01,N,01,000,A148070,5.3,20160503,,Y
20160504,FANH01,K02,_,02,N,01,000,A104530,17.47,20160503,,Y
20160504,FANH01,K02,_,02,N,01,000,A122090,6.95,20160503,,Y
20160504,FANH01,K02,_,02,N,01,000,A136340,14.69,20160503,,Y
20160504,FANH01,K02,_,02,N,01,000,A137610,14.33,20160503,,Y
20160504,FANH01,K02,_,02,N,01,000,A139250,3.01,20160503,,Y
20160504,FANH01,K02,_,02,N,01,000,A139280,24.38,20160503,,Y
20160504,FANH01,K02,_,02,N,01,000,A144600,5.66,20160503,,Y
20160504,FANH01,K02,_,02,N,01,000,A145850,8.16,20160503,,Y
20160504,FANH01,K02,_,02,N,01,000,A148070,5.3,20160503,,Y
20160504,FANH01,K02,_,03,N,01,000,A104530,17.47,20160503,,Y
20160504,FANH01,K02,_,03,N,01,000,A122090,6.95,20160503,,Y
20160504,FANH01,K02,_,03,N,01,000,A136340,14.69,20160503,,Y
20160504,FANH01,K02,_,03,N,01,000,A137610,14.33,20160503,,Y
20160504,FANH01,K02,_,03,N,01,000,A139250,3.01,20160503,,Y
20160504,FANH01,K02,_,03,N,01,000,A139280,24.38,20160503,,Y
20160504,FANH01,K02,_,03,N,01,000,A144600,5.66,20160503,,Y
20160504,FANH01,K02,_,03,N,01,000,A145850,8.16,20160503,,Y
20160504,FANH01,K02,_,03,N,01,000,A148070,5.3,20160503,,Y
20160504,FANH01,K02,_,04,N,01,000,A104530,17.47,20160503,,Y
20160504,FANH01,K02,_,04,N,01,000,A122090,6.95,20160503,,Y
20160504,FANH01,K02,_,04,N,01,000,A136340,14.69,20160503,,Y
20160504,FANH01,K02,_,04,N,01,000,A137610,14.33,20160503,,Y
20160504,FANH01,K02,_,04,N,01,000,A139250,3.01,20160503,,Y
20160504,FANH01,K02,_,04,N,01,000,A139280,24.38,20160503,,Y
20160504,FANH01,K02,_,04,N,01,000,A144600,5.66,20160503,,Y
20160504,FANH01,K02,_,04,N,01,000,A145850,8.16,20160503,,Y
20160504,FANH01,K02,_,04,N,01,000,A148070,5.3,20160503,,Y
20160504,FANH01,K02,_,05,N,01,000,A104530,17.47,20160503,,Y
20160504,FANH01,K02,_,05,N,01,000,A122090,6.95,20160503,,Y
20160504,FANH01,K02,_,05,N,01,000,A136340,14.69,20160503,,Y
20160504,FANH01,K02,_,05,N,01,000,A137610,14.33,20160503,,Y
20160504,FANH01,K02,_,05,N,01,000,A139250,3.01,20160503,,Y
20160504,FANH01,K02,_,05,N,01,000,A139280,24.38,20160503,,Y
20160504,FANH01,K02,_,05,N,01,000,A144600,5.66,20160503,,Y
20160504,FANH01,K02,_,05,N,01,000,A145850,8.16,20160503,,Y
20160504,FANH01,K02,_,05,N,01,000,A148070,5.3,20160503,,Y
20160607,FANH01,K02,_,01,N,01,000,A117680,4.95,20160603,,Y
20160607,FANH01,K02,_,01,N,01,000,A136340,14.98,20160603,,Y
20160607,FANH01,K02,_,01,N,01,000,A137610,13.08,20160603,,Y
20160607,FANH01,K02,_,01,N,01,000,A139280,40.39,20160603,,Y
20160607,FANH01,K02,_,01,N,01,000,A144600,6.91,20160603,,Y
20160607,FANH01,K02,_,01,N,01,000,A148070,5.01,20160603,,Y
20160607,FANH01,K02,_,01,N,01,000,A161510,14.65,20160603,,Y
20160607,FANH01,K02,_,02,N,01,000,A117680,4.95,20160603,,Y
20160607,FANH01,K02,_,02,N,01,000,A136340,14.98,20160603,,Y
20160607,FANH01,K02,_,02,N,01,000,A137610,13.08,20160603,,Y
20160607,FANH01,K02,_,02,N,01,000,A139280,40.39,20160603,,Y
20160607,FANH01,K02,_,02,N,01,000,A144600,6.91,20160603,,Y
20160607,FANH01,K02,_,02,N,01,000,A148070,5.01,20160603,,Y
20160607,FANH01,K02,_,02,N,01,000,A161510,14.65,20160603,,Y
20160607,FANH01,K02,_,03,N,01,000,A117680,4.95,20160603,,Y
20160607,FANH01,K02,_,03,N,01,000,A136340,14.98,20160603,,Y
20160607,FANH01,K02,_,03,N,01,000,A137610,13.08,20160603,,Y
20160607,FANH01,K02,_,03,N,01,000,A139280,40.39,20160603,,Y
20160607,FANH01,K02,_,03,N,01,000,A144600,6.91,20160603,,Y
20160607,FANH01,K02,_,03,N,01,000,A148070,5.01,20160603,,Y
20160607,FANH01,K02,_,03,N,01,000,A161510,14.65,20160603,,Y
20160607,FANH01,K02,_,04,N,01,000,A117680,4.95,20160603,,Y
20160607,FANH01,K02,_,04,N,01,000,A136340,14.98,20160603,,Y
20160607,FANH01,K02,_,04,N,01,000,A137610,13.08,20160603,,Y
20160607,FANH01,K02,_,04,N,01,000,A139280,40.39,20160603,,Y
20160607,FANH01,K02,_,04,N,01,000,A144600,6.91,20160603,,Y
20160607,FANH01,K02,_,04,N,01,000,A148070,5.01,20160603,,Y
20160607,FANH01,K02,_,04,N,01,000,A161510,14.65,20160603,,Y
20160607,FANH01,K02,_,05,N,01,000,A117680,4.95,20160603,,Y
20160607,FANH01,K02,_,05,N,01,000,A136340,14.98,20160603,,Y
20160607,FANH01,K02,_,05,N,01,000,A137610,13.08,20160603,,Y
20160607,FANH01,K02,_,05,N,01,000,A139280,40.39,20160603,,Y
20160607,FANH01,K02,_,05,N,01,000,A144600,6.91,20160603,,Y
20160607,FANH01,K02,_,05,N,01,000,A148070,5.01,20160603,,Y
20160607,FANH01,K02,_,05,N,01,000,A161510,14.65,20160603,,Y
20160704,FANH01,K02,_,01,N,01,000,A122090,32.34,20160701,,Y
20160704,FANH01,K02,_,01,N,01,000,A136340,17.07,20160701,,Y
20160704,FANH01,K02,_,01,N,01,000,A137610,20.0,20160701,,Y
20160704,FANH01,K02,_,01,N,01,000,A139280,20.99,20160701,,Y
20160704,FANH01,K02,_,01,N,01,000,A143860,6.65,20160701,,Y
20160704,FANH01,K02,_,01,N,01,000,A148070,2.92,20160701,,Y
20160704,FANH01,K02,_,02,N,01,000,A122090,32.34,20160701,,Y
20160704,FANH01,K02,_,02,N,01,000,A136340,17.07,20160701,,Y
20160704,FANH01,K02,_,02,N,01,000,A137610,20.0,20160701,,Y
20160704,FANH01,K02,_,02,N,01,000,A139280,20.99,20160701,,Y
20160704,FANH01,K02,_,02,N,01,000,A143860,6.65,20160701,,Y
20160704,FANH01,K02,_,02,N,01,000,A148070,2.92,20160701,,Y
20160704,FANH01,K02,_,03,N,01,000,A122090,32.34,20160701,,Y
20160704,FANH01,K02,_,03,N,01,000,A136340,17.07,20160701,,Y
20160704,FANH01,K02,_,03,N,01,000,A137610,20.0,20160701,,Y
20160704,FANH01,K02,_,03,N,01,000,A139280,20.99,20160701,,Y
20160704,FANH01,K02,_,03,N,01,000,A143860,6.65,20160701,,Y
20160704,FANH01,K02,_,03,N,01,000,A148070,2.92,20160701,,Y
20160704,FANH01,K02,_,04,N,01,000,A122090,32.34,20160701,,Y
20160704,FANH01,K02,_,04,N,01,000,A136340,17.07,20160701,,Y
20160704,FANH01,K02,_,04,N,01,000,A137610,20.0,20160701,,Y
20160704,FANH01,K02,_,04,N,01,000,A139280,20.99,20160701,,Y
20160704,FANH01,K02,_,04,N,01,000,A143860,6.65,20160701,,Y
20160704,FANH01,K02,_,04,N,01,000,A148070,2.92,20160701,,Y
20160704,FANH01,K02,_,05,N,01,000,A122090,32.34,20160701,,Y
20160704,FANH01,K02,_,05,N,01,000,A136340,17.07,20160701,,Y
20160704,FANH01,K02,_,05,N,01,000,A137610,20.0,20160701,,Y
20160704,FANH01,K02,_,05,N,01,000,A139280,20.99,20160701,,Y
20160704,FANH01,K02,_,05,N,01,000,A143860,6.65,20160701,,Y
20160704,FANH01,K02,_,05,N,01,000,A148070,2.92,20160701,,Y
20160804,FANH01,K02,_,01,N,01,000,A091160,60.0,20160803,,Y
20160804,FANH01,K02,_,01,N,01,000,A132030,20.0,20160803,,Y
20160804,FANH01,K02,_,01,N,01,000,A136340,18.37,20160803,,Y
20160804,FANH01,K02,_,01,N,01,000,A148070,1.62,20160803,,Y
20160804,FANH01,K02,_,02,N,01,000,A091160,60.0,20160803,,Y
20160804,FANH01,K02,_,02,N,01,000,A132030,20.0,20160803,,Y
20160804,FANH01,K02,_,02,N,01,000,A136340,18.37,20160803,,Y
20160804,FANH01,K02,_,02,N,01,000,A148070,1.62,20160803,,Y
20160804,FANH01,K02,_,03,N,01,000,A091160,60.0,20160803,,Y
20160804,FANH01,K02,_,03,N,01,000,A132030,20.0,20160803,,Y
20160804,FANH01,K02,_,03,N,01,000,A136340,18.37,20160803,,Y
20160804,FANH01,K02,_,03,N,01,000,A148070,1.62,20160803,,Y
20160804,FANH01,K02,_,04,N,01,000,A091160,60.0,20160803,,Y
20160804,FANH01,K02,_,04,N,01,000,A132030,20.0,20160803,,Y
20160804,FANH01,K02,_,04,N,01,000,A136340,18.37,20160803,,Y
20160804,FANH01,K02,_,04,N,01,000,A148070,1.62,20160803,,Y
20160804,FANH01,K02,_,05,N,01,000,A091160,60.0,20160803,,Y
20160804,FANH01,K02,_,05,N,01,000,A132030,20.0,20160803,,Y
20160804,FANH01,K02,_,05,N,01,000,A136340,18.37,20160803,,Y
20160804,FANH01,K02,_,05,N,01,000,A148070,1.62,20160803,,Y
20160905,FANH01,K02,_,01,N,01,000,A091160,19.52,20160902,,Y
20160905,FANH01,K02,_,01,N,01,000,A122090,6.76,20160902,,Y
20160905,FANH01,K02,_,01,N,01,000,A131890,16.89,20160902,,Y
20160905,FANH01,K02,_,01,N,01,000,A136340,18.45,20160902,,Y
20160905,FANH01,K02,_,01,N,01,000,A144600,20.0,20160902,,Y
20160905,FANH01,K02,_,01,N,01,000,A145850,6.3,20160902,,Y
20160905,FANH01,K02,_,01,N,01,000,A148070,1.54,20160902,,Y
20160905,FANH01,K02,_,01,N,01,000,A161510,10.51,20160902,,Y
20160905,FANH01,K02,_,02,N,01,000,A091160,19.52,20160902,,Y
20160905,FANH01,K02,_,02,N,01,000,A122090,6.76,20160902,,Y
20160905,FANH01,K02,_,02,N,01,000,A131890,16.89,20160902,,Y
20160905,FANH01,K02,_,02,N,01,000,A136340,18.45,20160902,,Y
20160905,FANH01,K02,_,02,N,01,000,A144600,20.0,20160902,,Y
20160905,FANH01,K02,_,02,N,01,000,A145850,6.3,20160902,,Y
20160905,FANH01,K02,_,02,N,01,000,A148070,1.54,20160902,,Y
20160905,FANH01,K02,_,02,N,01,000,A161510,10.51,20160902,,Y
20160905,FANH01,K02,_,03,N,01,000,A091160,19.52,20160902,,Y
20160905,FANH01,K02,_,03,N,01,000,A122090,6.76,20160902,,Y
20160905,FANH01,K02,_,03,N,01,000,A131890,16.89,20160902,,Y
20160905,FANH01,K02,_,03,N,01,000,A136340,18.45,20160902,,Y
20160905,FANH01,K02,_,03,N,01,000,A144600,20.0,20160902,,Y
20160905,FANH01,K02,_,03,N,01,000,A145850,6.3,20160902,,Y
20160905,FANH01,K02,_,03,N,01,000,A148070,1.54,20160902,,Y
20160905,FANH01,K02,_,03,N,01,000,A161510,10.51,20160902,,Y
20160905,FANH01,K02,_,04,N,01,000,A091160,19.52,20160902,,Y
20160905,FANH01,K02,_,04,N,01,000,A122090,6.76,20160902,,Y
20160905,FANH01,K02,_,04,N,01,000,A131890,16.89,20160902,,Y
20160905,FANH01,K02,_,04,N,01,000,A136340,18.45,20160902,,Y
20160905,FANH01,K02,_,04,N,01,000,A144600,20.0,20160902,,Y
20160905,FANH01,K02,_,04,N,01,000,A145850,6.3,20160902,,Y
20160905,FANH01,K02,_,04,N,01,000,A148070,1.54,20160902,,Y
20160905,FANH01,K02,_,04,N,01,000,A161510,10.51,20160902,,Y
20160905,FANH01,K02,_,05,N,01,000,A091160,19.52,20160902,,Y
20160905,FANH01,K02,_,05,N,01,000,A122090,6.76,20160902,,Y
20160905,FANH01,K02,_,05,N,01,000,A131890,16.89,20160902,,Y
20160905,FANH01,K02,_,05,N,01,000,A136340,18.45,20160902,,Y
20160905,FANH01,K02,_,05,N,01,000,A144600,20.0,20160902,,Y
20160905,FANH01,K02,_,05,N,01,000,A145850,6.3,20160902,,Y
20160905,FANH01,K02,_,05,N,01,000,A148070,1.54,20160902,,Y
20160905,FANH01,K02,_,05,N,01,000,A161510,10.51,20160902,,Y
20161004,FANH01,K02,_,01,N,01,000,A108450,5.53,20160930,,Y
20161004,FANH01,K02,_,01,N,01,000,A122090,7.46,20160930,,Y
20161004,FANH01,K02,_,01,N,01,000,A130680,4.52,20160930,,Y
20161004,FANH01,K02,_,01,N,01,000,A132030,15.47,20160930,,Y
20161004,FANH01,K02,_,01,N,01,000,A136340,18.51,20160930,,Y
20161004,FANH01,K02,_,01,N,01,000,A139260,4.37,20160930,,Y
20161004,FANH01,K02,_,01,N,01,000,A145850,8.93,20160930,,Y
20161004,FANH01,K02,_,01,N,01,000,A148070,1.48,20160930,,Y
20161004,FANH01,K02,_,01,N,01,000,A161510,33.68,20160930,,Y
20161004,FANH01,K02,_,02,N,01,000,A108450,5.53,20160930,,Y
20161004,FANH01,K02,_,02,N,01,000,A122090,7.46,20160930,,Y
20161004,FANH01,K02,_,02,N,01,000,A130680,4.52,20160930,,Y
20161004,FANH01,K02,_,02,N,01,000,A132030,15.47,20160930,,Y
20161004,FANH01,K02,_,02,N,01,000,A136340,18.51,20160930,,Y
20161004,FANH01,K02,_,02,N,01,000,A139260,4.37,20160930,,Y
20161004,FANH01,K02,_,02,N,01,000,A145850,8.93,20160930,,Y
20161004,FANH01,K02,_,02,N,01,000,A148070,1.48,20160930,,Y
20161004,FANH01,K02,_,02,N,01,000,A161510,33.68,20160930,,Y
20161004,FANH01,K02,_,03,N,01,000,A108450,5.53,20160930,,Y
20161004,FANH01,K02,_,03,N,01,000,A122090,7.46,20160930,,Y
20161004,FANH01,K02,_,03,N,01,000,A130680,4.52,20160930,,Y
20161004,FANH01,K02,_,03,N,01,000,A132030,15.47,20160930,,Y
20161004,FANH01,K02,_,03,N,01,000,A136340,18.51,20160930,,Y
20161004,FANH01,K02,_,03,N,01,000,A139260,4.37,20160930,,Y
20161004,FANH01,K02,_,03,N,01,000,A145850,8.93,20160930,,Y
20161004,FANH01,K02,_,03,N,01,000,A148070,1.48,20160930,,Y
20161004,FANH01,K02,_,03,N,01,000,A161510,33.68,20160930,,Y
20161004,FANH01,K02,_,04,N,01,000,A108450,5.53,20160930,,Y
20161004,FANH01,K02,_,04,N,01,000,A122090,7.46,20160930,,Y
20161004,FANH01,K02,_,04,N,01,000,A130680,4.52,20160930,,Y
20161004,FANH01,K02,_,04,N,01,000,A132030,15.47,20160930,,Y
20161004,FANH01,K02,_,04,N,01,000,A136340,18.51,20160930,,Y
20161004,FANH01,K02,_,04,N,01,000,A139260,4.37,20160930,,Y
20161004,FANH01,K02,_,04,N,01,000,A145850,8.93,20160930,,Y
20161004,FANH01,K02,_,04,N,01,000,A148070,1.48,20160930,,Y
20161004,FANH01,K02,_,04,N,01,000,A161510,33.68,20160930,,Y
20161004,FANH01,K02,_,05,N,01,000,A108450,5.53,20160930,,Y
20161004,FANH01,K02,_,05,N,01,000,A122090,7.46,20160930,,Y
20161004,FANH01,K02,_,05,N,01,000,A130680,4.52,20160930,,Y
20161004,FANH01,K02,_,05,N,01,000,A132030,15.47,20160930,,Y
20161004,FANH01,K02,_,05,N,01,000,A136340,18.51,20160930,,Y
20161004,FANH01,K02,_,05,N,01,000,A139260,4.37,20160930,,Y
20161004,FANH01,K02,_,05,N,01,000,A145850,8.93,20160930,,Y
20161004,FANH01,K02,_,05,N,01,000,A148070,1.48,20160930,,Y
20161004,FANH01,K02,_,05,N,01,000,A161510,33.68,20160930,,Y
20161104,FANH01,K02,_,01,N,01,000,A091160,7.46,20161103,,Y
20161104,FANH01,K02,_,01,N,01,000,A122090,16.2,20161103,,Y
20161104,FANH01,K02,_,01,N,01,000,A130680,5.44,20161103,,Y
20161104,FANH01,K02,_,01,N,01,000,A147970,12.46,20161103,,Y
20161104,FANH01,K02,_,01,N,01,000,A150460,10.37,20161103,,Y
20161104,FANH01,K02,_,01,N,01,000,A153130,20.0,20161103,,Y
20161104,FANH01,K02,_,01,N,01,000,A160580,14.55,20161103,,Y
20161104,FANH01,K02,_,01,N,01,000,A161510,13.49,20161103,,Y
20161104,FANH01,K02,_,02,N,01,000,A091160,7.46,20161103,,Y
20161104,FANH01,K02,_,02,N,01,000,A122090,16.2,20161103,,Y
20161104,FANH01,K02,_,02,N,01,000,A130680,5.44,20161103,,Y
20161104,FANH01,K02,_,02,N,01,000,A147970,12.46,20161103,,Y
20161104,FANH01,K02,_,02,N,01,000,A150460,10.37,20161103,,Y
20161104,FANH01,K02,_,02,N,01,000,A153130,20.0,20161103,,Y
20161104,FANH01,K02,_,02,N,01,000,A160580,14.55,20161103,,Y
20161104,FANH01,K02,_,02,N,01,000,A161510,13.49,20161103,,Y
20161104,FANH01,K02,_,03,N,01,000,A091160,7.46,20161103,,Y
20161104,FANH01,K02,_,03,N,01,000,A122090,16.2,20161103,,Y
20161104,FANH01,K02,_,03,N,01,000,A130680,5.44,20161103,,Y
20161104,FANH01,K02,_,03,N,01,000,A147970,12.46,20161103,,Y
20161104,FANH01,K02,_,03,N,01,000,A150460,10.37,20161103,,Y
20161104,FANH01,K02,_,03,N,01,000,A153130,20.0,20161103,,Y
20161104,FANH01,K02,_,03,N,01,000,A160580,14.55,20161103,,Y
20161104,FANH01,K02,_,03,N,01,000,A161510,13.49,20161103,,Y
20161104,FANH01,K02,_,04,N,01,000,A091160,7.46,20161103,,Y
20161104,FANH01,K02,_,04,N,01,000,A122090,16.2,20161103,,Y
20161104,FANH01,K02,_,04,N,01,000,A130680,5.44,20161103,,Y
20161104,FANH01,K02,_,04,N,01,000,A147970,12.46,20161103,,Y
20161104,FANH01,K02,_,04,N,01,000,A150460,10.37,20161103,,Y
20161104,FANH01,K02,_,04,N,01,000,A153130,20.0,20161103,,Y
20161104,FANH01,K02,_,04,N,01,000,A160580,14.55,20161103,,Y
20161104,FANH01,K02,_,04,N,01,000,A161510,13.49,20161103,,Y
20161104,FANH01,K02,_,05,N,01,000,A091160,7.46,20161103,,Y
20161104,FANH01,K02,_,05,N,01,000,A122090,16.2,20161103,,Y
20161104,FANH01,K02,_,05,N,01,000,A130680,5.44,20161103,,Y
20161104,FANH01,K02,_,05,N,01,000,A147970,12.46,20161103,,Y
20161104,FANH01,K02,_,05,N,01,000,A150460,10.37,20161103,,Y
20161104,FANH01,K02,_,05,N,01,000,A153130,20.0,20161103,,Y
20161104,FANH01,K02,_,05,N,01,000,A160580,14.55,20161103,,Y
20161104,FANH01,K02,_,05,N,01,000,A161510,13.49,20161103,,Y
20161205,FANH01,K02,_,01,N,01,000,A091170,8.51,20161202,,Y
20161205,FANH01,K02,_,01,N,01,000,A102780,9.99,20161202,,Y
20161205,FANH01,K02,_,01,N,01,000,A122090,7.89,20161202,,Y
20161205,FANH01,K02,_,01,N,01,000,A138230,18.63,20161202,,Y
20161205,FANH01,K02,_,01,N,01,000,A145850,10.95,20161202,,Y
20161205,FANH01,K02,_,01,N,01,000,A153130,20.0,20161202,,Y
20161205,FANH01,K02,_,01,N,01,000,A160580,1.36,20161202,,Y
20161205,FANH01,K02,_,01,N,01,000,A161510,22.63,20161202,,Y
20161205,FANH01,K02,_,02,N,01,000,A091170,8.51,20161202,,Y
20161205,FANH01,K02,_,02,N,01,000,A102780,9.99,20161202,,Y
20161205,FANH01,K02,_,02,N,01,000,A122090,7.89,20161202,,Y
20161205,FANH01,K02,_,02,N,01,000,A138230,18.63,20161202,,Y
20161205,FANH01,K02,_,02,N,01,000,A145850,10.95,20161202,,Y
20161205,FANH01,K02,_,02,N,01,000,A153130,20.0,20161202,,Y
20161205,FANH01,K02,_,02,N,01,000,A160580,1.36,20161202,,Y
20161205,FANH01,K02,_,02,N,01,000,A161510,22.63,20161202,,Y
20161205,FANH01,K02,_,03,N,01,000,A091170,8.51,20161202,,Y
20161205,FANH01,K02,_,03,N,01,000,A102780,9.99,20161202,,Y
20161205,FANH01,K02,_,03,N,01,000,A122090,7.89,20161202,,Y
20161205,FANH01,K02,_,03,N,01,000,A138230,18.63,20161202,,Y
20161205,FANH01,K02,_,03,N,01,000,A145850,10.95,20161202,,Y
20161205,FANH01,K02,_,03,N,01,000,A153130,20.0,20161202,,Y
20161205,FANH01,K02,_,03,N,01,000,A160580,1.36,20161202,,Y
20161205,FANH01,K02,_,03,N,01,000,A161510,22.63,20161202,,Y
20161205,FANH01,K02,_,04,N,01,000,A091170,8.51,20161202,,Y
20161205,FANH01,K02,_,04,N,01,000,A102780,9.99,20161202,,Y
20161205,FANH01,K02,_,04,N,01,000,A122090,7.89,20161202,,Y
20161205,FANH01,K02,_,04,N,01,000,A138230,18.63,20161202,,Y
20161205,FANH01,K02,_,04,N,01,000,A145850,10.95,20161202,,Y
20161205,FANH01,K02,_,04,N,01,000,A153130,20.0,20161202,,Y
20161205,FANH01,K02,_,04,N,01,000,A160580,1.36,20161202,,Y
20161205,FANH01,K02,_,04,N,01,000,A161510,22.63,20161202,,Y
20161205,FANH01,K02,_,05,N,01,000,A091170,8.51,20161202,,Y
20161205,FANH01,K02,_,05,N,01,000,A102780,9.99,20161202,,Y
20161205,FANH01,K02,_,05,N,01,000,A122090,7.89,20161202,,Y
20161205,FANH01,K02,_,05,N,01,000,A138230,18.63,20161202,,Y
20161205,FANH01,K02,_,05,N,01,000,A145850,10.95,20161202,,Y
20161205,FANH01,K02,_,05,N,01,000,A153130,20.0,20161202,,Y
20161205,FANH01,K02,_,05,N,01,000,A160580,1.36,20161202,,Y
20161205,FANH01,K02,_,05,N,01,000,A161510,22.63,20161202,,Y
20170104,FANH01,K02,_,01,N,01,000,A117680,14.51,20170103,,Y
20170104,FANH01,K02,_,01,N,01,000,A122090,18.25,20170103,,Y
20170104,FANH01,K02,_,01,N,01,000,A138230,19.02,20170103,,Y
20170104,FANH01,K02,_,01,N,01,000,A145850,27.22,20170103,,Y
20170104,FANH01,K02,_,01,N,01,000,A153130,20.0,20170103,,Y
20170104,FANH01,K02,_,02,N,01,000,A117680,14.51,20170103,,Y
20170104,FANH01,K02,_,02,N,01,000,A122090,18.25,20170103,,Y
20170104,FANH01,K02,_,02,N,01,000,A138230,19.02,20170103,,Y
20170104,FANH01,K02,_,02,N,01,000,A145850,27.22,20170103,,Y
20170104,FANH01,K02,_,02,N,01,000,A153130,20.0,20170103,,Y
20170104,FANH01,K02,_,03,N,01,000,A117680,14.51,20170103,,Y
20170104,FANH01,K02,_,03,N,01,000,A122090,18.25,20170103,,Y
20170104,FANH01,K02,_,03,N,01,000,A138230,19.02,20170103,,Y
20170104,FANH01,K02,_,03,N,01,000,A145850,27.22,20170103,,Y
20170104,FANH01,K02,_,03,N,01,000,A153130,20.0,20170103,,Y
20170104,FANH01,K02,_,04,N,01,000,A117680,14.51,20170103,,Y
20170104,FANH01,K02,_,04,N,01,000,A122090,18.25,20170103,,Y
20170104,FANH01,K02,_,04,N,01,000,A138230,19.02,20170103,,Y
20170104,FANH01,K02,_,04,N,01,000,A145850,27.22,20170103,,Y
20170104,FANH01,K02,_,04,N,01,000,A153130,20.0,20170103,,Y
20170104,FANH01,K02,_,05,N,01,000,A117680,14.51,20170103,,Y
20170104,FANH01,K02,_,05,N,01,000,A122090,18.25,20170103,,Y
20170104,FANH01,K02,_,05,N,01,000,A138230,19.02,20170103,,Y
20170104,FANH01,K02,_,05,N,01,000,A145850,27.22,20170103,,Y
20170104,FANH01,K02,_,05,N,01,000,A153130,20.0,20170103,,Y
20170206,FANH01,K02,_,01,N,01,000,A091160,11.29,20170203,,Y
20170206,FANH01,K02,_,01,N,01,000,A108450,7.43,20170203,,Y
20170206,FANH01,K02,_,01,N,01,000,A122090,4.22,20170203,,Y
20170206,FANH01,K02,_,01,N,01,000,A136340,37.92,20170203,,Y
20170206,FANH01,K02,_,01,N,01,000,A138230,10.0,20170203,,Y
20170206,FANH01,K02,_,01,N,01,000,A145850,6.11,20170203,,Y
20170206,FANH01,K02,_,01,N,01,000,A148070,2.07,20170203,,Y
20170206,FANH01,K02,_,01,N,01,000,A161510,20.92,20170203,,Y
20170206,FANH01,K02,_,02,N,01,000,A091160,11.29,20170203,,Y
20170206,FANH01,K02,_,02,N,01,000,A108450,7.43,20170203,,Y
20170206,FANH01,K02,_,02,N,01,000,A122090,4.22,20170203,,Y
20170206,FANH01,K02,_,02,N,01,000,A136340,37.92,20170203,,Y
20170206,FANH01,K02,_,02,N,01,000,A138230,10.0,20170203,,Y
20170206,FANH01,K02,_,02,N,01,000,A145850,6.11,20170203,,Y
20170206,FANH01,K02,_,02,N,01,000,A148070,2.07,20170203,,Y
20170206,FANH01,K02,_,02,N,01,000,A161510,20.92,20170203,,Y
20170206,FANH01,K02,_,03,N,01,000,A091160,11.29,20170203,,Y
20170206,FANH01,K02,_,03,N,01,000,A108450,7.43,20170203,,Y
20170206,FANH01,K02,_,03,N,01,000,A122090,4.22,20170203,,Y
20170206,FANH01,K02,_,03,N,01,000,A136340,37.92,20170203,,Y
20170206,FANH01,K02,_,03,N,01,000,A138230,10.0,20170203,,Y
20170206,FANH01,K02,_,03,N,01,000,A145850,6.11,20170203,,Y
20170206,FANH01,K02,_,03,N,01,000,A148070,2.07,20170203,,Y
20170206,FANH01,K02,_,03,N,01,000,A161510,20.92,20170203,,Y
20170206,FANH01,K02,_,04,N,01,000,A091160,11.29,20170203,,Y
20170206,FANH01,K02,_,04,N,01,000,A108450,7.43,20170203,,Y
20170206,FANH01,K02,_,04,N,01,000,A122090,4.22,20170203,,Y
20170206,FANH01,K02,_,04,N,01,000,A136340,37.92,20170203,,Y
20170206,FANH01,K02,_,04,N,01,000,A138230,10.0,20170203,,Y
20170206,FANH01,K02,_,04,N,01,000,A145850,6.11,20170203,,Y
20170206,FANH01,K02,_,04,N,01,000,A148070,2.07,20170203,,Y
20170206,FANH01,K02,_,04,N,01,000,A161510,20.92,20170203,,Y
20170206,FANH01,K02,_,05,N,01,000,A091160,11.29,20170203,,Y
20170206,FANH01,K02,_,05,N,01,000,A108450,7.43,20170203,,Y
20170206,FANH01,K02,_,05,N,01,000,A122090,4.22,20170203,,Y
20170206,FANH01,K02,_,05,N,01,000,A136340,37.92,20170203,,Y
20170206,FANH01,K02,_,05,N,01,000,A138230,10.0,20170203,,Y
20170206,FANH01,K02,_,05,N,01,000,A145850,6.11,20170203,,Y
20170206,FANH01,K02,_,05,N,01,000,A148070,2.07,20170203,,Y
20170206,FANH01,K02,_,05,N,01,000,A161510,20.92,20170203,,Y
20170306,FANH01,K02,_,01,N,01,000,A122090,6.33,20170303,,Y
20170306,FANH01,K02,_,01,N,01,000,A137610,6.86,20170303,,Y
20170306,FANH01,K02,_,01,N,01,000,A138520,16.01,20170303,,Y
20170306,FANH01,K02,_,01,N,01,000,A139260,3.45,20170303,,Y
20170306,FANH01,K02,_,01,N,01,000,A153130,39.37,20170303,,Y
20170306,FANH01,K02,_,01,N,01,000,A160580,3.13,20170303,,Y
20170306,FANH01,K02,_,01,N,01,000,A161510,23.72,20170303,,Y
20170306,FANH01,K02,_,02,N,01,000,A122090,6.33,20170303,,Y
20170306,FANH01,K02,_,02,N,01,000,A137610,6.86,20170303,,Y
20170306,FANH01,K02,_,02,N,01,000,A138520,16.01,20170303,,Y
20170306,FANH01,K02,_,02,N,01,000,A139260,3.45,20170303,,Y
20170306,FANH01,K02,_,02,N,01,000,A153130,39.37,20170303,,Y
20170306,FANH01,K02,_,02,N,01,000,A160580,3.13,20170303,,Y
20170306,FANH01,K02,_,02,N,01,000,A161510,23.72,20170303,,Y
20170306,FANH01,K02,_,03,N,01,000,A122090,6.33,20170303,,Y
20170306,FANH01,K02,_,03,N,01,000,A137610,6.86,20170303,,Y
20170306,FANH01,K02,_,03,N,01,000,A138520,16.01,20170303,,Y
20170306,FANH01,K02,_,03,N,01,000,A139260,3.45,20170303,,Y
20170306,FANH01,K02,_,03,N,01,000,A153130,39.37,20170303,,Y
20170306,FANH01,K02,_,03,N,01,000,A160580,3.13,20170303,,Y
20170306,FANH01,K02,_,03,N,01,000,A161510,23.72,20170303,,Y
20170306,FANH01,K02,_,04,N,01,000,A122090,6.33,20170303,,Y
20170306,FANH01,K02,_,04,N,01,000,A137610,6.86,20170303,,Y
20170306,FANH01,K02,_,04,N,01,000,A138520,16.01,20170303,,Y
20170306,FANH01,K02,_,04,N,01,000,A139260,3.45,20170303,,Y
20170306,FANH01,K02,_,04,N,01,000,A153130,39.37,20170303,,Y
20170306,FANH01,K02,_,04,N,01,000,A160580,3.13,20170303,,Y
20170306,FANH01,K02,_,04,N,01,000,A161510,23.72,20170303,,Y
20170306,FANH01,K02,_,05,N,01,000,A122090,6.33,20170303,,Y
20170306,FANH01,K02,_,05,N,01,000,A137610,6.86,20170303,,Y
20170306,FANH01,K02,_,05,N,01,000,A138520,16.01,20170303,,Y
20170306,FANH01,K02,_,05,N,01,000,A139260,3.45,20170303,,Y
20170306,FANH01,K02,_,05,N,01,000,A153130,39.37,20170303,,Y
20170306,FANH01,K02,_,05,N,01,000,A160580,3.13,20170303,,Y
20170306,FANH01,K02,_,05,N,01,000,A161510,23.72,20170303,,Y
20170404,FANH01,K02,_,01,N,01,000,A104530,18.33,20170403,,Y
20170404,FANH01,K02,_,01,N,01,000,A122090,11.87,20170403,,Y
20170404,FANH01,K02,_,01,N,01,000,A131890,13.84,20170403,,Y
20170404,FANH01,K02,_,01,N,01,000,A137610,14.12,20170403,,Y
20170404,FANH01,K02,_,01,N,01,000,A139260,5.49,20170403,,Y
20170404,FANH01,K02,_,01,N,01,000,A153130,29.42,20170403,,Y
20170404,FANH01,K02,_,01,N,01,000,A160580,5.87,20170403,,Y
20170404,FANH01,K02,_,02,N,01,000,A104530,18.33,20170403,,Y
20170404,FANH01,K02,_,02,N,01,000,A122090,11.87,20170403,,Y
20170404,FANH01,K02,_,02,N,01,000,A131890,13.84,20170403,,Y
20170404,FANH01,K02,_,02,N,01,000,A137610,14.12,20170403,,Y
20170404,FANH01,K02,_,02,N,01,000,A139260,5.49,20170403,,Y
20170404,FANH01,K02,_,02,N,01,000,A153130,29.42,20170403,,Y
20170404,FANH01,K02,_,02,N,01,000,A160580,5.87,20170403,,Y
20170404,FANH01,K02,_,03,N,01,000,A104530,18.33,20170403,,Y
20170404,FANH01,K02,_,03,N,01,000,A122090,11.87,20170403,,Y
20170404,FANH01,K02,_,03,N,01,000,A131890,13.84,20170403,,Y
20170404,FANH01,K02,_,03,N,01,000,A137610,14.12,20170403,,Y
20170404,FANH01,K02,_,03,N,01,000,A139260,5.49,20170403,,Y
20170404,FANH01,K02,_,03,N,01,000,A153130,29.42,20170403,,Y
20170404,FANH01,K02,_,03,N,01,000,A160580,5.87,20170403,,Y
20170404,FANH01,K02,_,04,N,01,000,A104530,18.33,20170403,,Y
20170404,FANH01,K02,_,04,N,01,000,A122090,11.87,20170403,,Y
20170404,FANH01,K02,_,04,N,01,000,A131890,13.84,20170403,,Y
20170404,FANH01,K02,_,04,N,01,000,A137610,14.12,20170403,,Y
20170404,FANH01,K02,_,04,N,01,000,A139260,5.49,20170403,,Y
20170404,FANH01,K02,_,04,N,01,000,A153130,29.42,20170403,,Y
20170404,FANH01,K02,_,04,N,01,000,A160580,5.87,20170403,,Y
20170404,FANH01,K02,_,05,N,01,000,A104530,18.33,20170403,,Y
20170404,FANH01,K02,_,05,N,01,000,A122090,11.87,20170403,,Y
20170404,FANH01,K02,_,05,N,01,000,A131890,13.84,20170403,,Y
20170404,FANH01,K02,_,05,N,01,000,A137610,14.12,20170403,,Y
20170404,FANH01,K02,_,05,N,01,000,A139260,5.49,20170403,,Y
20170404,FANH01,K02,_,05,N,01,000,A153130,29.42,20170403,,Y
20170404,FANH01,K02,_,05,N,01,000,A160580,5.87,20170403,,Y
20170504,FANH01,K02,_,01,N,01,000,A108450,10.62,20170502,,Y
20170504,FANH01,K02,_,01,N,01,000,A122090,8.42,20170502,,Y
20170504,FANH01,K02,_,01,N,01,000,A132030,10.0,20170502,,Y
20170504,FANH01,K02,_,01,N,01,000,A139260,3.88,20170502,,Y
20170504,FANH01,K02,_,01,N,01,000,A153130,44.34,20170502,,Y
20170504,FANH01,K02,_,01,N,01,000,A161510,21.49,20170502,,Y
20170504,FANH01,K02,_,02,N,01,000,A108450,10.62,20170502,,Y
20170504,FANH01,K02,_,02,N,01,000,A122090,8.42,20170502,,Y
20170504,FANH01,K02,_,02,N,01,000,A132030,10.0,20170502,,Y
20170504,FANH01,K02,_,02,N,01,000,A139260,3.88,20170502,,Y
20170504,FANH01,K02,_,02,N,01,000,A153130,44.34,20170502,,Y
20170504,FANH01,K02,_,02,N,01,000,A161510,21.49,20170502,,Y
20170504,FANH01,K02,_,03,N,01,000,A108450,10.62,20170502,,Y
20170504,FANH01,K02,_,03,N,01,000,A122090,8.42,20170502,,Y
20170504,FANH01,K02,_,03,N,01,000,A132030,10.0,20170502,,Y
20170504,FANH01,K02,_,03,N,01,000,A139260,3.88,20170502,,Y
20170504,FANH01,K02,_,03,N,01,000,A153130,44.34,20170502,,Y
20170504,FANH01,K02,_,03,N,01,000,A161510,21.49,20170502,,Y
20170504,FANH01,K02,_,04,N,01,000,A108450,10.62,20170502,,Y
20170504,FANH01,K02,_,04,N,01,000,A122090,8.42,20170502,,Y
20170504,FANH01,K02,_,04,N,01,000,A132030,10.0,20170502,,Y
20170504,FANH01,K02,_,04,N,01,000,A139260,3.88,20170502,,Y
20170504,FANH01,K02,_,04,N,01,000,A153130,44.34,20170502,,Y
20170504,FANH01,K02,_,04,N,01,000,A161510,21.49,20170502,,Y
20170504,FANH01,K02,_,05,N,01,000,A108450,10.62,20170502,,Y
20170504,FANH01,K02,_,05,N,01,000,A122090,8.42,20170502,,Y
20170504,FANH01,K02,_,05,N,01,000,A132030,10.0,20170502,,Y
20170504,FANH01,K02,_,05,N,01,000,A139260,3.88,20170502,,Y
20170504,FANH01,K02,_,05,N,01,000,A153130,44.34,20170502,,Y
20170504,FANH01,K02,_,05,N,01,000,A161510,21.49,20170502,,Y
20170605,FANH01,K02,_,01,N,01,000,A091160,9.29,20170602,,Y
20170605,FANH01,K02,_,01,N,01,000,A122090,6.55,20170602,,Y
20170605,FANH01,K02,_,01,N,01,000,A138230,20.0,20170602,,Y
20170605,FANH01,K02,_,01,N,01,000,A145850,8.12,20170602,,Y
20170605,FANH01,K02,_,01,N,01,000,A150460,10.65,20170602,,Y
20170605,FANH01,K02,_,01,N,01,000,A153130,29.52,20170602,,Y
20170605,FANH01,K02,_,01,N,01,000,A161510,15.36,20170602,,Y
20170605,FANH01,K02,_,02,N,01,000,A091160,9.29,20170602,,Y
20170605,FANH01,K02,_,02,N,01,000,A122090,6.55,20170602,,Y
20170605,FANH01,K02,_,02,N,01,000,A138230,20.0,20170602,,Y
20170605,FANH01,K02,_,02,N,01,000,A145850,8.12,20170602,,Y
20170605,FANH01,K02,_,02,N,01,000,A150460,10.65,20170602,,Y
20170605,FANH01,K02,_,02,N,01,000,A153130,29.52,20170602,,Y
20170605,FANH01,K02,_,02,N,01,000,A161510,15.36,20170602,,Y
20170605,FANH01,K02,_,03,N,01,000,A091160,9.29,20170602,,Y
20170605,FANH01,K02,_,03,N,01,000,A122090,6.55,20170602,,Y
20170605,FANH01,K02,_,03,N,01,000,A138230,20.0,20170602,,Y
20170605,FANH01,K02,_,03,N,01,000,A145850,8.12,20170602,,Y
20170605,FANH01,K02,_,03,N,01,000,A150460,10.65,20170602,,Y
20170605,FANH01,K02,_,03,N,01,000,A153130,29.52,20170602,,Y
20170605,FANH01,K02,_,03,N,01,000,A161510,15.36,20170602,,Y
20170605,FANH01,K02,_,04,N,01,000,A091160,9.29,20170602,,Y
20170605,FANH01,K02,_,04,N,01,000,A122090,6.55,20170602,,Y
20170605,FANH01,K02,_,04,N,01,000,A138230,20.0,20170602,,Y
20170605,FANH01,K02,_,04,N,01,000,A145850,8.12,20170602,,Y
20170605,FANH01,K02,_,04,N,01,000,A150460,10.65,20170602,,Y
20170605,FANH01,K02,_,04,N,01,000,A153130,29.52,20170602,,Y
20170605,FANH01,K02,_,04,N,01,000,A161510,15.36,20170602,,Y
20170605,FANH01,K02,_,05,N,01,000,A091160,9.29,20170602,,Y
20170605,FANH01,K02,_,05,N,01,000,A122090,6.55,20170602,,Y
20170605,FANH01,K02,_,05,N,01,000,A138230,20.0,20170602,,Y
20170605,FANH01,K02,_,05,N,01,000,A145850,8.12,20170602,,Y
20170605,FANH01,K02,_,05,N,01,000,A150460,10.65,20170602,,Y
20170605,FANH01,K02,_,05,N,01,000,A153130,29.52,20170602,,Y
20170605,FANH01,K02,_,05,N,01,000,A161510,15.36,20170602,,Y
20170704,FANH01,K02,_,01,N,01,000,A091180,5.69,20170703,,Y
20170704,FANH01,K02,_,01,N,01,000,A122090,4.89,20170703,,Y
20170704,FANH01,K02,_,01,N,01,000,A131890,18.39,20170703,,Y
20170704,FANH01,K02,_,01,N,01,000,A145850,6.05,20170703,,Y
20170704,FANH01,K02,_,01,N,01,000,A153130,44.21,20170703,,Y
20170704,FANH01,K02,_,01,N,01,000,A160580,10.0,20170703,,Y
20170704,FANH01,K02,_,01,N,01,000,A161510,9.97,20170703,,Y
20170704,FANH01,K02,_,02,N,01,000,A091180,5.69,20170703,,Y
20170704,FANH01,K02,_,02,N,01,000,A122090,4.89,20170703,,Y
20170704,FANH01,K02,_,02,N,01,000,A131890,18.39,20170703,,Y
20170704,FANH01,K02,_,02,N,01,000,A145850,6.05,20170703,,Y
20170704,FANH01,K02,_,02,N,01,000,A153130,44.21,20170703,,Y
20170704,FANH01,K02,_,02,N,01,000,A160580,10.0,20170703,,Y
20170704,FANH01,K02,_,02,N,01,000,A161510,9.97,20170703,,Y
20170704,FANH01,K02,_,03,N,01,000,A091180,5.69,20170703,,Y
20170704,FANH01,K02,_,03,N,01,000,A122090,4.89,20170703,,Y
20170704,FANH01,K02,_,03,N,01,000,A131890,18.39,20170703,,Y
20170704,FANH01,K02,_,03,N,01,000,A145850,6.05,20170703,,Y
20170704,FANH01,K02,_,03,N,01,000,A153130,44.21,20170703,,Y
20170704,FANH01,K02,_,03,N,01,000,A160580,10.0,20170703,,Y
20170704,FANH01,K02,_,03,N,01,000,A161510,9.97,20170703,,Y
20170704,FANH01,K02,_,04,N,01,000,A091180,5.69,20170703,,Y
20170704,FANH01,K02,_,04,N,01,000,A122090,4.89,20170703,,Y
20170704,FANH01,K02,_,04,N,01,000,A131890,18.39,20170703,,Y
20170704,FANH01,K02,_,04,N,01,000,A145850,6.05,20170703,,Y
20170704,FANH01,K02,_,04,N,01,000,A153130,44.21,20170703,,Y
20170704,FANH01,K02,_,04,N,01,000,A160580,10.0,20170703,,Y
20170704,FANH01,K02,_,04,N,01,000,A161510,9.97,20170703,,Y
20170704,FANH01,K02,_,05,N,01,000,A091180,5.69,20170703,,Y
20170704,FANH01,K02,_,05,N,01,000,A122090,4.89,20170703,,Y
20170704,FANH01,K02,_,05,N,01,000,A131890,18.39,20170703,,Y
20170704,FANH01,K02,_,05,N,01,000,A145850,6.05,20170703,,Y
20170704,FANH01,K02,_,05,N,01,000,A153130,44.21,20170703,,Y
20170704,FANH01,K02,_,05,N,01,000,A160580,10.0,20170703,,Y
20170704,FANH01,K02,_,05,N,01,000,A161510,9.97,20170703,,Y
20170804,FANH01,K02,_,01,N,01,000,A091160,3.15,20170803,,Y
20170804,FANH01,K02,_,01,N,01,000,A122090,5.66,20170803,,Y
20170804,FANH01,K02,_,01,N,01,000,A131890,7.37,20170803,,Y
20170804,FANH01,K02,_,01,N,01,000,A136340,37.85,20170803,,Y
20170804,FANH01,K02,_,01,N,01,000,A138230,8.05,20170803,,Y
20170804,FANH01,K02,_,01,N,01,000,A145850,7.44,20170803,,Y
20170804,FANH01,K02,_,01,N,01,000,A148070,2.14,20170803,,Y
20170804,FANH01,K02,_,01,N,01,000,A160580,1.94,20170803,,Y
20170804,FANH01,K02,_,01,N,01,000,A161510,26.35,20170803,,Y
20170804,FANH01,K02,_,02,N,01,000,A091160,3.15,20170803,,Y
20170804,FANH01,K02,_,02,N,01,000,A122090,5.66,20170803,,Y
20170804,FANH01,K02,_,02,N,01,000,A131890,7.37,20170803,,Y
20170804,FANH01,K02,_,02,N,01,000,A136340,37.85,20170803,,Y
20170804,FANH01,K02,_,02,N,01,000,A138230,8.05,20170803,,Y
20170804,FANH01,K02,_,02,N,01,000,A145850,7.44,20170803,,Y
20170804,FANH01,K02,_,02,N,01,000,A148070,2.14,20170803,,Y
20170804,FANH01,K02,_,02,N,01,000,A160580,1.94,20170803,,Y
20170804,FANH01,K02,_,02,N,01,000,A161510,26.35,20170803,,Y
20170804,FANH01,K02,_,03,N,01,000,A091160,3.15,20170803,,Y
20170804,FANH01,K02,_,03,N,01,000,A122090,5.66,20170803,,Y
20170804,FANH01,K02,_,03,N,01,000,A131890,7.37,20170803,,Y
20170804,FANH01,K02,_,03,N,01,000,A136340,37.85,20170803,,Y
20170804,FANH01,K02,_,03,N,01,000,A138230,8.05,20170803,,Y
20170804,FANH01,K02,_,03,N,01,000,A145850,7.44,20170803,,Y
20170804,FANH01,K02,_,03,N,01,000,A148070,2.14,20170803,,Y
20170804,FANH01,K02,_,03,N,01,000,A160580,1.94,20170803,,Y
20170804,FANH01,K02,_,03,N,01,000,A161510,26.35,20170803,,Y
20170804,FANH01,K02,_,04,N,01,000,A091160,3.15,20170803,,Y
20170804,FANH01,K02,_,04,N,01,000,A122090,5.66,20170803,,Y
20170804,FANH01,K02,_,04,N,01,000,A131890,7.37,20170803,,Y
20170804,FANH01,K02,_,04,N,01,000,A136340,37.85,20170803,,Y
20170804,FANH01,K02,_,04,N,01,000,A138230,8.05,20170803,,Y
20170804,FANH01,K02,_,04,N,01,000,A145850,7.44,20170803,,Y
20170804,FANH01,K02,_,04,N,01,000,A148070,2.14,20170803,,Y
20170804,FANH01,K02,_,04,N,01,000,A160580,1.94,20170803,,Y
20170804,FANH01,K02,_,04,N,01,000,A161510,26.35,20170803,,Y
20170804,FANH01,K02,_,05,N,01,000,A091160,3.15,20170803,,Y
20170804,FANH01,K02,_,05,N,01,000,A122090,5.66,20170803,,Y
20170804,FANH01,K02,_,05,N,01,000,A131890,7.37,20170803,,Y
20170804,FANH01,K02,_,05,N,01,000,A136340,37.85,20170803,,Y
20170804,FANH01,K02,_,05,N,01,000,A138230,8.05,20170803,,Y
20170804,FANH01,K02,_,05,N,01,000,A145850,7.44,20170803,,Y
20170804,FANH01,K02,_,05,N,01,000,A148070,2.14,20170803,,Y
20170804,FANH01,K02,_,05,N,01,000,A160580,1.94,20170803,,Y
20170804,FANH01,K02,_,05,N,01,000,A161510,26.35,20170803,,Y
20170904,FANH01,K02,_,01,N,01,000,A122090,5.5,20170901,,Y
20170904,FANH01,K02,_,01,N,01,000,A130680,3.25,20170901,,Y
20170904,FANH01,K02,_,01,N,01,000,A131890,7.42,20170901,,Y
20170904,FANH01,K02,_,01,N,01,000,A140700,10.53,20170901,,Y
20170904,FANH01,K02,_,01,N,01,000,A145850,7.93,20170901,,Y
20170904,FANH01,K02,_,01,N,01,000,A153130,39.15,20170901,,Y
20170904,FANH01,K02,_,01,N,01,000,A160580,6.74,20170901,,Y
20170904,FANH01,K02,_,01,N,01,000,A161510,18.6,20170901,,Y
20170904,FANH01,K02,_,02,N,01,000,A122090,5.5,20170901,,Y
20170904,FANH01,K02,_,02,N,01,000,A130680,3.25,20170901,,Y
20170904,FANH01,K02,_,02,N,01,000,A131890,7.42,20170901,,Y
20170904,FANH01,K02,_,02,N,01,000,A140700,10.53,20170901,,Y
20170904,FANH01,K02,_,02,N,01,000,A145850,7.93,20170901,,Y
20170904,FANH01,K02,_,02,N,01,000,A153130,39.15,20170901,,Y
20170904,FANH01,K02,_,02,N,01,000,A160580,6.74,20170901,,Y
20170904,FANH01,K02,_,02,N,01,000,A161510,18.6,20170901,,Y
20170904,FANH01,K02,_,03,N,01,000,A122090,5.5,20170901,,Y
20170904,FANH01,K02,_,03,N,01,000,A130680,3.25,20170901,,Y
20170904,FANH01,K02,_,03,N,01,000,A131890,7.42,20170901,,Y
20170904,FANH01,K02,_,03,N,01,000,A140700,10.53,20170901,,Y
20170904,FANH01,K02,_,03,N,01,000,A145850,7.93,20170901,,Y
20170904,FANH01,K02,_,03,N,01,000,A153130,39.15,20170901,,Y
20170904,FANH01,K02,_,03,N,01,000,A160580,6.74,20170901,,Y
20170904,FANH01,K02,_,03,N,01,000,A161510,18.6,20170901,,Y
20170904,FANH01,K02,_,04,N,01,000,A122090,5.5,20170901,,Y
20170904,FANH01,K02,_,04,N,01,000,A130680,3.25,20170901,,Y
20170904,FANH01,K02,_,04,N,01,000,A131890,7.42,20170901,,Y
20170904,FANH01,K02,_,04,N,01,000,A140700,10.53,20170901,,Y
20170904,FANH01,K02,_,04,N,01,000,A145850,7.93,20170901,,Y
20170904,FANH01,K02,_,04,N,01,000,A153130,39.15,20170901,,Y
20170904,FANH01,K02,_,04,N,01,000,A160580,6.74,20170901,,Y
20170904,FANH01,K02,_,04,N,01,000,A161510,18.6,20170901,,Y
20170904,FANH01,K02,_,05,N,01,000,A122090,5.5,20170901,,Y
20170904,FANH01,K02,_,05,N,01,000,A130680,3.25,20170901,,Y
20170904,FANH01,K02,_,05,N,01,000,A131890,7.42,20170901,,Y
20170904,FANH01,K02,_,05,N,01,000,A140700,10.53,20170901,,Y
20170904,FANH01,K02,_,05,N,01,000,A145850,7.93,20170901,,Y
20170904,FANH01,K02,_,05,N,01,000,A153130,39.15,20170901,,Y
20170904,FANH01,K02,_,05,N,01,000,A160580,6.74,20170901,,Y
20170904,FANH01,K02,_,05,N,01,000,A161510,18.6,20170901,,Y
20171010,FANH01,K02,_,01,N,01,000,A105780,21.5,20170929,,Y
20171010,FANH01,K02,_,01,N,01,000,A138230,17.07,20170929,,Y
20171010,FANH01,K02,_,01,N,01,000,A139250,22.32,20170929,,Y
20171010,FANH01,K02,_,01,N,01,000,A147970,16.17,20170929,,Y
20171010,FANH01,K02,_,01,N,01,000,A153130,19.68,20170929,,Y
20171010,FANH01,K02,_,01,N,01,000,A160580,2.92,20170929,,Y
20171010,FANH01,K02,_,02,N,01,000,A105780,21.5,20170929,,Y
20171010,FANH01,K02,_,02,N,01,000,A138230,17.07,20170929,,Y
20171010,FANH01,K02,_,02,N,01,000,A139250,22.32,20170929,,Y
20171010,FANH01,K02,_,02,N,01,000,A147970,16.17,20170929,,Y
20171010,FANH01,K02,_,02,N,01,000,A153130,19.68,20170929,,Y
20171010,FANH01,K02,_,02,N,01,000,A160580,2.92,20170929,,Y
20171010,FANH01,K02,_,03,N,01,000,A105780,21.5,20170929,,Y
20171010,FANH01,K02,_,03,N,01,000,A138230,17.07,20170929,,Y
20171010,FANH01,K02,_,03,N,01,000,A139250,22.32,20170929,,Y
20171010,FANH01,K02,_,03,N,01,000,A147970,16.17,20170929,,Y
20171010,FANH01,K02,_,03,N,01,000,A153130,19.68,20170929,,Y
20171010,FANH01,K02,_,03,N,01,000,A160580,2.92,20170929,,Y
20171010,FANH01,K02,_,04,N,01,000,A105780,21.5,20170929,,Y
20171010,FANH01,K02,_,04,N,01,000,A138230,17.07,20170929,,Y
20171010,FANH01,K02,_,04,N,01,000,A139250,22.32,20170929,,Y
20171010,FANH01,K02,_,04,N,01,000,A147970,16.17,20170929,,Y
20171010,FANH01,K02,_,04,N,01,000,A153130,19.68,20170929,,Y
20171010,FANH01,K02,_,04,N,01,000,A160580,2.92,20170929,,Y
20171010,FANH01,K02,_,05,N,01,000,A105780,21.5,20170929,,Y
20171010,FANH01,K02,_,05,N,01,000,A138230,17.07,20170929,,Y
20171010,FANH01,K02,_,05,N,01,000,A139250,22.32,20170929,,Y
20171010,FANH01,K02,_,05,N,01,000,A147970,16.17,20170929,,Y
20171010,FANH01,K02,_,05,N,01,000,A153130,19.68,20170929,,Y
20171010,FANH01,K02,_,05,N,01,000,A160580,2.92,20170929,,Y
20171106,FANH01,K02,_,01,N,01,000,A108450,12.35,20171103,,Y
20171106,FANH01,K02,_,01,N,01,000,A122090,12.34,20171103,,Y
20171106,FANH01,K02,_,01,N,01,000,A130680,6.98,20171103,,Y
20171106,FANH01,K02,_,01,N,01,000,A132030,13.01,20171103,,Y
20171106,FANH01,K02,_,01,N,01,000,A136340,17.4,20171103,,Y
20171106,FANH01,K02,_,01,N,01,000,A143860,14.01,20171103,,Y
20171106,FANH01,K02,_,01,N,01,000,A145850,21.28,20171103,,Y
20171106,FANH01,K02,_,01,N,01,000,A148070,2.59,20171103,,Y
20171106,FANH01,K02,_,02,N,01,000,A108450,12.35,20171103,,Y
20171106,FANH01,K02,_,02,N,01,000,A122090,12.34,20171103,,Y
20171106,FANH01,K02,_,02,N,01,000,A130680,6.98,20171103,,Y
20171106,FANH01,K02,_,02,N,01,000,A132030,13.01,20171103,,Y
20171106,FANH01,K02,_,02,N,01,000,A136340,17.4,20171103,,Y
20171106,FANH01,K02,_,02,N,01,000,A143860,14.01,20171103,,Y
20171106,FANH01,K02,_,02,N,01,000,A145850,21.28,20171103,,Y
20171106,FANH01,K02,_,02,N,01,000,A148070,2.59,20171103,,Y
20171106,FANH01,K02,_,03,N,01,000,A108450,12.35,20171103,,Y
20171106,FANH01,K02,_,03,N,01,000,A122090,12.34,20171103,,Y
20171106,FANH01,K02,_,03,N,01,000,A130680,6.98,20171103,,Y
20171106,FANH01,K02,_,03,N,01,000,A132030,13.01,20171103,,Y
20171106,FANH01,K02,_,03,N,01,000,A136340,17.4,20171103,,Y
20171106,FANH01,K02,_,03,N,01,000,A143860,14.01,20171103,,Y
20171106,FANH01,K02,_,03,N,01,000,A145850,21.28,20171103,,Y
20171106,FANH01,K02,_,03,N,01,000,A148070,2.59,20171103,,Y
20171106,FANH01,K02,_,04,N,01,000,A108450,12.35,20171103,,Y
20171106,FANH01,K02,_,04,N,01,000,A122090,12.34,20171103,,Y
20171106,FANH01,K02,_,04,N,01,000,A130680,6.98,20171103,,Y
20171106,FANH01,K02,_,04,N,01,000,A132030,13.01,20171103,,Y
20171106,FANH01,K02,_,04,N,01,000,A136340,17.4,20171103,,Y
20171106,FANH01,K02,_,04,N,01,000,A143860,14.01,20171103,,Y
20171106,FANH01,K02,_,04,N,01,000,A145850,21.28,20171103,,Y
20171106,FANH01,K02,_,04,N,01,000,A148070,2.59,20171103,,Y
20171106,FANH01,K02,_,05,N,01,000,A108450,12.35,20171103,,Y
20171106,FANH01,K02,_,05,N,01,000,A122090,12.34,20171103,,Y
20171106,FANH01,K02,_,05,N,01,000,A130680,6.98,20171103,,Y
20171106,FANH01,K02,_,05,N,01,000,A132030,13.01,20171103,,Y
20171106,FANH01,K02,_,05,N,01,000,A136340,17.4,20171103,,Y
20171106,FANH01,K02,_,05,N,01,000,A143860,14.01,20171103,,Y
20171106,FANH01,K02,_,05,N,01,000,A145850,21.28,20171103,,Y
20171106,FANH01,K02,_,05,N,01,000,A148070,2.59,20171103,,Y
20171204,FANH01,K02,_,01,N,01,000,A122090,5.16,20171201,,Y
20171204,FANH01,K02,_,01,N,01,000,A130680,11.0,20171201,,Y
20171204,FANH01,K02,_,01,N,01,000,A131890,7.03,20171201,,Y
20171204,FANH01,K02,_,01,N,01,000,A143860,4.06,20171201,,Y
20171204,FANH01,K02,_,01,N,01,000,A145850,10.69,20171201,,Y
20171204,FANH01,K02,_,01,N,01,000,A153130,30.0,20171201,,Y
20171204,FANH01,K02,_,01,N,01,000,A160580,8.99,20171201,,Y
20171204,FANH01,K02,_,01,N,01,000,A161510,23.04,20171201,,Y
20171204,FANH01,K02,_,02,N,01,000,A122090,5.16,20171201,,Y
20171204,FANH01,K02,_,02,N,01,000,A130680,11.0,20171201,,Y
20171204,FANH01,K02,_,02,N,01,000,A131890,7.03,20171201,,Y
20171204,FANH01,K02,_,02,N,01,000,A143860,4.06,20171201,,Y
20171204,FANH01,K02,_,02,N,01,000,A145850,10.69,20171201,,Y
20171204,FANH01,K02,_,02,N,01,000,A153130,30.0,20171201,,Y
20171204,FANH01,K02,_,02,N,01,000,A160580,8.99,20171201,,Y
20171204,FANH01,K02,_,02,N,01,000,A161510,23.04,20171201,,Y
20171204,FANH01,K02,_,03,N,01,000,A122090,5.16,20171201,,Y
20171204,FANH01,K02,_,03,N,01,000,A130680,11.0,20171201,,Y
20171204,FANH01,K02,_,03,N,01,000,A131890,7.03,20171201,,Y
20171204,FANH01,K02,_,03,N,01,000,A143860,4.06,20171201,,Y
20171204,FANH01,K02,_,03,N,01,000,A145850,10.69,20171201,,Y
20171204,FANH01,K02,_,03,N,01,000,A153130,30.0,20171201,,Y
20171204,FANH01,K02,_,03,N,01,000,A160580,8.99,20171201,,Y
20171204,FANH01,K02,_,03,N,01,000,A161510,23.04,20171201,,Y
20171204,FANH01,K02,_,04,N,01,000,A122090,5.16,20171201,,Y
20171204,FANH01,K02,_,04,N,01,000,A130680,11.0,20171201,,Y
20171204,FANH01,K02,_,04,N,01,000,A131890,7.03,20171201,,Y
20171204,FANH01,K02,_,04,N,01,000,A143860,4.06,20171201,,Y
20171204,FANH01,K02,_,04,N,01,000,A145850,10.69,20171201,,Y
20171204,FANH01,K02,_,04,N,01,000,A153130,30.0,20171201,,Y
20171204,FANH01,K02,_,04,N,01,000,A160580,8.99,20171201,,Y
20171204,FANH01,K02,_,04,N,01,000,A161510,23.04,20171201,,Y
20171204,FANH01,K02,_,05,N,01,000,A122090,5.16,20171201,,Y
20171204,FANH01,K02,_,05,N,01,000,A130680,11.0,20171201,,Y
20171204,FANH01,K02,_,05,N,01,000,A131890,7.03,20171201,,Y
20171204,FANH01,K02,_,05,N,01,000,A143860,4.06,20171201,,Y
20171204,FANH01,K02,_,05,N,01,000,A145850,10.69,20171201,,Y
20171204,FANH01,K02,_,05,N,01,000,A153130,30.0,20171201,,Y
20171204,FANH01,K02,_,05,N,01,000,A160580,8.99,20171201,,Y
20171204,FANH01,K02,_,05,N,01,000,A161510,23.04,20171201,,Y
20180104,FANH01,K02,_,01,N,01,000,A104530,17.93,20180103,,Y
20180104,FANH01,K02,_,01,N,01,000,A130680,10.0,20180103,,Y
20180104,FANH01,K02,_,01,N,01,000,A136340,33.37,20180103,,Y
20180104,FANH01,K02,_,01,N,01,000,A139280,13.09,20180103,,Y
20180104,FANH01,K02,_,01,N,01,000,A143860,1.96,20180103,,Y
20180104,FANH01,K02,_,01,N,01,000,A147970,17.0,20180103,,Y
20180104,FANH01,K02,_,01,N,01,000,A148070,6.62,20180103,,Y
20180104,FANH01,K02,_,02,N,01,000,A104530,17.93,20180103,,Y
20180104,FANH01,K02,_,02,N,01,000,A130680,10.0,20180103,,Y
20180104,FANH01,K02,_,02,N,01,000,A136340,33.37,20180103,,Y
20180104,FANH01,K02,_,02,N,01,000,A139280,13.09,20180103,,Y
20180104,FANH01,K02,_,02,N,01,000,A143860,1.96,20180103,,Y
20180104,FANH01,K02,_,02,N,01,000,A147970,17.0,20180103,,Y
20180104,FANH01,K02,_,02,N,01,000,A148070,6.62,20180103,,Y
20180104,FANH01,K02,_,03,N,01,000,A104530,17.93,20180103,,Y
20180104,FANH01,K02,_,03,N,01,000,A130680,10.0,20180103,,Y
20180104,FANH01,K02,_,03,N,01,000,A136340,33.37,20180103,,Y
20180104,FANH01,K02,_,03,N,01,000,A139280,13.09,20180103,,Y
20180104,FANH01,K02,_,03,N,01,000,A143860,1.96,20180103,,Y
20180104,FANH01,K02,_,03,N,01,000,A147970,17.0,20180103,,Y
20180104,FANH01,K02,_,03,N,01,000,A148070,6.62,20180103,,Y
20180104,FANH01,K02,_,04,N,01,000,A104530,17.93,20180103,,Y
20180104,FANH01,K02,_,04,N,01,000,A130680,10.0,20180103,,Y
20180104,FANH01,K02,_,04,N,01,000,A136340,33.37,20180103,,Y
20180104,FANH01,K02,_,04,N,01,000,A139280,13.09,20180103,,Y
20180104,FANH01,K02,_,04,N,01,000,A143860,1.96,20180103,,Y
20180104,FANH01,K02,_,04,N,01,000,A147970,17.0,20180103,,Y
20180104,FANH01,K02,_,04,N,01,000,A148070,6.62,20180103,,Y
20180104,FANH01,K02,_,05,N,01,000,A104530,17.93,20180103,,Y
20180104,FANH01,K02,_,05,N,01,000,A130680,10.0,20180103,,Y
20180104,FANH01,K02,_,05,N,01,000,A136340,33.37,20180103,,Y
20180104,FANH01,K02,_,05,N,01,000,A139280,13.09,20180103,,Y
20180104,FANH01,K02,_,05,N,01,000,A143860,1.96,20180103,,Y
20180104,FANH01,K02,_,05,N,01,000,A147970,17.0,20180103,,Y
20180104,FANH01,K02,_,05,N,01,000,A148070,6.62,20180103,,Y
20180205,FANH01,K02,_,01,N,01,000,A122090,5.5,20180202,,Y
20180205,FANH01,K02,_,01,N,01,000,A130680,4.11,20180202,,Y
20180205,FANH01,K02,_,01,N,01,000,A131890,3.94,20180202,,Y
20180205,FANH01,K02,_,01,N,01,000,A143860,2.3,20180202,,Y
20180205,FANH01,K02,_,01,N,01,000,A147970,9.59,20180202,,Y
20180205,FANH01,K02,_,01,N,01,000,A153130,39.37,20180202,,Y
20180205,FANH01,K02,_,01,N,01,000,A160580,5.88,20180202,,Y
20180205,FANH01,K02,_,01,N,01,000,A161510,28.64,20180202,,Y
20180205,FANH01,K02,_,02,N,01,000,A122090,5.5,20180202,,Y
20180205,FANH01,K02,_,02,N,01,000,A130680,4.11,20180202,,Y
20180205,FANH01,K02,_,02,N,01,000,A131890,3.94,20180202,,Y
20180205,FANH01,K02,_,02,N,01,000,A143860,2.3,20180202,,Y
20180205,FANH01,K02,_,02,N,01,000,A147970,9.59,20180202,,Y
20180205,FANH01,K02,_,02,N,01,000,A153130,39.37,20180202,,Y
20180205,FANH01,K02,_,02,N,01,000,A160580,5.88,20180202,,Y
20180205,FANH01,K02,_,02,N,01,000,A161510,28.64,20180202,,Y
20180205,FANH01,K02,_,03,N,01,000,A122090,5.5,20180202,,Y
20180205,FANH01,K02,_,03,N,01,000,A130680,4.11,20180202,,Y
20180205,FANH01,K02,_,03,N,01,000,A131890,3.94,20180202,,Y
20180205,FANH01,K02,_,03,N,01,000,A143860,2.3,20180202,,Y
20180205,FANH01,K02,_,03,N,01,000,A147970,9.59,20180202,,Y
20180205,FANH01,K02,_,03,N,01,000,A153130,39.37,20180202,,Y
20180205,FANH01,K02,_,03,N,01,000,A160580,5.88,20180202,,Y
20180205,FANH01,K02,_,03,N,01,000,A161510,28.64,20180202,,Y
20180205,FANH01,K02,_,04,N,01,000,A122090,5.5,20180202,,Y
20180205,FANH01,K02,_,04,N,01,000,A130680,4.11,20180202,,Y
20180205,FANH01,K02,_,04,N,01,000,A131890,3.94,20180202,,Y
20180205,FANH01,K02,_,04,N,01,000,A143860,2.3,20180202,,Y
20180205,FANH01,K02,_,04,N,01,000,A147970,9.59,20180202,,Y
20180205,FANH01,K02,_,04,N,01,000,A153130,39.37,20180202,,Y
20180205,FANH01,K02,_,04,N,01,000,A160580,5.88,20180202,,Y
20180205,FANH01,K02,_,04,N,01,000,A161510,28.64,20180202,,Y
20180205,FANH01,K02,_,05,N,01,000,A122090,5.5,20180202,,Y
20180205,FANH01,K02,_,05,N,01,000,A130680,4.11,20180202,,Y
20180205,FANH01,K02,_,05,N,01,000,A131890,3.94,20180202,,Y
20180205,FANH01,K02,_,05,N,01,000,A143860,2.3,20180202,,Y
20180205,FANH01,K02,_,05,N,01,000,A147970,9.59,20180202,,Y
20180205,FANH01,K02,_,05,N,01,000,A153130,39.37,20180202,,Y
20180205,FANH01,K02,_,05,N,01,000,A160580,5.88,20180202,,Y
20180205,FANH01,K02,_,05,N,01,000,A161510,28.64,20180202,,Y
20180305,FANH01,K02,_,01,N,01,000,A130680,3.77,20180302,,Y
20180305,FANH01,K02,_,01,N,01,000,A131890,5.7,20180302,,Y
20180305,FANH01,K02,_,01,N,01,000,A132030,16.22,20180302,,Y
20180305,FANH01,K02,_,01,N,01,000,A143860,5.21,20180302,,Y
20180305,FANH01,K02,_,01,N,01,000,A147970,11.87,20180302,,Y
20180305,FANH01,K02,_,01,N,01,000,A153130,19.55,20180302,,Y
20180305,FANH01,K02,_,01,N,01,000,A156080,7.89,20180302,,Y
20180305,FANH01,K02,_,01,N,01,000,A161510,29.31,20180302,,Y
20180305,FANH01,K02,_,02,N,01,000,A130680,3.77,20180302,,Y
20180305,FANH01,K02,_,02,N,01,000,A131890,5.7,20180302,,Y
20180305,FANH01,K02,_,02,N,01,000,A132030,16.22,20180302,,Y
20180305,FANH01,K02,_,02,N,01,000,A143860,5.21,20180302,,Y
20180305,FANH01,K02,_,02,N,01,000,A147970,11.87,20180302,,Y
20180305,FANH01,K02,_,02,N,01,000,A153130,19.55,20180302,,Y
20180305,FANH01,K02,_,02,N,01,000,A156080,7.89,20180302,,Y
20180305,FANH01,K02,_,02,N,01,000,A161510,29.31,20180302,,Y
20180305,FANH01,K02,_,03,N,01,000,A130680,3.77,20180302,,Y
20180305,FANH01,K02,_,03,N,01,000,A131890,5.7,20180302,,Y
20180305,FANH01,K02,_,03,N,01,000,A132030,16.22,20180302,,Y
20180305,FANH01,K02,_,03,N,01,000,A143860,5.21,20180302,,Y
20180305,FANH01,K02,_,03,N,01,000,A147970,11.87,20180302,,Y
20180305,FANH01,K02,_,03,N,01,000,A153130,19.55,20180302,,Y
20180305,FANH01,K02,_,03,N,01,000,A156080,7.89,20180302,,Y
20180305,FANH01,K02,_,03,N,01,000,A161510,29.31,20180302,,Y
20180305,FANH01,K02,_,04,N,01,000,A130680,3.77,20180302,,Y
20180305,FANH01,K02,_,04,N,01,000,A131890,5.7,20180302,,Y
20180305,FANH01,K02,_,04,N,01,000,A132030,16.22,20180302,,Y
20180305,FANH01,K02,_,04,N,01,000,A143860,5.21,20180302,,Y
20180305,FANH01,K02,_,04,N,01,000,A147970,11.87,20180302,,Y
20180305,FANH01,K02,_,04,N,01,000,A153130,19.55,20180302,,Y
20180305,FANH01,K02,_,04,N,01,000,A156080,7.89,20180302,,Y
20180305,FANH01,K02,_,04,N,01,000,A161510,29.31,20180302,,Y
20180305,FANH01,K02,_,05,N,01,000,A130680,3.77,20180302,,Y
20180305,FANH01,K02,_,05,N,01,000,A131890,5.7,20180302,,Y
20180305,FANH01,K02,_,05,N,01,000,A132030,16.22,20180302,,Y
20180305,FANH01,K02,_,05,N,01,000,A143860,5.21,20180302,,Y
20180305,FANH01,K02,_,05,N,01,000,A147970,11.87,20180302,,Y
20180305,FANH01,K02,_,05,N,01,000,A153130,19.55,20180302,,Y
20180305,FANH01,K02,_,05,N,01,000,A156080,7.89,20180302,,Y
20180305,FANH01,K02,_,05,N,01,000,A161510,29.31,20180302,,Y
20180404,FANH01,K02,_,01,N,01,000,A137610,20.0,20180403,,Y
20180404,FANH01,K02,_,01,N,01,000,A143860,50.0,20180403,,Y
20180404,FANH01,K02,_,01,N,01,000,A153130,29.53,20180403,,Y
20180404,FANH01,K02,_,02,N,01,000,A137610,20.0,20180403,,Y
20180404,FANH01,K02,_,02,N,01,000,A143860,50.0,20180403,,Y
20180404,FANH01,K02,_,02,N,01,000,A153130,29.53,20180403,,Y
20180404,FANH01,K02,_,03,N,01,000,A137610,20.0,20180403,,Y
20180404,FANH01,K02,_,03,N,01,000,A143860,50.0,20180403,,Y
20180404,FANH01,K02,_,03,N,01,000,A153130,29.53,20180403,,Y
20180404,FANH01,K02,_,04,N,01,000,A137610,20.0,20180403,,Y
20180404,FANH01,K02,_,04,N,01,000,A143860,50.0,20180403,,Y
20180404,FANH01,K02,_,04,N,01,000,A153130,29.53,20180403,,Y
20180404,FANH01,K02,_,05,N,01,000,A137610,20.0,20180403,,Y
20180404,FANH01,K02,_,05,N,01,000,A143860,50.0,20180403,,Y
20180404,FANH01,K02,_,05,N,01,000,A153130,29.53,20180403,,Y
20180504,FANH01,K02,_,01,N,01,000,A130680,3.12,20180503,,Y
20180504,FANH01,K02,_,01,N,01,000,A131890,20.98,20180503,,Y
20180504,FANH01,K02,_,01,N,01,000,A132030,16.87,20180503,,Y
20180504,FANH01,K02,_,01,N,01,000,A136340,28.85,20180503,,Y
20180504,FANH01,K02,_,01,N,01,000,A143860,9.29,20180503,,Y
20180504,FANH01,K02,_,01,N,01,000,A147970,19.72,20180503,,Y
20180504,FANH01,K02,_,01,N,01,000,A148070,1.14,20180503,,Y
20180504,FANH01,K02,_,02,N,01,000,A130680,3.12,20180503,,Y
20180504,FANH01,K02,_,02,N,01,000,A131890,20.98,20180503,,Y
20180504,FANH01,K02,_,02,N,01,000,A132030,16.87,20180503,,Y
20180504,FANH01,K02,_,02,N,01,000,A136340,28.85,20180503,,Y
20180504,FANH01,K02,_,02,N,01,000,A143860,9.29,20180503,,Y
20180504,FANH01,K02,_,02,N,01,000,A147970,19.72,20180503,,Y
20180504,FANH01,K02,_,02,N,01,000,A148070,1.14,20180503,,Y
20180504,FANH01,K02,_,03,N,01,000,A130680,3.12,20180503,,Y
20180504,FANH01,K02,_,03,N,01,000,A131890,20.98,20180503,,Y
20180504,FANH01,K02,_,03,N,01,000,A132030,16.87,20180503,,Y
20180504,FANH01,K02,_,03,N,01,000,A136340,28.85,20180503,,Y
20180504,FANH01,K02,_,03,N,01,000,A143860,9.29,20180503,,Y
20180504,FANH01,K02,_,03,N,01,000,A147970,19.72,20180503,,Y
20180504,FANH01,K02,_,03,N,01,000,A148070,1.14,20180503,,Y
20180504,FANH01,K02,_,04,N,01,000,A130680,3.12,20180503,,Y
20180504,FANH01,K02,_,04,N,01,000,A131890,20.98,20180503,,Y
20180504,FANH01,K02,_,04,N,01,000,A132030,16.87,20180503,,Y
20180504,FANH01,K02,_,04,N,01,000,A136340,28.85,20180503,,Y
20180504,FANH01,K02,_,04,N,01,000,A143860,9.29,20180503,,Y
20180504,FANH01,K02,_,04,N,01,000,A147970,19.72,20180503,,Y
20180504,FANH01,K02,_,04,N,01,000,A148070,1.14,20180503,,Y
20180504,FANH01,K02,_,05,N,01,000,A130680,3.12,20180503,,Y
20180504,FANH01,K02,_,05,N,01,000,A131890,20.98,20180503,,Y
20180504,FANH01,K02,_,05,N,01,000,A132030,16.87,20180503,,Y
20180504,FANH01,K02,_,05,N,01,000,A136340,28.85,20180503,,Y
20180504,FANH01,K02,_,05,N,01,000,A143860,9.29,20180503,,Y
20180504,FANH01,K02,_,05,N,01,000,A147970,19.72,20180503,,Y
20180504,FANH01,K02,_,05,N,01,000,A148070,1.14,20180503,,Y
20180604,FANH01,K02,_,01,N,01,000,A130680,4.3,20180601,,Y
20180604,FANH01,K02,_,01,N,01,000,A139220,2.1,20180601,,Y
20180604,FANH01,K02,_,01,N,01,000,A145850,8.79,20180601,,Y
20180604,FANH01,K02,_,01,N,01,000,A150460,17.96,20180601,,Y
20180604,FANH01,K02,_,01,N,01,000,A153130,29.45,20180601,,Y
20180604,FANH01,K02,_,01,N,01,000,A156080,12.77,20180601,,Y
20180604,FANH01,K02,_,01,N,01,000,A160580,15.69,20180601,,Y
20180604,FANH01,K02,_,01,N,01,000,A161510,8.35,20180601,,Y
20180604,FANH01,K02,_,02,N,01,000,A130680,4.3,20180601,,Y
20180604,FANH01,K02,_,02,N,01,000,A139220,2.1,20180601,,Y
20180604,FANH01,K02,_,02,N,01,000,A145850,8.79,20180601,,Y
20180604,FANH01,K02,_,02,N,01,000,A150460,17.96,20180601,,Y
20180604,FANH01,K02,_,02,N,01,000,A153130,29.45,20180601,,Y
20180604,FANH01,K02,_,02,N,01,000,A156080,12.77,20180601,,Y
20180604,FANH01,K02,_,02,N,01,000,A160580,15.69,20180601,,Y
20180604,FANH01,K02,_,02,N,01,000,A161510,8.35,20180601,,Y
20180604,FANH01,K02,_,03,N,01,000,A130680,4.3,20180601,,Y
20180604,FANH01,K02,_,03,N,01,000,A139220,2.1,20180601,,Y
20180604,FANH01,K02,_,03,N,01,000,A145850,8.79,20180601,,Y
20180604,FANH01,K02,_,03,N,01,000,A150460,17.96,20180601,,Y
20180604,FANH01,K02,_,03,N,01,000,A153130,29.45,20180601,,Y
20180604,FANH01,K02,_,03,N,01,000,A156080,12.77,20180601,,Y
20180604,FANH01,K02,_,03,N,01,000,A160580,15.69,20180601,,Y
20180604,FANH01,K02,_,03,N,01,000,A161510,8.35,20180601,,Y
20180604,FANH01,K02,_,04,N,01,000,A130680,4.3,20180601,,Y
20180604,FANH01,K02,_,04,N,01,000,A139220,2.1,20180601,,Y
20180604,FANH01,K02,_,04,N,01,000,A145850,8.79,20180601,,Y
20180604,FANH01,K02,_,04,N,01,000,A150460,17.96,20180601,,Y
20180604,FANH01,K02,_,04,N,01,000,A153130,29.45,20180601,,Y
20180604,FANH01,K02,_,04,N,01,000,A156080,12.77,20180601,,Y
20180604,FANH01,K02,_,04,N,01,000,A160580,15.69,20180601,,Y
20180604,FANH01,K02,_,04,N,01,000,A161510,8.35,20180601,,Y
20180604,FANH01,K02,_,05,N,01,000,A130680,4.3,20180601,,Y
20180604,FANH01,K02,_,05,N,01,000,A139220,2.1,20180601,,Y
20180604,FANH01,K02,_,05,N,01,000,A145850,8.79,20180601,,Y
20180604,FANH01,K02,_,05,N,01,000,A150460,17.96,20180601,,Y
20180604,FANH01,K02,_,05,N,01,000,A153130,29.45,20180601,,Y
20180604,FANH01,K02,_,05,N,01,000,A156080,12.77,20180601,,Y
20180604,FANH01,K02,_,05,N,01,000,A160580,15.69,20180601,,Y
20180604,FANH01,K02,_,05,N,01,000,A161510,8.35,20180601,,Y
20180704,FANH01,K02,_,01,N,01,000,A117700,3.77,20180703,,Y
20180704,FANH01,K02,_,01,N,01,000,A130680,20.0,20180703,,Y
20180704,FANH01,K02,_,01,N,01,000,A131890,25.21,20180703,,Y
20180704,FANH01,K02,_,01,N,01,000,A147970,21.0,20180703,,Y
20180704,FANH01,K02,_,01,N,01,000,A153130,29.41,20180703,,Y
20180704,FANH01,K02,_,02,N,01,000,A117700,3.77,20180703,,Y
20180704,FANH01,K02,_,02,N,01,000,A130680,20.0,20180703,,Y
20180704,FANH01,K02,_,02,N,01,000,A131890,25.21,20180703,,Y
20180704,FANH01,K02,_,02,N,01,000,A147970,21.0,20180703,,Y
20180704,FANH01,K02,_,02,N,01,000,A153130,29.41,20180703,,Y
20180704,FANH01,K02,_,03,N,01,000,A117700,3.77,20180703,,Y
20180704,FANH01,K02,_,03,N,01,000,A130680,20.0,20180703,,Y
20180704,FANH01,K02,_,03,N,01,000,A131890,25.21,20180703,,Y
20180704,FANH01,K02,_,03,N,01,000,A147970,21.0,20180703,,Y
20180704,FANH01,K02,_,03,N,01,000,A153130,29.41,20180703,,Y
20180704,FANH01,K02,_,04,N,01,000,A117700,3.77,20180703,,Y
20180704,FANH01,K02,_,04,N,01,000,A130680,20.0,20180703,,Y
20180704,FANH01,K02,_,04,N,01,000,A131890,25.21,20180703,,Y
20180704,FANH01,K02,_,04,N,01,000,A147970,21.0,20180703,,Y
20180704,FANH01,K02,_,04,N,01,000,A153130,29.41,20180703,,Y
20180704,FANH01,K02,_,05,N,01,000,A117700,3.77,20180703,,Y
20180704,FANH01,K02,_,05,N,01,000,A130680,20.0,20180703,,Y
20180704,FANH01,K02,_,05,N,01,000,A131890,25.21,20180703,,Y
20180704,FANH01,K02,_,05,N,01,000,A147970,21.0,20180703,,Y
20180704,FANH01,K02,_,05,N,01,000,A153130,29.41,20180703,,Y
20180806,FANH01,K02,_,01,N,01,000,A130680,20.0,20180803,,Y
20180806,FANH01,K02,_,01,N,01,000,A136340,27.88,20180803,,Y
20180806,FANH01,K02,_,01,N,01,000,A143860,50.0,20180803,,Y
20180806,FANH01,K02,_,01,N,01,000,A148070,2.11,20180803,,Y
20180806,FANH01,K02,_,02,N,01,000,A130680,20.0,20180803,,Y
20180806,FANH01,K02,_,02,N,01,000,A136340,27.88,20180803,,Y
20180806,FANH01,K02,_,02,N,01,000,A143860,50.0,20180803,,Y
20180806,FANH01,K02,_,02,N,01,000,A148070,2.11,20180803,,Y
20180806,FANH01,K02,_,03,N,01,000,A130680,20.0,20180803,,Y
20180806,FANH01,K02,_,03,N,01,000,A136340,27.88,20180803,,Y
20180806,FANH01,K02,_,03,N,01,000,A143860,50.0,20180803,,Y
20180806,FANH01,K02,_,03,N,01,000,A148070,2.11,20180803,,Y
20180806,FANH01,K02,_,04,N,01,000,A130680,20.0,20180803,,Y
20180806,FANH01,K02,_,04,N,01,000,A136340,27.88,20180803,,Y
20180806,FANH01,K02,_,04,N,01,000,A143860,50.0,20180803,,Y
20180806,FANH01,K02,_,04,N,01,000,A148070,2.11,20180803,,Y
20180806,FANH01,K02,_,05,N,01,000,A130680,20.0,20180803,,Y
20180806,FANH01,K02,_,05,N,01,000,A136340,27.88,20180803,,Y
20180806,FANH01,K02,_,05,N,01,000,A143860,50.0,20180803,,Y
20180806,FANH01,K02,_,05,N,01,000,A148070,2.11,20180803,,Y
20180904,FANH01,K02,_,01,N,01,000,A091180,14.48,20180903,,Y
20180904,FANH01,K02,_,01,N,01,000,A105780,5.57,20180903,,Y
20180904,FANH01,K02,_,01,N,01,000,A122090,12.39,20180903,,Y
20180904,FANH01,K02,_,01,N,01,000,A137610,20.0,20180903,,Y
20180904,FANH01,K02,_,01,N,01,000,A145850,7.15,20180903,,Y
20180904,FANH01,K02,_,01,N,01,000,A153130,29.44,20180903,,Y
20180904,FANH01,K02,_,01,N,01,000,A161510,10.39,20180903,,Y
20180904,FANH01,K02,_,02,N,01,000,A091180,14.48,20180903,,Y
20180904,FANH01,K02,_,02,N,01,000,A105780,5.57,20180903,,Y
20180904,FANH01,K02,_,02,N,01,000,A122090,12.39,20180903,,Y
20180904,FANH01,K02,_,02,N,01,000,A137610,20.0,20180903,,Y
20180904,FANH01,K02,_,02,N,01,000,A145850,7.15,20180903,,Y
20180904,FANH01,K02,_,02,N,01,000,A153130,29.44,20180903,,Y
20180904,FANH01,K02,_,02,N,01,000,A161510,10.39,20180903,,Y
20180904,FANH01,K02,_,03,N,01,000,A091180,14.48,20180903,,Y
20180904,FANH01,K02,_,03,N,01,000,A105780,5.57,20180903,,Y
20180904,FANH01,K02,_,03,N,01,000,A122090,12.39,20180903,,Y
20180904,FANH01,K02,_,03,N,01,000,A137610,20.0,20180903,,Y
20180904,FANH01,K02,_,03,N,01,000,A145850,7.15,20180903,,Y
20180904,FANH01,K02,_,03,N,01,000,A153130,29.44,20180903,,Y
20180904,FANH01,K02,_,03,N,01,000,A161510,10.39,20180903,,Y
20180904,FANH01,K02,_,04,N,01,000,A091180,14.48,20180903,,Y
20180904,FANH01,K02,_,04,N,01,000,A105780,5.57,20180903,,Y
20180904,FANH01,K02,_,04,N,01,000,A122090,12.39,20180903,,Y
20180904,FANH01,K02,_,04,N,01,000,A137610,20.0,20180903,,Y
20180904,FANH01,K02,_,04,N,01,000,A145850,7.15,20180903,,Y
20180904,FANH01,K02,_,04,N,01,000,A153130,29.44,20180903,,Y
20180904,FANH01,K02,_,04,N,01,000,A161510,10.39,20180903,,Y
20180904,FANH01,K02,_,05,N,01,000,A091180,14.48,20180903,,Y
20180904,FANH01,K02,_,05,N,01,000,A105780,5.57,20180903,,Y
20180904,FANH01,K02,_,05,N,01,000,A122090,12.39,20180903,,Y
20180904,FANH01,K02,_,05,N,01,000,A137610,20.0,20180903,,Y
20180904,FANH01,K02,_,05,N,01,000,A145850,7.15,20180903,,Y
20180904,FANH01,K02,_,05,N,01,000,A153130,29.44,20180903,,Y
20180904,FANH01,K02,_,05,N,01,000,A161510,10.39,20180903,,Y
20181004,FANH01,K02,_,01,N,01,000,A108450,38.39,20181002,,Y
20181004,FANH01,K02,_,01,N,01,000,A136340,27.16,20181002,,Y
20181004,FANH01,K02,_,01,N,01,000,A138230,20.0,20181002,,Y
20181004,FANH01,K02,_,01,N,01,000,A143860,11.6,20181002,,Y
20181004,FANH01,K02,_,01,N,01,000,A148070,2.83,20181002,,Y
20181004,FANH01,K02,_,02,N,01,000,A108450,38.39,20181002,,Y
20181004,FANH01,K02,_,02,N,01,000,A136340,27.16,20181002,,Y
20181004,FANH01,K02,_,02,N,01,000,A138230,20.0,20181002,,Y
20181004,FANH01,K02,_,02,N,01,000,A143860,11.6,20181002,,Y
20181004,FANH01,K02,_,02,N,01,000,A148070,2.83,20181002,,Y
20181004,FANH01,K02,_,03,N,01,000,A108450,38.39,20181002,,Y
20181004,FANH01,K02,_,03,N,01,000,A136340,27.16,20181002,,Y
20181004,FANH01,K02,_,03,N,01,000,A138230,20.0,20181002,,Y
20181004,FANH01,K02,_,03,N,01,000,A143860,11.6,20181002,,Y
20181004,FANH01,K02,_,03,N,01,000,A148070,2.83,20181002,,Y
20181004,FANH01,K02,_,04,N,01,000,A108450,38.39,20181002,,Y
20181004,FANH01,K02,_,04,N,01,000,A136340,27.16,20181002,,Y
20181004,FANH01,K02,_,04,N,01,000,A138230,20.0,20181002,,Y
20181004,FANH01,K02,_,04,N,01,000,A143860,11.6,20181002,,Y
20181004,FANH01,K02,_,04,N,01,000,A148070,2.83,20181002,,Y
20181004,FANH01,K02,_,05,N,01,000,A108450,38.39,20181002,,Y
20181004,FANH01,K02,_,05,N,01,000,A136340,27.16,20181002,,Y
20181004,FANH01,K02,_,05,N,01,000,A138230,20.0,20181002,,Y
20181004,FANH01,K02,_,05,N,01,000,A143860,11.6,20181002,,Y
20181004,FANH01,K02,_,05,N,01,000,A148070,2.83,20181002,,Y
20181105,FANH01,K02,_,01,N,01,000,A098560,15.41,20181102,,Y
20181105,FANH01,K02,_,01,N,01,000,A108450,19.23,20181102,,Y
20181105,FANH01,K02,_,01,N,01,000,A130680,7.73,20181102,,Y
20181105,FANH01,K02,_,01,N,01,000,A136340,18.1,20181102,,Y
20181105,FANH01,K02,_,01,N,01,000,A148070,1.89,20181102,,Y
20181105,FANH01,K02,_,01,N,01,000,A160580,12.26,20181102,,Y
20181105,FANH01,K02,_,01,N,01,000,A161510,25.34,20181102,,Y
20181105,FANH01,K02,_,02,N,01,000,A098560,15.41,20181102,,Y
20181105,FANH01,K02,_,02,N,01,000,A108450,19.23,20181102,,Y
20181105,FANH01,K02,_,02,N,01,000,A130680,7.73,20181102,,Y
20181105,FANH01,K02,_,02,N,01,000,A136340,18.1,20181102,,Y
20181105,FANH01,K02,_,02,N,01,000,A148070,1.89,20181102,,Y
20181105,FANH01,K02,_,02,N,01,000,A160580,12.26,20181102,,Y
20181105,FANH01,K02,_,02,N,01,000,A161510,25.34,20181102,,Y
20181105,FANH01,K02,_,03,N,01,000,A098560,15.41,20181102,,Y
20181105,FANH01,K02,_,03,N,01,000,A108450,19.23,20181102,,Y
20181105,FANH01,K02,_,03,N,01,000,A130680,7.73,20181102,,Y
20181105,FANH01,K02,_,03,N,01,000,A136340,18.1,20181102,,Y
20181105,FANH01,K02,_,03,N,01,000,A148070,1.89,20181102,,Y
20181105,FANH01,K02,_,03,N,01,000,A160580,12.26,20181102,,Y
20181105,FANH01,K02,_,03,N,01,000,A161510,25.34,20181102,,Y
20181105,FANH01,K02,_,04,N,01,000,A098560,15.41,20181102,,Y
20181105,FANH01,K02,_,04,N,01,000,A108450,19.23,20181102,,Y
20181105,FANH01,K02,_,04,N,01,000,A130680,7.73,20181102,,Y
20181105,FANH01,K02,_,04,N,01,000,A136340,18.1,20181102,,Y
20181105,FANH01,K02,_,04,N,01,000,A148070,1.89,20181102,,Y
20181105,FANH01,K02,_,04,N,01,000,A160580,12.26,20181102,,Y
20181105,FANH01,K02,_,04,N,01,000,A161510,25.34,20181102,,Y
20181105,FANH01,K02,_,05,N,01,000,A098560,15.41,20181102,,Y
20181105,FANH01,K02,_,05,N,01,000,A108450,19.23,20181102,,Y
20181105,FANH01,K02,_,05,N,01,000,A130680,7.73,20181102,,Y
20181105,FANH01,K02,_,05,N,01,000,A136340,18.1,20181102,,Y
20181105,FANH01,K02,_,05,N,01,000,A148070,1.89,20181102,,Y
20181105,FANH01,K02,_,05,N,01,000,A160580,12.26,20181102,,Y
20181105,FANH01,K02,_,05,N,01,000,A161510,25.34,20181102,,Y
20181204,FANH01,K02,_,01,N,01,000,A136340,27.68,20181203,,Y
20181204,FANH01,K02,_,01,N,01,000,A138230,16.71,20181203,,Y
20181204,FANH01,K02,_,01,N,01,000,A140700,50.0,20181203,,Y
20181204,FANH01,K02,_,01,N,01,000,A148070,2.31,20181203,,Y
20181204,FANH01,K02,_,01,N,01,000,A160580,3.28,20181203,,Y
20181204,FANH01,K02,_,02,N,01,000,A136340,27.68,20181203,,Y
20181204,FANH01,K02,_,02,N,01,000,A138230,16.71,20181203,,Y
20181204,FANH01,K02,_,02,N,01,000,A140700,50.0,20181203,,Y
20181204,FANH01,K02,_,02,N,01,000,A148070,2.31,20181203,,Y
20181204,FANH01,K02,_,02,N,01,000,A160580,3.28,20181203,,Y
20181204,FANH01,K02,_,03,N,01,000,A136340,27.68,20181203,,Y
20181204,FANH01,K02,_,03,N,01,000,A138230,16.71,20181203,,Y
20181204,FANH01,K02,_,03,N,01,000,A140700,50.0,20181203,,Y
20181204,FANH01,K02,_,03,N,01,000,A148070,2.31,20181203,,Y
20181204,FANH01,K02,_,03,N,01,000,A160580,3.28,20181203,,Y
20181204,FANH01,K02,_,04,N,01,000,A136340,27.68,20181203,,Y
20181204,FANH01,K02,_,04,N,01,000,A138230,16.71,20181203,,Y
20181204,FANH01,K02,_,04,N,01,000,A140700,50.0,20181203,,Y
20181204,FANH01,K02,_,04,N,01,000,A148070,2.31,20181203,,Y
20181204,FANH01,K02,_,04,N,01,000,A160580,3.28,20181203,,Y
20181204,FANH01,K02,_,05,N,01,000,A136340,27.68,20181203,,Y
20181204,FANH01,K02,_,05,N,01,000,A138230,16.71,20181203,,Y
20181204,FANH01,K02,_,05,N,01,000,A140700,50.0,20181203,,Y
20181204,FANH01,K02,_,05,N,01,000,A148070,2.31,20181203,,Y
20181204,FANH01,K02,_,05,N,01,000,A160580,3.28,20181203,,Y
20190104,FANH01,K02,_,01,N,01,000,A136340,18.58,20190103,,Y
20190104,FANH01,K02,_,01,N,01,000,A139280,6.4,20190103,,Y
20190104,FANH01,K02,_,01,N,01,000,A143860,2.14,20190103,,Y
20190104,FANH01,K02,_,01,N,01,000,A147970,5.72,20190103,,Y
20190104,FANH01,K02,_,01,N,01,000,A148070,1.41,20190103,,Y
20190104,FANH01,K02,_,01,N,01,000,A152280,8.93,20190103,,Y
20190104,FANH01,K02,_,01,N,01,000,A160580,20.0,20190103,,Y
20190104,FANH01,K02,_,01,N,01,000,A161510,36.79,20190103,,Y
20190104,FANH01,K02,_,02,N,01,000,A136340,18.58,20190103,,Y
20190104,FANH01,K02,_,02,N,01,000,A139280,6.4,20190103,,Y
20190104,FANH01,K02,_,02,N,01,000,A143860,2.14,20190103,,Y
20190104,FANH01,K02,_,02,N,01,000,A147970,5.72,20190103,,Y
20190104,FANH01,K02,_,02,N,01,000,A148070,1.41,20190103,,Y
20190104,FANH01,K02,_,02,N,01,000,A152280,8.93,20190103,,Y
20190104,FANH01,K02,_,02,N,01,000,A160580,20.0,20190103,,Y
20190104,FANH01,K02,_,02,N,01,000,A161510,36.79,20190103,,Y
20190104,FANH01,K02,_,03,N,01,000,A136340,18.58,20190103,,Y
20190104,FANH01,K02,_,03,N,01,000,A139280,6.4,20190103,,Y
20190104,FANH01,K02,_,03,N,01,000,A143860,2.14,20190103,,Y
20190104,FANH01,K02,_,03,N,01,000,A147970,5.72,20190103,,Y
20190104,FANH01,K02,_,03,N,01,000,A148070,1.41,20190103,,Y
20190104,FANH01,K02,_,03,N,01,000,A152280,8.93,20190103,,Y
20190104,FANH01,K02,_,03,N,01,000,A160580,20.0,20190103,,Y
20190104,FANH01,K02,_,03,N,01,000,A161510,36.79,20190103,,Y
20190104,FANH01,K02,_,04,N,01,000,A136340,18.58,20190103,,Y
20190104,FANH01,K02,_,04,N,01,000,A139280,6.4,20190103,,Y
20190104,FANH01,K02,_,04,N,01,000,A143860,2.14,20190103,,Y
20190104,FANH01,K02,_,04,N,01,000,A147970,5.72,20190103,,Y
20190104,FANH01,K02,_,04,N,01,000,A148070,1.41,20190103,,Y
20190104,FANH01,K02,_,04,N,01,000,A152280,8.93,20190103,,Y
20190104,FANH01,K02,_,04,N,01,000,A160580,20.0,20190103,,Y
20190104,FANH01,K02,_,04,N,01,000,A161510,36.79,20190103,,Y
20190104,FANH01,K02,_,05,N,01,000,A136340,18.58,20190103,,Y
20190104,FANH01,K02,_,05,N,01,000,A139280,6.4,20190103,,Y
20190104,FANH01,K02,_,05,N,01,000,A143860,2.14,20190103,,Y
20190104,FANH01,K02,_,05,N,01,000,A147970,5.72,20190103,,Y
20190104,FANH01,K02,_,05,N,01,000,A148070,1.41,20190103,,Y
20190104,FANH01,K02,_,05,N,01,000,A152280,8.93,20190103,,Y
20190104,FANH01,K02,_,05,N,01,000,A160580,20.0,20190103,,Y
20190104,FANH01,K02,_,05,N,01,000,A161510,36.79,20190103,,Y
20190207,FANH01,K02,_,01,N,01,000,A091180,11.25,20190201,,Y
20190207,FANH01,K02,_,01,N,01,000,A132030,3.78,20190201,,Y
20190207,FANH01,K02,_,01,N,01,000,A136340,41.77,20190201,,Y
20190207,FANH01,K02,_,01,N,01,000,A138230,6.21,20190201,,Y
20190207,FANH01,K02,_,01,N,01,000,A139280,33.74,20190201,,Y
20190207,FANH01,K02,_,01,N,01,000,A148070,3.22,20190201,,Y
20190207,FANH01,K02,_,02,N,01,000,A091180,11.25,20190201,,Y
20190207,FANH01,K02,_,02,N,01,000,A132030,3.78,20190201,,Y
20190207,FANH01,K02,_,02,N,01,000,A136340,41.77,20190201,,Y
20190207,FANH01,K02,_,02,N,01,000,A138230,6.21,20190201,,Y
20190207,FANH01,K02,_,02,N,01,000,A139280,33.74,20190201,,Y
20190207,FANH01,K02,_,02,N,01,000,A148070,3.22,20190201,,Y
20190207,FANH01,K02,_,03,N,01,000,A091180,11.25,20190201,,Y
20190207,FANH01,K02,_,03,N,01,000,A132030,3.78,20190201,,Y
20190207,FANH01,K02,_,03,N,01,000,A136340,41.77,20190201,,Y
20190207,FANH01,K02,_,03,N,01,000,A138230,6.21,20190201,,Y
20190207,FANH01,K02,_,03,N,01,000,A139280,33.74,20190201,,Y
20190207,FANH01,K02,_,03,N,01,000,A148070,3.22,20190201,,Y
20190207,FANH01,K02,_,04,N,01,000,A091180,11.25,20190201,,Y
20190207,FANH01,K02,_,04,N,01,000,A132030,3.78,20190201,,Y
20190207,FANH01,K02,_,04,N,01,000,A136340,41.77,20190201,,Y
20190207,FANH01,K02,_,04,N,01,000,A138230,6.21,20190201,,Y
20190207,FANH01,K02,_,04,N,01,000,A139280,33.74,20190201,,Y
20190207,FANH01,K02,_,04,N,01,000,A148070,3.22,20190201,,Y
20190207,FANH01,K02,_,05,N,01,000,A091180,11.25,20190201,,Y
20190207,FANH01,K02,_,05,N,01,000,A132030,3.78,20190201,,Y
20190207,FANH01,K02,_,05,N,01,000,A136340,41.77,20190201,,Y
20190207,FANH01,K02,_,05,N,01,000,A138230,6.21,20190201,,Y
20190207,FANH01,K02,_,05,N,01,000,A139280,33.74,20190201,,Y
20190207,FANH01,K02,_,05,N,01,000,A148070,3.22,20190201,,Y
20190304,FANH01,K02,_,01,N,01,000,A108450,7.38,20190228,,Y
20190304,FANH01,K02,_,01,N,01,000,A122090,2.74,20190228,,Y
20190304,FANH01,K02,_,01,N,01,000,A132030,9.42,20190228,,Y
20190304,FANH01,K02,_,01,N,01,000,A139260,1.75,20190228,,Y
20190304,FANH01,K02,_,01,N,01,000,A145850,4.74,20190228,,Y
20190304,FANH01,K02,_,01,N,01,000,A153130,39.21,20190228,,Y
20190304,FANH01,K02,_,01,N,01,000,A161510,33.36,20190228,,Y
20190304,FANH01,K02,_,02,N,01,000,A108450,7.38,20190228,,Y
20190304,FANH01,K02,_,02,N,01,000,A122090,2.74,20190228,,Y
20190304,FANH01,K02,_,02,N,01,000,A132030,9.42,20190228,,Y
20190304,FANH01,K02,_,02,N,01,000,A139260,1.75,20190228,,Y
20190304,FANH01,K02,_,02,N,01,000,A145850,4.74,20190228,,Y
20190304,FANH01,K02,_,02,N,01,000,A153130,39.21,20190228,,Y
20190304,FANH01,K02,_,02,N,01,000,A161510,33.36,20190228,,Y
20190304,FANH01,K02,_,03,N,01,000,A108450,7.38,20190228,,Y
20190304,FANH01,K02,_,03,N,01,000,A122090,2.74,20190228,,Y
20190304,FANH01,K02,_,03,N,01,000,A132030,9.42,20190228,,Y
20190304,FANH01,K02,_,03,N,01,000,A139260,1.75,20190228,,Y
20190304,FANH01,K02,_,03,N,01,000,A145850,4.74,20190228,,Y
20190304,FANH01,K02,_,03,N,01,000,A153130,39.21,20190228,,Y
20190304,FANH01,K02,_,03,N,01,000,A161510,33.36,20190228,,Y
20190304,FANH01,K02,_,04,N,01,000,A108450,7.38,20190228,,Y
20190304,FANH01,K02,_,04,N,01,000,A122090,2.74,20190228,,Y
20190304,FANH01,K02,_,04,N,01,000,A132030,9.42,20190228,,Y
20190304,FANH01,K02,_,04,N,01,000,A139260,1.75,20190228,,Y
20190304,FANH01,K02,_,04,N,01,000,A145850,4.74,20190228,,Y
20190304,FANH01,K02,_,04,N,01,000,A153130,39.21,20190228,,Y
20190304,FANH01,K02,_,04,N,01,000,A161510,33.36,20190228,,Y
20190304,FANH01,K02,_,05,N,01,000,A108450,7.38,20190228,,Y
20190304,FANH01,K02,_,05,N,01,000,A122090,2.74,20190228,,Y
20190304,FANH01,K02,_,05,N,01,000,A132030,9.42,20190228,,Y
20190304,FANH01,K02,_,05,N,01,000,A139260,1.75,20190228,,Y
20190304,FANH01,K02,_,05,N,01,000,A145850,4.74,20190228,,Y
20190304,FANH01,K02,_,05,N,01,000,A153130,39.21,20190228,,Y
20190304,FANH01,K02,_,05,N,01,000,A161510,33.36,20190228,,Y
20190404,FANH01,K02,_,01,N,01,000,A104530,16.53,20190403,,Y
20190404,FANH01,K02,_,01,N,01,000,A122090,11.16,20190403,,Y
20190404,FANH01,K02,_,01,N,01,000,A130680,3.01,20190403,,Y
20190404,FANH01,K02,_,01,N,01,000,A143860,10.05,20190403,,Y
20190404,FANH01,K02,_,01,N,01,000,A147970,7.05,20190403,,Y
20190404,FANH01,K02,_,01,N,01,000,A150460,5.18,20190403,,Y
20190404,FANH01,K02,_,01,N,01,000,A153130,39.61,20190403,,Y
20190404,FANH01,K02,_,01,N,01,000,A160580,6.98,20190403,,Y
20190404,FANH01,K02,_,02,N,01,000,A104530,16.53,20190403,,Y
20190404,FANH01,K02,_,02,N,01,000,A122090,11.16,20190403,,Y
20190404,FANH01,K02,_,02,N,01,000,A130680,3.01,20190403,,Y
20190404,FANH01,K02,_,02,N,01,000,A143860,10.05,20190403,,Y
20190404,FANH01,K02,_,02,N,01,000,A147970,7.05,20190403,,Y
20190404,FANH01,K02,_,02,N,01,000,A150460,5.18,20190403,,Y
20190404,FANH01,K02,_,02,N,01,000,A153130,39.61,20190403,,Y
20190404,FANH01,K02,_,02,N,01,000,A160580,6.98,20190403,,Y
20190404,FANH01,K02,_,03,N,01,000,A104530,16.53,20190403,,Y
20190404,FANH01,K02,_,03,N,01,000,A122090,11.16,20190403,,Y
20190404,FANH01,K02,_,03,N,01,000,A130680,3.01,20190403,,Y
20190404,FANH01,K02,_,03,N,01,000,A143860,10.05,20190403,,Y
20190404,FANH01,K02,_,03,N,01,000,A147970,7.05,20190403,,Y
20190404,FANH01,K02,_,03,N,01,000,A150460,5.18,20190403,,Y
20190404,FANH01,K02,_,03,N,01,000,A153130,39.61,20190403,,Y
20190404,FANH01,K02,_,03,N,01,000,A160580,6.98,20190403,,Y
20190404,FANH01,K02,_,04,N,01,000,A104530,16.53,20190403,,Y
20190404,FANH01,K02,_,04,N,01,000,A122090,11.16,20190403,,Y
20190404,FANH01,K02,_,04,N,01,000,A130680,3.01,20190403,,Y
20190404,FANH01,K02,_,04,N,01,000,A143860,10.05,20190403,,Y
20190404,FANH01,K02,_,04,N,01,000,A147970,7.05,20190403,,Y
20190404,FANH01,K02,_,04,N,01,000,A150460,5.18,20190403,,Y
20190404,FANH01,K02,_,04,N,01,000,A153130,39.61,20190403,,Y
20190404,FANH01,K02,_,04,N,01,000,A160580,6.98,20190403,,Y
20190404,FANH01,K02,_,05,N,01,000,A104530,16.53,20190403,,Y
20190404,FANH01,K02,_,05,N,01,000,A122090,11.16,20190403,,Y
20190404,FANH01,K02,_,05,N,01,000,A130680,3.01,20190403,,Y
20190404,FANH01,K02,_,05,N,01,000,A143860,10.05,20190403,,Y
20190404,FANH01,K02,_,05,N,01,000,A147970,7.05,20190403,,Y
20190404,FANH01,K02,_,05,N,01,000,A150460,5.18,20190403,,Y
20190404,FANH01,K02,_,05,N,01,000,A153130,39.61,20190403,,Y
20190404,FANH01,K02,_,05,N,01,000,A160580,6.98,20190403,,Y
20190507,FANH01,K02,_,01,N,01,000,A091160,3.29,20190503,,Y
20190507,FANH01,K02,_,01,N,01,000,A104530,20.19,20190503,,Y
20190507,FANH01,K02,_,01,N,01,000,A122090,11.88,20190503,,Y
20190507,FANH01,K02,_,01,N,01,000,A130680,2.74,20190503,,Y
20190507,FANH01,K02,_,01,N,01,000,A136340,36.63,20190503,,Y
20190507,FANH01,K02,_,01,N,01,000,A147970,8.45,20190503,,Y
20190507,FANH01,K02,_,01,N,01,000,A148070,3.36,20190503,,Y
20190507,FANH01,K02,_,01,N,01,000,A150460,6.16,20190503,,Y
20190507,FANH01,K02,_,01,N,01,000,A160580,7.25,20190503,,Y
20190507,FANH01,K02,_,02,N,01,000,A091160,3.29,20190503,,Y
20190507,FANH01,K02,_,02,N,01,000,A104530,20.19,20190503,,Y
20190507,FANH01,K02,_,02,N,01,000,A122090,11.88,20190503,,Y
20190507,FANH01,K02,_,02,N,01,000,A130680,2.74,20190503,,Y
20190507,FANH01,K02,_,02,N,01,000,A136340,36.63,20190503,,Y
20190507,FANH01,K02,_,02,N,01,000,A147970,8.45,20190503,,Y
20190507,FANH01,K02,_,02,N,01,000,A148070,3.36,20190503,,Y
20190507,FANH01,K02,_,02,N,01,000,A150460,6.16,20190503,,Y
20190507,FANH01,K02,_,02,N,01,000,A160580,7.25,20190503,,Y
20190507,FANH01,K02,_,03,N,01,000,A091160,3.29,20190503,,Y
20190507,FANH01,K02,_,03,N,01,000,A104530,20.19,20190503,,Y
20190507,FANH01,K02,_,03,N,01,000,A122090,11.88,20190503,,Y
20190507,FANH01,K02,_,03,N,01,000,A130680,2.74,20190503,,Y
20190507,FANH01,K02,_,03,N,01,000,A136340,36.63,20190503,,Y
20190507,FANH01,K02,_,03,N,01,000,A147970,8.45,20190503,,Y
20190507,FANH01,K02,_,03,N,01,000,A148070,3.36,20190503,,Y
20190507,FANH01,K02,_,03,N,01,000,A150460,6.16,20190503,,Y
20190507,FANH01,K02,_,03,N,01,000,A160580,7.25,20190503,,Y
20190507,FANH01,K02,_,04,N,01,000,A091160,3.29,20190503,,Y
20190507,FANH01,K02,_,04,N,01,000,A104530,20.19,20190503,,Y
20190507,FANH01,K02,_,04,N,01,000,A122090,11.88,20190503,,Y
20190507,FANH01,K02,_,04,N,01,000,A130680,2.74,20190503,,Y
20190507,FANH01,K02,_,04,N,01,000,A136340,36.63,20190503,,Y
20190507,FANH01,K02,_,04,N,01,000,A147970,8.45,20190503,,Y
20190507,FANH01,K02,_,04,N,01,000,A148070,3.36,20190503,,Y
20190507,FANH01,K02,_,04,N,01,000,A150460,6.16,20190503,,Y
20190507,FANH01,K02,_,04,N,01,000,A160580,7.25,20190503,,Y
20190507,FANH01,K02,_,05,N,01,000,A091160,3.29,20190503,,Y
20190507,FANH01,K02,_,05,N,01,000,A104530,20.19,20190503,,Y
20190507,FANH01,K02,_,05,N,01,000,A122090,11.88,20190503,,Y
20190507,FANH01,K02,_,05,N,01,000,A130680,2.74,20190503,,Y
20190507,FANH01,K02,_,05,N,01,000,A136340,36.63,20190503,,Y
20190507,FANH01,K02,_,05,N,01,000,A147970,8.45,20190503,,Y
20190507,FANH01,K02,_,05,N,01,000,A148070,3.36,20190503,,Y
20190507,FANH01,K02,_,05,N,01,000,A150460,6.16,20190503,,Y
20190507,FANH01,K02,_,05,N,01,000,A160580,7.25,20190503,,Y
20190604,FANH01,K02,_,01,N,01,000,A091160,2.33,20190603,,Y
20190604,FANH01,K02,_,01,N,01,000,A104530,16.95,20190603,,Y
20190604,FANH01,K02,_,01,N,01,000,A122090,3.63,20190603,,Y
20190604,FANH01,K02,_,01,N,01,000,A131890,4.65,20190603,,Y
20190604,FANH01,K02,_,01,N,01,000,A138230,16.4,20190603,,Y
20190604,FANH01,K02,_,01,N,01,000,A147970,22.42,20190603,,Y
20190604,FANH01,K02,_,01,N,01,000,A153130,29.69,20190603,,Y
20190604,FANH01,K02,_,01,N,01,000,A160580,3.59,20190603,,Y
20190604,FANH01,K02,_,02,N,01,000,A091160,2.33,20190603,,Y
20190604,FANH01,K02,_,02,N,01,000,A104530,16.95,20190603,,Y
20190604,FANH01,K02,_,02,N,01,000,A122090,3.63,20190603,,Y
20190604,FANH01,K02,_,02,N,01,000,A131890,4.65,20190603,,Y
20190604,FANH01,K02,_,02,N,01,000,A138230,16.4,20190603,,Y
20190604,FANH01,K02,_,02,N,01,000,A147970,22.42,20190603,,Y
20190604,FANH01,K02,_,02,N,01,000,A153130,29.69,20190603,,Y
20190604,FANH01,K02,_,02,N,01,000,A160580,3.59,20190603,,Y
20190604,FANH01,K02,_,03,N,01,000,A091160,2.33,20190603,,Y
20190604,FANH01,K02,_,03,N,01,000,A104530,16.95,20190603,,Y
20190604,FANH01,K02,_,03,N,01,000,A122090,3.63,20190603,,Y
20190604,FANH01,K02,_,03,N,01,000,A131890,4.65,20190603,,Y
20190604,FANH01,K02,_,03,N,01,000,A138230,16.4,20190603,,Y
20190604,FANH01,K02,_,03,N,01,000,A147970,22.42,20190603,,Y
20190604,FANH01,K02,_,03,N,01,000,A153130,29.69,20190603,,Y
20190604,FANH01,K02,_,03,N,01,000,A160580,3.59,20190603,,Y
20190604,FANH01,K02,_,04,N,01,000,A091160,2.33,20190603,,Y
20190604,FANH01,K02,_,04,N,01,000,A104530,16.95,20190603,,Y
20190604,FANH01,K02,_,04,N,01,000,A122090,3.63,20190603,,Y
20190604,FANH01,K02,_,04,N,01,000,A131890,4.65,20190603,,Y
20190604,FANH01,K02,_,04,N,01,000,A138230,16.4,20190603,,Y
20190604,FANH01,K02,_,04,N,01,000,A147970,22.42,20190603,,Y
20190604,FANH01,K02,_,04,N,01,000,A153130,29.69,20190603,,Y
20190604,FANH01,K02,_,04,N,01,000,A160580,3.59,20190603,,Y
20190604,FANH01,K02,_,05,N,01,000,A091160,2.33,20190603,,Y
20190604,FANH01,K02,_,05,N,01,000,A104530,16.95,20190603,,Y
20190604,FANH01,K02,_,05,N,01,000,A122090,3.63,20190603,,Y
20190604,FANH01,K02,_,05,N,01,000,A131890,4.65,20190603,,Y
20190604,FANH01,K02,_,05,N,01,000,A138230,16.4,20190603,,Y
20190604,FANH01,K02,_,05,N,01,000,A147970,22.42,20190603,,Y
20190604,FANH01,K02,_,05,N,01,000,A153130,29.69,20190603,,Y
20190604,FANH01,K02,_,05,N,01,000,A160580,3.59,20190603,,Y
20190704,FANH01,K02,_,01,N,01,000,A102970,60.0,20190703,,Y
20190704,FANH01,K02,_,01,N,01,000,A132030,3.94,20190703,,Y
20190704,FANH01,K02,_,01,N,01,000,A136340,18.6,20190703,,Y
20190704,FANH01,K02,_,01,N,01,000,A138230,16.05,20190703,,Y
20190704,FANH01,K02,_,01,N,01,000,A148070,1.39,20190703,,Y
20190704,FANH01,K02,_,02,N,01,000,A102970,60.0,20190703,,Y
20190704,FANH01,K02,_,02,N,01,000,A132030,3.94,20190703,,Y
20190704,FANH01,K02,_,02,N,01,000,A136340,18.6,20190703,,Y
20190704,FANH01,K02,_,02,N,01,000,A138230,16.05,20190703,,Y
20190704,FANH01,K02,_,02,N,01,000,A148070,1.39,20190703,,Y
20190704,FANH01,K02,_,03,N,01,000,A102970,60.0,20190703,,Y
20190704,FANH01,K02,_,03,N,01,000,A132030,3.94,20190703,,Y
20190704,FANH01,K02,_,03,N,01,000,A136340,18.6,20190703,,Y
20190704,FANH01,K02,_,03,N,01,000,A138230,16.05,20190703,,Y
20190704,FANH01,K02,_,03,N,01,000,A148070,1.39,20190703,,Y
20190704,FANH01,K02,_,04,N,01,000,A102970,60.0,20190703,,Y
20190704,FANH01,K02,_,04,N,01,000,A132030,3.94,20190703,,Y
20190704,FANH01,K02,_,04,N,01,000,A136340,18.6,20190703,,Y
20190704,FANH01,K02,_,04,N,01,000,A138230,16.05,20190703,,Y
20190704,FANH01,K02,_,04,N,01,000,A148070,1.39,20190703,,Y
20190704,FANH01,K02,_,05,N,01,000,A102970,60.0,20190703,,Y
20190704,FANH01,K02,_,05,N,01,000,A132030,3.94,20190703,,Y
20190704,FANH01,K02,_,05,N,01,000,A136340,18.6,20190703,,Y
20190704,FANH01,K02,_,05,N,01,000,A138230,16.05,20190703,,Y
20190704,FANH01,K02,_,05,N,01,000,A148070,1.39,20190703,,Y
20190805,FANH01,K02,_,01,N,01,000,A104530,13.98,20190802,,Y
20190805,FANH01,K02,_,01,N,01,000,A122090,5.95,20190802,,Y
20190805,FANH01,K02,_,01,N,01,000,A130680,1.76,20190802,,Y
20190805,FANH01,K02,_,01,N,01,000,A131890,12.28,20190802,,Y
20190805,FANH01,K02,_,01,N,01,000,A132030,8.23,20190802,,Y
20190805,FANH01,K02,_,01,N,01,000,A136340,41.45,20190802,,Y
20190805,FANH01,K02,_,01,N,01,000,A139260,5.86,20190802,,Y
20190805,FANH01,K02,_,01,N,01,000,A145850,6.9,20190802,,Y
20190805,FANH01,K02,_,01,N,01,000,A148070,3.54,20190802,,Y
20190805,FANH01,K02,_,02,N,01,000,A104530,13.98,20190802,,Y
20190805,FANH01,K02,_,02,N,01,000,A122090,5.95,20190802,,Y
20190805,FANH01,K02,_,02,N,01,000,A130680,1.76,20190802,,Y
20190805,FANH01,K02,_,02,N,01,000,A131890,12.28,20190802,,Y
20190805,FANH01,K02,_,02,N,01,000,A132030,8.23,20190802,,Y
20190805,FANH01,K02,_,02,N,01,000,A136340,41.45,20190802,,Y
20190805,FANH01,K02,_,02,N,01,000,A139260,5.86,20190802,,Y
20190805,FANH01,K02,_,02,N,01,000,A145850,6.9,20190802,,Y
20190805,FANH01,K02,_,02,N,01,000,A148070,3.54,20190802,,Y
20190805,FANH01,K02,_,03,N,01,000,A104530,13.98,20190802,,Y
20190805,FANH01,K02,_,03,N,01,000,A122090,5.95,20190802,,Y
20190805,FANH01,K02,_,03,N,01,000,A130680,1.76,20190802,,Y
20190805,FANH01,K02,_,03,N,01,000,A131890,12.28,20190802,,Y
20190805,FANH01,K02,_,03,N,01,000,A132030,8.23,20190802,,Y
20190805,FANH01,K02,_,03,N,01,000,A136340,41.45,20190802,,Y
20190805,FANH01,K02,_,03,N,01,000,A139260,5.86,20190802,,Y
20190805,FANH01,K02,_,03,N,01,000,A145850,6.9,20190802,,Y
20190805,FANH01,K02,_,03,N,01,000,A148070,3.54,20190802,,Y
20190805,FANH01,K02,_,04,N,01,000,A104530,13.98,20190802,,Y
20190805,FANH01,K02,_,04,N,01,000,A122090,5.95,20190802,,Y
20190805,FANH01,K02,_,04,N,01,000,A130680,1.76,20190802,,Y
20190805,FANH01,K02,_,04,N,01,000,A131890,12.28,20190802,,Y
20190805,FANH01,K02,_,04,N,01,000,A132030,8.23,20190802,,Y
20190805,FANH01,K02,_,04,N,01,000,A136340,41.45,20190802,,Y
20190805,FANH01,K02,_,04,N,01,000,A139260,5.86,20190802,,Y
20190805,FANH01,K02,_,04,N,01,000,A145850,6.9,20190802,,Y
20190805,FANH01,K02,_,04,N,01,000,A148070,3.54,20190802,,Y
20190805,FANH01,K02,_,05,N,01,000,A104530,13.98,20190802,,Y
20190805,FANH01,K02,_,05,N,01,000,A122090,5.95,20190802,,Y
20190805,FANH01,K02,_,05,N,01,000,A130680,1.76,20190802,,Y
20190805,FANH01,K02,_,05,N,01,000,A131890,12.28,20190802,,Y
20190805,FANH01,K02,_,05,N,01,000,A132030,8.23,20190802,,Y
20190805,FANH01,K02,_,05,N,01,000,A136340,41.45,20190802,,Y
20190805,FANH01,K02,_,05,N,01,000,A139260,5.86,20190802,,Y
20190805,FANH01,K02,_,05,N,01,000,A145850,6.9,20190802,,Y
20190805,FANH01,K02,_,05,N,01,000,A148070,3.54,20190802,,Y
20190904,FANH01,K02,_,01,N,01,000,A136340,18.44,20190903,,Y
20190904,FANH01,K02,_,01,N,01,000,A138230,17.89,20190903,,Y
20190904,FANH01,K02,_,01,N,01,000,A144600,2.1,20190903,,Y
20190904,FANH01,K02,_,01,N,01,000,A148070,1.55,20190903,,Y
20190904,FANH01,K02,_,01,N,01,000,A157490,60.0,20190903,,Y
20190904,FANH01,K02,_,02,N,01,000,A136340,18.44,20190903,,Y
20190904,FANH01,K02,_,02,N,01,000,A138230,17.89,20190903,,Y
20190904,FANH01,K02,_,02,N,01,000,A144600,2.1,20190903,,Y
20190904,FANH01,K02,_,02,N,01,000,A148070,1.55,20190903,,Y
20190904,FANH01,K02,_,02,N,01,000,A157490,60.0,20190903,,Y
20190904,FANH01,K02,_,03,N,01,000,A136340,18.44,20190903,,Y
20190904,FANH01,K02,_,03,N,01,000,A138230,17.89,20190903,,Y
20190904,FANH01,K02,_,03,N,01,000,A144600,2.1,20190903,,Y
20190904,FANH01,K02,_,03,N,01,000,A148070,1.55,20190903,,Y
20190904,FANH01,K02,_,03,N,01,000,A157490,60.0,20190903,,Y
20190904,FANH01,K02,_,04,N,01,000,A136340,18.44,20190903,,Y
20190904,FANH01,K02,_,04,N,01,000,A138230,17.89,20190903,,Y
20190904,FANH01,K02,_,04,N,01,000,A144600,2.1,20190903,,Y
20190904,FANH01,K02,_,04,N,01,000,A148070,1.55,20190903,,Y
20190904,FANH01,K02,_,04,N,01,000,A157490,60.0,20190903,,Y
20190904,FANH01,K02,_,05,N,01,000,A136340,18.44,20190903,,Y
20190904,FANH01,K02,_,05,N,01,000,A138230,17.89,20190903,,Y
20190904,FANH01,K02,_,05,N,01,000,A144600,2.1,20190903,,Y
20190904,FANH01,K02,_,05,N,01,000,A148070,1.55,20190903,,Y
20190904,FANH01,K02,_,05,N,01,000,A157490,60.0,20190903,,Y
20191004,FANH01,K02,_,01,N,01,000,A132030,2.75,20191002,,Y
20191004,FANH01,K02,_,01,N,01,000,A136340,18.5,20191002,,Y
20191004,FANH01,K02,_,01,N,01,000,A138230,17.24,20191002,,Y
20191004,FANH01,K02,_,01,N,01,000,A148070,1.49,20191002,,Y
20191004,FANH01,K02,_,01,N,01,000,A157490,60.0,20191002,,Y
20191004,FANH01,K02,_,02,N,01,000,A132030,2.75,20191002,,Y
20191004,FANH01,K02,_,02,N,01,000,A136340,18.5,20191002,,Y
20191004,FANH01,K02,_,02,N,01,000,A138230,17.24,20191002,,Y
20191004,FANH01,K02,_,02,N,01,000,A148070,1.49,20191002,,Y
20191004,FANH01,K02,_,02,N,01,000,A157490,60.0,20191002,,Y
20191004,FANH01,K02,_,03,N,01,000,A132030,2.75,20191002,,Y
20191004,FANH01,K02,_,03,N,01,000,A136340,18.5,20191002,,Y
20191004,FANH01,K02,_,03,N,01,000,A138230,17.24,20191002,,Y
20191004,FANH01,K02,_,03,N,01,000,A148070,1.49,20191002,,Y
20191004,FANH01,K02,_,03,N,01,000,A157490,60.0,20191002,,Y
20191004,FANH01,K02,_,04,N,01,000,A132030,2.75,20191002,,Y
20191004,FANH01,K02,_,04,N,01,000,A136340,18.5,20191002,,Y
20191004,FANH01,K02,_,04,N,01,000,A138230,17.24,20191002,,Y
20191004,FANH01,K02,_,04,N,01,000,A148070,1.49,20191002,,Y
20191004,FANH01,K02,_,04,N,01,000,A157490,60.0,20191002,,Y
20191004,FANH01,K02,_,05,N,01,000,A132030,2.75,20191002,,Y
20191004,FANH01,K02,_,05,N,01,000,A136340,18.5,20191002,,Y
20191004,FANH01,K02,_,05,N,01,000,A138230,17.24,20191002,,Y
20191004,FANH01,K02,_,05,N,01,000,A148070,1.49,20191002,,Y
20191004,FANH01,K02,_,05,N,01,000,A157490,60.0,20191002,,Y
20191104,FANH01,K02,_,01,N,01,000,A091160,5.64,20191101,,Y
20191104,FANH01,K02,_,01,N,01,000,A108450,8.87,20191101,,Y
20191104,FANH01,K02,_,01,N,01,000,A122090,5.77,20191101,,Y
20191104,FANH01,K02,_,01,N,01,000,A132030,9.61,20191101,,Y
20191104,FANH01,K02,_,01,N,01,000,A137610,10.38,20191101,,Y
20191104,FANH01,K02,_,01,N,01,000,A145850,7.18,20191101,,Y
20191104,FANH01,K02,_,01,N,01,000,A153130,19.81,20191101,,Y
20191104,FANH01,K02,_,01,N,01,000,A161510,32.51,20191101,,Y
20191104,FANH01,K02,_,02,N,01,000,A091160,5.64,20191101,,Y
20191104,FANH01,K02,_,02,N,01,000,A108450,8.87,20191101,,Y
20191104,FANH01,K02,_,02,N,01,000,A122090,5.77,20191101,,Y
20191104,FANH01,K02,_,02,N,01,000,A132030,9.61,20191101,,Y
20191104,FANH01,K02,_,02,N,01,000,A137610,10.38,20191101,,Y
20191104,FANH01,K02,_,02,N,01,000,A145850,7.18,20191101,,Y
20191104,FANH01,K02,_,02,N,01,000,A153130,19.81,20191101,,Y
20191104,FANH01,K02,_,02,N,01,000,A161510,32.51,20191101,,Y
20191104,FANH01,K02,_,03,N,01,000,A091160,5.64,20191101,,Y
20191104,FANH01,K02,_,03,N,01,000,A108450,8.87,20191101,,Y
20191104,FANH01,K02,_,03,N,01,000,A122090,5.77,20191101,,Y
20191104,FANH01,K02,_,03,N,01,000,A132030,9.61,20191101,,Y
20191104,FANH01,K02,_,03,N,01,000,A137610,10.38,20191101,,Y
20191104,FANH01,K02,_,03,N,01,000,A145850,7.18,20191101,,Y
20191104,FANH01,K02,_,03,N,01,000,A153130,19.81,20191101,,Y
20191104,FANH01,K02,_,03,N,01,000,A161510,32.51,20191101,,Y
20191104,FANH01,K02,_,04,N,01,000,A091160,5.64,20191101,,Y
20191104,FANH01,K02,_,04,N,01,000,A108450,8.87,20191101,,Y
20191104,FANH01,K02,_,04,N,01,000,A122090,5.77,20191101,,Y
20191104,FANH01,K02,_,04,N,01,000,A132030,9.61,20191101,,Y
20191104,FANH01,K02,_,04,N,01,000,A137610,10.38,20191101,,Y
20191104,FANH01,K02,_,04,N,01,000,A145850,7.18,20191101,,Y
20191104,FANH01,K02,_,04,N,01,000,A153130,19.81,20191101,,Y
20191104,FANH01,K02,_,04,N,01,000,A161510,32.51,20191101,,Y
20191104,FANH01,K02,_,05,N,01,000,A091160,5.64,20191101,,Y
20191104,FANH01,K02,_,05,N,01,000,A108450,8.87,20191101,,Y
20191104,FANH01,K02,_,05,N,01,000,A122090,5.77,20191101,,Y
20191104,FANH01,K02,_,05,N,01,000,A132030,9.61,20191101,,Y
20191104,FANH01,K02,_,05,N,01,000,A137610,10.38,20191101,,Y
20191104,FANH01,K02,_,05,N,01,000,A145850,7.18,20191101,,Y
20191104,FANH01,K02,_,05,N,01,000,A153130,19.81,20191101,,Y
20191104,FANH01,K02,_,05,N,01,000,A161510,32.51,20191101,,Y
