20161104,FANH01,K01,_,01,N,02,200,ACWI,3.75,20161103,,Y
20161104,FANH01,K01,_,02,N,02,200,ACWI,3.75,20161103,,Y
20161104,FANH01,K01,_,03,N,02,200,ACWI,3.75,20161103,,Y
20161104,FANH01,K01,_,04,N,02,200,ACWI,3.75,20161103,,Y
20161104,FANH01,K01,_,05,N,02,200,ACWI,3.75,20161103,,Y
20161104,FANH01,K01,_,01,N,02,200,DBC,5.0,20161103,,Y
20161104,FANH01,K01,_,02,N,02,200,DBC,5.0,20161103,,Y
20161104,FANH01,K01,_,03,N,02,200,DBC,5.0,20161103,,Y
20161104,FANH01,K01,_,04,N,02,200,DBC,5.0,20161103,,Y
20161104,FANH01,K01,_,05,N,02,200,DBC,5.0,20161103,,Y
20161104,FANH01,K01,_,01,N,02,200,DIA,3.75,20161103,,Y
20161104,FANH01,K01,_,02,N,02,200,DIA,3.75,20161103,,Y
20161104,FANH01,K01,_,03,N,02,200,DIA,3.75,20161103,,Y
20161104,FANH01,K01,_,04,N,02,200,DIA,3.75,20161103,,Y
20161104,FANH01,K01,_,05,N,02,200,DIA,3.75,20161103,,Y
20161104,FANH01,K01,_,01,N,02,200,EWJ,3.75,20161103,,Y
20161104,FANH01,K01,_,02,N,02,200,EWJ,3.75,20161103,,Y
20161104,FANH01,K01,_,03,N,02,200,EWJ,3.75,20161103,,Y
20161104,FANH01,K01,_,04,N,02,200,EWJ,3.75,20161103,,Y
20161104,FANH01,K01,_,05,N,02,200,EWJ,3.75,20161103,,Y
20161104,FANH01,K01,_,01,N,02,200,FDN,3.75,20161103,,Y
20161104,FANH01,K01,_,02,N,02,200,FDN,3.75,20161103,,Y
20161104,FANH01,K01,_,03,N,02,200,FDN,3.75,20161103,,Y
20161104,FANH01,K01,_,04,N,02,200,FDN,3.75,20161103,,Y
20161104,FANH01,K01,_,05,N,02,200,FDN,3.75,20161103,,Y
20161104,FANH01,K01,_,01,N,02,200,GLD,5.0,20161103,,Y
20161104,FANH01,K01,_,02,N,02,200,GLD,5.0,20161103,,Y
20161104,FANH01,K01,_,03,N,02,200,GLD,5.0,20161103,,Y
20161104,FANH01,K01,_,04,N,02,200,GLD,5.0,20161103,,Y
20161104,FANH01,K01,_,05,N,02,200,GLD,5.0,20161103,,Y
20161104,FANH01,K01,_,01,N,02,200,HEDJ,3.75,20161103,,Y
20161104,FANH01,K01,_,02,N,02,200,HEDJ,3.75,20161103,,Y
20161104,FANH01,K01,_,03,N,02,200,HEDJ,3.75,20161103,,Y
20161104,FANH01,K01,_,04,N,02,200,HEDJ,3.75,20161103,,Y
20161104,FANH01,K01,_,05,N,02,200,HEDJ,3.75,20161103,,Y
20161104,FANH01,K01,_,01,N,02,200,MGV,3.75,20161103,,Y
20161104,FANH01,K01,_,02,N,02,200,MGV,3.75,20161103,,Y
20161104,FANH01,K01,_,03,N,02,200,MGV,3.75,20161103,,Y
20161104,FANH01,K01,_,04,N,02,200,MGV,3.75,20161103,,Y
20161104,FANH01,K01,_,05,N,02,200,MGV,3.75,20161103,,Y
20161104,FANH01,K01,_,01,N,02,200,PRFZ,3.75,20161103,,Y
20161104,FANH01,K01,_,02,N,02,200,PRFZ,3.75,20161103,,Y
20161104,FANH01,K01,_,03,N,02,200,PRFZ,3.75,20161103,,Y
20161104,FANH01,K01,_,04,N,02,200,PRFZ,3.75,20161103,,Y
20161104,FANH01,K01,_,05,N,02,200,PRFZ,3.75,20161103,,Y
20161104,FANH01,K01,_,01,N,02,200,SMH,3.75,20161103,,Y
20161104,FANH01,K01,_,02,N,02,200,SMH,3.75,20161103,,Y
20161104,FANH01,K01,_,03,N,02,200,SMH,3.75,20161103,,Y
20161104,FANH01,K01,_,04,N,02,200,SMH,3.75,20161103,,Y
20161104,FANH01,K01,_,05,N,02,200,SMH,3.75,20161103,,Y
20161104,FANH01,K01,_,01,N,02,200,VNQ,3.75,20161103,,Y
20161104,FANH01,K01,_,02,N,02,200,VNQ,3.75,20161103,,Y
20161104,FANH01,K01,_,03,N,02,200,VNQ,3.75,20161103,,Y
20161104,FANH01,K01,_,04,N,02,200,VNQ,3.75,20161103,,Y
20161104,FANH01,K01,_,05,N,02,200,VNQ,3.75,20161103,,Y
20161104,FANH01,K01,_,01,N,02,200,XAR,3.75,20161103,,Y
20161104,FANH01,K01,_,02,N,02,200,XAR,3.75,20161103,,Y
20161104,FANH01,K01,_,03,N,02,200,XAR,3.75,20161103,,Y
20161104,FANH01,K01,_,04,N,02,200,XAR,3.75,20161103,,Y
20161104,FANH01,K01,_,05,N,02,200,XAR,3.75,20161103,,Y
20161104,FANH01,K01,_,01,N,02,200,XLE,3.75,20161103,,Y
20161104,FANH01,K01,_,02,N,02,200,XLE,3.75,20161103,,Y
20161104,FANH01,K01,_,03,N,02,200,XLE,3.75,20161103,,Y
20161104,FANH01,K01,_,04,N,02,200,XLE,3.75,20161103,,Y
20161104,FANH01,K01,_,05,N,02,200,XLE,3.75,20161103,,Y
20161104,FANH01,K01,_,01,N,02,200,XLF,3.75,20161103,,Y
20161104,FANH01,K01,_,02,N,02,200,XLF,3.75,20161103,,Y
20161104,FANH01,K01,_,03,N,02,200,XLF,3.75,20161103,,Y
20161104,FANH01,K01,_,04,N,02,200,XLF,3.75,20161103,,Y
20161104,FANH01,K01,_,05,N,02,200,XLF,3.75,20161103,,Y
