20160906,FANH01,K01,_,01,N,02,200,BSV,45.0,20160902,,Y
20160906,FANH01,K01,_,02,N,02,200,BSV,45.0,20160902,,Y
20160906,FANH01,K01,_,03,N,02,200,BSV,45.0,20160902,,Y
20160906,FANH01,K01,_,04,N,02,200,BSV,45.0,20160902,,Y
20160906,FANH01,K01,_,05,N,02,200,BSV,45.0,20160902,,Y
20160906,FANH01,K01,_,01,N,02,200,DBEF,3.21,20160902,,Y
20160906,FANH01,K01,_,02,N,02,200,DBEF,3.21,20160902,,Y
20160906,FANH01,K01,_,03,N,02,200,DBEF,3.21,20160902,,Y
20160906,FANH01,K01,_,04,N,02,200,DBEF,3.21,20160902,,Y
20160906,FANH01,K01,_,05,N,02,200,DBEF,3.21,20160902,,Y
20160906,FANH01,K01,_,01,N,02,200,EWJ,3.21,20160902,,Y
20160906,FANH01,K01,_,02,N,02,200,EWJ,3.21,20160902,,Y
20160906,FANH01,K01,_,03,N,02,200,EWJ,3.21,20160902,,Y
20160906,FANH01,K01,_,04,N,02,200,EWJ,3.21,20160902,,Y
20160906,FANH01,K01,_,05,N,02,200,EWJ,3.21,20160902,,Y
20160906,FANH01,K01,_,01,N,02,200,EWU,3.21,20160902,,Y
20160906,FANH01,K01,_,02,N,02,200,EWU,3.21,20160902,,Y
20160906,FANH01,K01,_,03,N,02,200,EWU,3.21,20160902,,Y
20160906,FANH01,K01,_,04,N,02,200,EWU,3.21,20160902,,Y
20160906,FANH01,K01,_,05,N,02,200,EWU,3.21,20160902,,Y
20160906,FANH01,K01,_,01,N,02,200,FDL,3.21,20160902,,Y
20160906,FANH01,K01,_,02,N,02,200,FDL,3.21,20160902,,Y
20160906,FANH01,K01,_,03,N,02,200,FDL,3.21,20160902,,Y
20160906,FANH01,K01,_,04,N,02,200,FDL,3.21,20160902,,Y
20160906,FANH01,K01,_,05,N,02,200,FDL,3.21,20160902,,Y
20160906,FANH01,K01,_,01,N,02,200,FDN,3.21,20160902,,Y
20160906,FANH01,K01,_,02,N,02,200,FDN,3.21,20160902,,Y
20160906,FANH01,K01,_,03,N,02,200,FDN,3.21,20160902,,Y
20160906,FANH01,K01,_,04,N,02,200,FDN,3.21,20160902,,Y
20160906,FANH01,K01,_,05,N,02,200,FDN,3.21,20160902,,Y
20160906,FANH01,K01,_,01,N,02,200,FEZ,3.21,20160902,,Y
20160906,FANH01,K01,_,02,N,02,200,FEZ,3.21,20160902,,Y
20160906,FANH01,K01,_,03,N,02,200,FEZ,3.21,20160902,,Y
20160906,FANH01,K01,_,04,N,02,200,FEZ,3.21,20160902,,Y
20160906,FANH01,K01,_,05,N,02,200,FEZ,3.21,20160902,,Y
20160906,FANH01,K01,_,01,N,02,200,FVD,3.21,20160902,,Y
20160906,FANH01,K01,_,02,N,02,200,FVD,3.21,20160902,,Y
20160906,FANH01,K01,_,03,N,02,200,FVD,3.21,20160902,,Y
20160906,FANH01,K01,_,04,N,02,200,FVD,3.21,20160902,,Y
20160906,FANH01,K01,_,05,N,02,200,FVD,3.21,20160902,,Y
20160906,FANH01,K01,_,01,N,02,200,FXL,3.21,20160902,,Y
20160906,FANH01,K01,_,02,N,02,200,FXL,3.21,20160902,,Y
20160906,FANH01,K01,_,03,N,02,200,FXL,3.21,20160902,,Y
20160906,FANH01,K01,_,04,N,02,200,FXL,3.21,20160902,,Y
20160906,FANH01,K01,_,05,N,02,200,FXL,3.21,20160902,,Y
20160906,FANH01,K01,_,01,N,02,200,GLD,10.0,20160902,,Y
20160906,FANH01,K01,_,02,N,02,200,GLD,10.0,20160902,,Y
20160906,FANH01,K01,_,03,N,02,200,GLD,10.0,20160902,,Y
20160906,FANH01,K01,_,04,N,02,200,GLD,10.0,20160902,,Y
20160906,FANH01,K01,_,05,N,02,200,GLD,10.0,20160902,,Y
20160906,FANH01,K01,_,01,N,02,200,IHI,3.21,20160902,,Y
20160906,FANH01,K01,_,02,N,02,200,IHI,3.21,20160902,,Y
20160906,FANH01,K01,_,03,N,02,200,IHI,3.21,20160902,,Y
20160906,FANH01,K01,_,04,N,02,200,IHI,3.21,20160902,,Y
20160906,FANH01,K01,_,05,N,02,200,IHI,3.21,20160902,,Y
20160906,FANH01,K01,_,01,N,02,200,IJR,3.21,20160902,,Y
20160906,FANH01,K01,_,02,N,02,200,IJR,3.21,20160902,,Y
20160906,FANH01,K01,_,03,N,02,200,IJR,3.21,20160902,,Y
20160906,FANH01,K01,_,04,N,02,200,IJR,3.21,20160902,,Y
20160906,FANH01,K01,_,05,N,02,200,IJR,3.21,20160902,,Y
20160906,FANH01,K01,_,01,N,02,200,IYF,3.21,20160902,,Y
20160906,FANH01,K01,_,02,N,02,200,IYF,3.21,20160902,,Y
20160906,FANH01,K01,_,03,N,02,200,IYF,3.21,20160902,,Y
20160906,FANH01,K01,_,04,N,02,200,IYF,3.21,20160902,,Y
20160906,FANH01,K01,_,05,N,02,200,IYF,3.21,20160902,,Y
20160906,FANH01,K01,_,01,N,02,200,IYR,3.21,20160902,,Y
20160906,FANH01,K01,_,02,N,02,200,IYR,3.21,20160902,,Y
20160906,FANH01,K01,_,03,N,02,200,IYR,3.21,20160902,,Y
20160906,FANH01,K01,_,04,N,02,200,IYR,3.21,20160902,,Y
20160906,FANH01,K01,_,05,N,02,200,IYR,3.21,20160902,,Y
20160906,FANH01,K01,_,01,N,02,200,VAW,3.21,20160902,,Y
20160906,FANH01,K01,_,02,N,02,200,VAW,3.21,20160902,,Y
20160906,FANH01,K01,_,03,N,02,200,VAW,3.21,20160902,,Y
20160906,FANH01,K01,_,04,N,02,200,VAW,3.21,20160902,,Y
20160906,FANH01,K01,_,05,N,02,200,VAW,3.21,20160902,,Y
20160906,FANH01,K01,_,01,N,02,200,VDC,3.21,20160902,,Y
20160906,FANH01,K01,_,02,N,02,200,VDC,3.21,20160902,,Y
20160906,FANH01,K01,_,03,N,02,200,VDC,3.21,20160902,,Y
20160906,FANH01,K01,_,04,N,02,200,VDC,3.21,20160902,,Y
20160906,FANH01,K01,_,05,N,02,200,VDC,3.21,20160902,,Y
