20170206,FANH01,K01,_,01,N,02,200,ACWI,3.21,20170203,,Y
20170206,FANH01,K01,_,02,N,02,200,ACWI,3.21,20170203,,Y
20170206,FANH01,K01,_,03,N,02,200,ACWI,3.21,20170203,,Y
20170206,FANH01,K01,_,04,N,02,200,ACWI,3.21,20170203,,Y
20170206,FANH01,K01,_,05,N,02,200,ACWI,3.21,20170203,,Y
20170206,FANH01,K01,_,01,N,02,200,AMLP,3.21,20170203,,Y
20170206,FANH01,K01,_,02,N,02,200,AMLP,3.21,20170203,,Y
20170206,FANH01,K01,_,03,N,02,200,AMLP,3.21,20170203,,Y
20170206,FANH01,K01,_,04,N,02,200,AMLP,3.21,20170203,,Y
20170206,FANH01,K01,_,05,N,02,200,AMLP,3.21,20170203,,Y
20170206,FANH01,K01,_,01,N,02,200,DBC,5.0,20170203,,Y
20170206,FANH01,K01,_,02,N,02,200,DBC,5.0,20170203,,Y
20170206,FANH01,K01,_,03,N,02,200,DBC,5.0,20170203,,Y
20170206,FANH01,K01,_,04,N,02,200,DBC,5.0,20170203,,Y
20170206,FANH01,K01,_,05,N,02,200,DBC,5.0,20170203,,Y
20170206,FANH01,K01,_,01,N,02,200,DIA,3.21,20170203,,Y
20170206,FANH01,K01,_,02,N,02,200,DIA,3.21,20170203,,Y
20170206,FANH01,K01,_,03,N,02,200,DIA,3.21,20170203,,Y
20170206,FANH01,K01,_,04,N,02,200,DIA,3.21,20170203,,Y
20170206,FANH01,K01,_,05,N,02,200,DIA,3.21,20170203,,Y
20170206,FANH01,K01,_,01,N,02,200,DLN,3.21,20170203,,Y
20170206,FANH01,K01,_,02,N,02,200,DLN,3.21,20170203,,Y
20170206,FANH01,K01,_,03,N,02,200,DLN,3.21,20170203,,Y
20170206,FANH01,K01,_,04,N,02,200,DLN,3.21,20170203,,Y
20170206,FANH01,K01,_,05,N,02,200,DLN,3.21,20170203,,Y
20170206,FANH01,K01,_,01,N,02,200,DSI,3.21,20170203,,Y
20170206,FANH01,K01,_,02,N,02,200,DSI,3.21,20170203,,Y
20170206,FANH01,K01,_,03,N,02,200,DSI,3.21,20170203,,Y
20170206,FANH01,K01,_,04,N,02,200,DSI,3.21,20170203,,Y
20170206,FANH01,K01,_,05,N,02,200,DSI,3.21,20170203,,Y
20170206,FANH01,K01,_,01,N,02,200,EWA,3.21,20170203,,Y
20170206,FANH01,K01,_,02,N,02,200,EWA,3.21,20170203,,Y
20170206,FANH01,K01,_,03,N,02,200,EWA,3.21,20170203,,Y
20170206,FANH01,K01,_,04,N,02,200,EWA,3.21,20170203,,Y
20170206,FANH01,K01,_,05,N,02,200,EWA,3.21,20170203,,Y
20170206,FANH01,K01,_,01,N,02,200,EZM,3.21,20170203,,Y
20170206,FANH01,K01,_,02,N,02,200,EZM,3.21,20170203,,Y
20170206,FANH01,K01,_,03,N,02,200,EZM,3.21,20170203,,Y
20170206,FANH01,K01,_,04,N,02,200,EZM,3.21,20170203,,Y
20170206,FANH01,K01,_,05,N,02,200,EZM,3.21,20170203,,Y
20170206,FANH01,K01,_,01,N,02,200,FBT,3.21,20170203,,Y
20170206,FANH01,K01,_,02,N,02,200,FBT,3.21,20170203,,Y
20170206,FANH01,K01,_,03,N,02,200,FBT,3.21,20170203,,Y
20170206,FANH01,K01,_,04,N,02,200,FBT,3.21,20170203,,Y
20170206,FANH01,K01,_,05,N,02,200,FBT,3.21,20170203,,Y
20170206,FANH01,K01,_,01,N,02,200,FXL,3.21,20170203,,Y
20170206,FANH01,K01,_,02,N,02,200,FXL,3.21,20170203,,Y
20170206,FANH01,K01,_,03,N,02,200,FXL,3.21,20170203,,Y
20170206,FANH01,K01,_,04,N,02,200,FXL,3.21,20170203,,Y
20170206,FANH01,K01,_,05,N,02,200,FXL,3.21,20170203,,Y
20170206,FANH01,K01,_,01,N,02,200,GLD,5.0,20170203,,Y
20170206,FANH01,K01,_,02,N,02,200,GLD,5.0,20170203,,Y
20170206,FANH01,K01,_,03,N,02,200,GLD,5.0,20170203,,Y
20170206,FANH01,K01,_,04,N,02,200,GLD,5.0,20170203,,Y
20170206,FANH01,K01,_,05,N,02,200,GLD,5.0,20170203,,Y
20170206,FANH01,K01,_,01,N,02,200,HYG,45.0,20170203,,Y
20170206,FANH01,K01,_,02,N,02,200,HYG,45.0,20170203,,Y
20170206,FANH01,K01,_,03,N,02,200,HYG,45.0,20170203,,Y
20170206,FANH01,K01,_,04,N,02,200,HYG,45.0,20170203,,Y
20170206,FANH01,K01,_,05,N,02,200,HYG,45.0,20170203,,Y
20170206,FANH01,K01,_,01,N,02,200,IJH,3.21,20170203,,Y
20170206,FANH01,K01,_,02,N,02,200,IJH,3.21,20170203,,Y
20170206,FANH01,K01,_,03,N,02,200,IJH,3.21,20170203,,Y
20170206,FANH01,K01,_,04,N,02,200,IJH,3.21,20170203,,Y
20170206,FANH01,K01,_,05,N,02,200,IJH,3.21,20170203,,Y
20170206,FANH01,K01,_,01,N,02,200,IYF,3.21,20170203,,Y
20170206,FANH01,K01,_,02,N,02,200,IYF,3.21,20170203,,Y
20170206,FANH01,K01,_,03,N,02,200,IYF,3.21,20170203,,Y
20170206,FANH01,K01,_,04,N,02,200,IYF,3.21,20170203,,Y
20170206,FANH01,K01,_,05,N,02,200,IYF,3.21,20170203,,Y
20170206,FANH01,K01,_,01,N,02,200,USRT,3.21,20170203,,Y
20170206,FANH01,K01,_,02,N,02,200,USRT,3.21,20170203,,Y
20170206,FANH01,K01,_,03,N,02,200,USRT,3.21,20170203,,Y
20170206,FANH01,K01,_,04,N,02,200,USRT,3.21,20170203,,Y
20170206,FANH01,K01,_,05,N,02,200,USRT,3.21,20170203,,Y
20170206,FANH01,K01,_,01,N,02,200,VGK,3.21,20170203,,Y
20170206,FANH01,K01,_,02,N,02,200,VGK,3.21,20170203,,Y
20170206,FANH01,K01,_,03,N,02,200,VGK,3.21,20170203,,Y
20170206,FANH01,K01,_,04,N,02,200,VGK,3.21,20170203,,Y
20170206,FANH01,K01,_,05,N,02,200,VGK,3.21,20170203,,Y
20170206,FANH01,K01,_,01,N,02,200,XAR,3.21,20170203,,Y
20170206,FANH01,K01,_,02,N,02,200,XAR,3.21,20170203,,Y
20170206,FANH01,K01,_,03,N,02,200,XAR,3.21,20170203,,Y
20170206,FANH01,K01,_,04,N,02,200,XAR,3.21,20170203,,Y
20170206,FANH01,K01,_,05,N,02,200,XAR,3.21,20170203,,Y
