20170104,FANH01,K01,_,01,N,02,200,DBC,5.0,20170103,,Y
20170104,FANH01,K01,_,02,N,02,200,DBC,5.0,20170103,,Y
20170104,FANH01,K01,_,03,N,02,200,DBC,5.0,20170103,,Y
20170104,FANH01,K01,_,04,N,02,200,DBC,5.0,20170103,,Y
20170104,FANH01,K01,_,05,N,02,200,DBC,5.0,20170103,,Y
20170104,FANH01,K01,_,01,N,02,200,DBEF,3.21,20170103,,Y
20170104,FANH01,K01,_,02,N,02,200,DBEF,3.21,20170103,,Y
20170104,FANH01,K01,_,03,N,02,200,DBEF,3.21,20170103,,Y
20170104,FANH01,K01,_,04,N,02,200,DBEF,3.21,20170103,,Y
20170104,FANH01,K01,_,05,N,02,200,DBEF,3.21,20170103,,Y
20170104,FANH01,K01,_,01,N,02,200,DES,3.21,20170103,,Y
20170104,FANH01,K01,_,02,N,02,200,DES,3.21,20170103,,Y
20170104,FANH01,K01,_,03,N,02,200,DES,3.21,20170103,,Y
20170104,FANH01,K01,_,04,N,02,200,DES,3.21,20170103,,Y
20170104,FANH01,K01,_,05,N,02,200,DES,3.21,20170103,,Y
20170104,FANH01,K01,_,01,N,02,200,EWG,3.21,20170103,,Y
20170104,FANH01,K01,_,02,N,02,200,EWG,3.21,20170103,,Y
20170104,FANH01,K01,_,03,N,02,200,EWG,3.21,20170103,,Y
20170104,FANH01,K01,_,04,N,02,200,EWG,3.21,20170103,,Y
20170104,FANH01,K01,_,05,N,02,200,EWG,3.21,20170103,,Y
20170104,FANH01,K01,_,01,N,02,200,EWU,3.21,20170103,,Y
20170104,FANH01,K01,_,02,N,02,200,EWU,3.21,20170103,,Y
20170104,FANH01,K01,_,03,N,02,200,EWU,3.21,20170103,,Y
20170104,FANH01,K01,_,04,N,02,200,EWU,3.21,20170103,,Y
20170104,FANH01,K01,_,05,N,02,200,EWU,3.21,20170103,,Y
20170104,FANH01,K01,_,01,N,02,200,FEZ,3.21,20170103,,Y
20170104,FANH01,K01,_,02,N,02,200,FEZ,3.21,20170103,,Y
20170104,FANH01,K01,_,03,N,02,200,FEZ,3.21,20170103,,Y
20170104,FANH01,K01,_,04,N,02,200,FEZ,3.21,20170103,,Y
20170104,FANH01,K01,_,05,N,02,200,FEZ,3.21,20170103,,Y
20170104,FANH01,K01,_,01,N,02,200,FXU,3.21,20170103,,Y
20170104,FANH01,K01,_,02,N,02,200,FXU,3.21,20170103,,Y
20170104,FANH01,K01,_,03,N,02,200,FXU,3.21,20170103,,Y
20170104,FANH01,K01,_,04,N,02,200,FXU,3.21,20170103,,Y
20170104,FANH01,K01,_,05,N,02,200,FXU,3.21,20170103,,Y
20170104,FANH01,K01,_,01,N,02,200,GDX,5.0,20170103,,Y
20170104,FANH01,K01,_,02,N,02,200,GDX,5.0,20170103,,Y
20170104,FANH01,K01,_,03,N,02,200,GDX,5.0,20170103,,Y
20170104,FANH01,K01,_,04,N,02,200,GDX,5.0,20170103,,Y
20170104,FANH01,K01,_,05,N,02,200,GDX,5.0,20170103,,Y
20170104,FANH01,K01,_,01,N,02,200,GNR,3.21,20170103,,Y
20170104,FANH01,K01,_,02,N,02,200,GNR,3.21,20170103,,Y
20170104,FANH01,K01,_,03,N,02,200,GNR,3.21,20170103,,Y
20170104,FANH01,K01,_,04,N,02,200,GNR,3.21,20170103,,Y
20170104,FANH01,K01,_,05,N,02,200,GNR,3.21,20170103,,Y
20170104,FANH01,K01,_,01,N,02,200,HYG,45.0,20170103,,Y
20170104,FANH01,K01,_,02,N,02,200,HYG,45.0,20170103,,Y
20170104,FANH01,K01,_,03,N,02,200,HYG,45.0,20170103,,Y
20170104,FANH01,K01,_,04,N,02,200,HYG,45.0,20170103,,Y
20170104,FANH01,K01,_,05,N,02,200,HYG,45.0,20170103,,Y
20170104,FANH01,K01,_,01,N,02,200,IHI,3.21,20170103,,Y
20170104,FANH01,K01,_,02,N,02,200,IHI,3.21,20170103,,Y
20170104,FANH01,K01,_,03,N,02,200,IHI,3.21,20170103,,Y
20170104,FANH01,K01,_,04,N,02,200,IHI,3.21,20170103,,Y
20170104,FANH01,K01,_,05,N,02,200,IHI,3.21,20170103,,Y
20170104,FANH01,K01,_,01,N,02,200,IYF,3.21,20170103,,Y
20170104,FANH01,K01,_,02,N,02,200,IYF,3.21,20170103,,Y
20170104,FANH01,K01,_,03,N,02,200,IYF,3.21,20170103,,Y
20170104,FANH01,K01,_,04,N,02,200,IYF,3.21,20170103,,Y
20170104,FANH01,K01,_,05,N,02,200,IYF,3.21,20170103,,Y
20170104,FANH01,K01,_,01,N,02,200,IYR,3.21,20170103,,Y
20170104,FANH01,K01,_,02,N,02,200,IYR,3.21,20170103,,Y
20170104,FANH01,K01,_,03,N,02,200,IYR,3.21,20170103,,Y
20170104,FANH01,K01,_,04,N,02,200,IYR,3.21,20170103,,Y
20170104,FANH01,K01,_,05,N,02,200,IYR,3.21,20170103,,Y
20170104,FANH01,K01,_,01,N,02,200,SCHG,3.21,20170103,,Y
20170104,FANH01,K01,_,02,N,02,200,SCHG,3.21,20170103,,Y
20170104,FANH01,K01,_,03,N,02,200,SCHG,3.21,20170103,,Y
20170104,FANH01,K01,_,04,N,02,200,SCHG,3.21,20170103,,Y
20170104,FANH01,K01,_,05,N,02,200,SCHG,3.21,20170103,,Y
20170104,FANH01,K01,_,01,N,02,200,SOXX,3.21,20170103,,Y
20170104,FANH01,K01,_,02,N,02,200,SOXX,3.21,20170103,,Y
20170104,FANH01,K01,_,03,N,02,200,SOXX,3.21,20170103,,Y
20170104,FANH01,K01,_,04,N,02,200,SOXX,3.21,20170103,,Y
20170104,FANH01,K01,_,05,N,02,200,SOXX,3.21,20170103,,Y
20170104,FANH01,K01,_,01,N,02,200,VO,3.21,20170103,,Y
20170104,FANH01,K01,_,02,N,02,200,VO,3.21,20170103,,Y
20170104,FANH01,K01,_,03,N,02,200,VO,3.21,20170103,,Y
20170104,FANH01,K01,_,04,N,02,200,VO,3.21,20170103,,Y
20170104,FANH01,K01,_,05,N,02,200,VO,3.21,20170103,,Y
20170104,FANH01,K01,_,01,N,02,200,XAR,3.21,20170103,,Y
20170104,FANH01,K01,_,02,N,02,200,XAR,3.21,20170103,,Y
20170104,FANH01,K01,_,03,N,02,200,XAR,3.21,20170103,,Y
20170104,FANH01,K01,_,04,N,02,200,XAR,3.21,20170103,,Y
20170104,FANH01,K01,_,05,N,02,200,XAR,3.21,20170103,,Y
