20181204,FANH01,K01,_,01,N,02,200,ACWI,4.28,20181203,,Y
20181204,FANH01,K01,_,02,N,02,200,ACWI,4.28,20181203,,Y
20181204,FANH01,K01,_,03,N,02,200,ACWI,4.28,20181203,,Y
20181204,FANH01,K01,_,04,N,02,200,ACWI,4.28,20181203,,Y
20181204,FANH01,K01,_,05,N,02,200,ACWI,4.28,20181203,,Y
20181204,FANH01,K01,_,01,N,02,200,DBC,10.0,20181203,,Y
20181204,FANH01,K01,_,02,N,02,200,DBC,10.0,20181203,,Y
20181204,FANH01,K01,_,03,N,02,200,DBC,10.0,20181203,,Y
20181204,FANH01,K01,_,04,N,02,200,DBC,10.0,20181203,,Y
20181204,FANH01,K01,_,05,N,02,200,DBC,10.0,20181203,,Y
20181204,FANH01,K01,_,01,N,02,200,DIA,4.28,20181203,,Y
20181204,FANH01,K01,_,02,N,02,200,DIA,4.28,20181203,,Y
20181204,FANH01,K01,_,03,N,02,200,DIA,4.28,20181203,,Y
20181204,FANH01,K01,_,04,N,02,200,DIA,4.28,20181203,,Y
20181204,FANH01,K01,_,05,N,02,200,DIA,4.28,20181203,,Y
20181204,FANH01,K01,_,01,N,02,200,DXJ,4.28,20181203,,Y
20181204,FANH01,K01,_,02,N,02,200,DXJ,4.28,20181203,,Y
20181204,FANH01,K01,_,03,N,02,200,DXJ,4.28,20181203,,Y
20181204,FANH01,K01,_,04,N,02,200,DXJ,4.28,20181203,,Y
20181204,FANH01,K01,_,05,N,02,200,DXJ,4.28,20181203,,Y
20181204,FANH01,K01,_,01,N,02,200,FDL,4.28,20181203,,Y
20181204,FANH01,K01,_,02,N,02,200,FDL,4.28,20181203,,Y
20181204,FANH01,K01,_,03,N,02,200,FDL,4.28,20181203,,Y
20181204,FANH01,K01,_,04,N,02,200,FDL,4.28,20181203,,Y
20181204,FANH01,K01,_,05,N,02,200,FDL,4.28,20181203,,Y
20181204,FANH01,K01,_,01,N,02,200,FVD,4.28,20181203,,Y
20181204,FANH01,K01,_,02,N,02,200,FVD,4.28,20181203,,Y
20181204,FANH01,K01,_,03,N,02,200,FVD,4.28,20181203,,Y
20181204,FANH01,K01,_,04,N,02,200,FVD,4.28,20181203,,Y
20181204,FANH01,K01,_,05,N,02,200,FVD,4.28,20181203,,Y
20181204,FANH01,K01,_,01,N,02,200,FXL,4.28,20181203,,Y
20181204,FANH01,K01,_,02,N,02,200,FXL,4.28,20181203,,Y
20181204,FANH01,K01,_,03,N,02,200,FXL,4.28,20181203,,Y
20181204,FANH01,K01,_,04,N,02,200,FXL,4.28,20181203,,Y
20181204,FANH01,K01,_,05,N,02,200,FXL,4.28,20181203,,Y
20181204,FANH01,K01,_,01,N,02,200,FXU,4.28,20181203,,Y
20181204,FANH01,K01,_,02,N,02,200,FXU,4.28,20181203,,Y
20181204,FANH01,K01,_,03,N,02,200,FXU,4.28,20181203,,Y
20181204,FANH01,K01,_,04,N,02,200,FXU,4.28,20181203,,Y
20181204,FANH01,K01,_,05,N,02,200,FXU,4.28,20181203,,Y
20181204,FANH01,K01,_,01,N,02,200,GLD,10.0,20181203,,Y
20181204,FANH01,K01,_,02,N,02,200,GLD,10.0,20181203,,Y
20181204,FANH01,K01,_,03,N,02,200,GLD,10.0,20181203,,Y
20181204,FANH01,K01,_,04,N,02,200,GLD,10.0,20181203,,Y
20181204,FANH01,K01,_,05,N,02,200,GLD,10.0,20181203,,Y
20181204,FANH01,K01,_,01,N,02,200,HEDJ,4.28,20181203,,Y
20181204,FANH01,K01,_,02,N,02,200,HEDJ,4.28,20181203,,Y
20181204,FANH01,K01,_,03,N,02,200,HEDJ,4.28,20181203,,Y
20181204,FANH01,K01,_,04,N,02,200,HEDJ,4.28,20181203,,Y
20181204,FANH01,K01,_,05,N,02,200,HEDJ,4.28,20181203,,Y
20181204,FANH01,K01,_,01,N,02,200,IJH,4.28,20181203,,Y
20181204,FANH01,K01,_,02,N,02,200,IJH,4.28,20181203,,Y
20181204,FANH01,K01,_,03,N,02,200,IJH,4.28,20181203,,Y
20181204,FANH01,K01,_,04,N,02,200,IJH,4.28,20181203,,Y
20181204,FANH01,K01,_,05,N,02,200,IJH,4.28,20181203,,Y
20181204,FANH01,K01,_,01,N,02,200,IXJ,4.28,20181203,,Y
20181204,FANH01,K01,_,02,N,02,200,IXJ,4.28,20181203,,Y
20181204,FANH01,K01,_,03,N,02,200,IXJ,4.28,20181203,,Y
20181204,FANH01,K01,_,04,N,02,200,IXJ,4.28,20181203,,Y
20181204,FANH01,K01,_,05,N,02,200,IXJ,4.28,20181203,,Y
20181204,FANH01,K01,_,01,N,02,200,IYF,4.28,20181203,,Y
20181204,FANH01,K01,_,02,N,02,200,IYF,4.28,20181203,,Y
20181204,FANH01,K01,_,03,N,02,200,IYF,4.28,20181203,,Y
20181204,FANH01,K01,_,04,N,02,200,IYF,4.28,20181203,,Y
20181204,FANH01,K01,_,05,N,02,200,IYF,4.28,20181203,,Y
20181204,FANH01,K01,_,01,N,02,200,IYR,4.28,20181203,,Y
20181204,FANH01,K01,_,02,N,02,200,IYR,4.28,20181203,,Y
20181204,FANH01,K01,_,03,N,02,200,IYR,4.28,20181203,,Y
20181204,FANH01,K01,_,04,N,02,200,IYR,4.28,20181203,,Y
20181204,FANH01,K01,_,05,N,02,200,IYR,4.28,20181203,,Y
20181204,FANH01,K01,_,01,N,02,200,MUB,20.0,20181203,,Y
20181204,FANH01,K01,_,02,N,02,200,MUB,20.0,20181203,,Y
20181204,FANH01,K01,_,03,N,02,200,MUB,20.0,20181203,,Y
20181204,FANH01,K01,_,04,N,02,200,MUB,20.0,20181203,,Y
20181204,FANH01,K01,_,05,N,02,200,MUB,20.0,20181203,,Y
20181204,FANH01,K01,_,01,N,02,200,VDC,4.28,20181203,,Y
20181204,FANH01,K01,_,02,N,02,200,VDC,4.28,20181203,,Y
20181204,FANH01,K01,_,03,N,02,200,VDC,4.28,20181203,,Y
20181204,FANH01,K01,_,04,N,02,200,VDC,4.28,20181203,,Y
20181204,FANH01,K01,_,05,N,02,200,VDC,4.28,20181203,,Y
20181204,FANH01,K01,_,01,N,02,200,XLB,4.28,20181203,,Y
20181204,FANH01,K01,_,02,N,02,200,XLB,4.28,20181203,,Y
20181204,FANH01,K01,_,03,N,02,200,XLB,4.28,20181203,,Y
20181204,FANH01,K01,_,04,N,02,200,XLB,4.28,20181203,,Y
20181204,FANH01,K01,_,05,N,02,200,XLB,4.28,20181203,,Y
