20180205,FANH01,K01,_,01,N,02,200,DLN,3.21,20180202,,Y
20180205,FANH01,K01,_,02,N,02,200,DLN,3.21,20180202,,Y
20180205,FANH01,K01,_,03,N,02,200,DLN,3.21,20180202,,Y
20180205,FANH01,K01,_,04,N,02,200,DLN,3.21,20180202,,Y
20180205,FANH01,K01,_,05,N,02,200,DLN,3.21,20180202,,Y
20180205,FANH01,K01,_,01,N,02,200,DLS,3.21,20180202,,Y
20180205,FANH01,K01,_,02,N,02,200,DLS,3.21,20180202,,Y
20180205,FANH01,K01,_,03,N,02,200,DLS,3.21,20180202,,Y
20180205,FANH01,K01,_,04,N,02,200,DLS,3.21,20180202,,Y
20180205,FANH01,K01,_,05,N,02,200,DLS,3.21,20180202,,Y
20180205,FANH01,K01,_,01,N,02,200,DSI,3.21,20180202,,Y
20180205,FANH01,K01,_,02,N,02,200,DSI,3.21,20180202,,Y
20180205,FANH01,K01,_,03,N,02,200,DSI,3.21,20180202,,Y
20180205,FANH01,K01,_,04,N,02,200,DSI,3.21,20180202,,Y
20180205,FANH01,K01,_,05,N,02,200,DSI,3.21,20180202,,Y
20180205,FANH01,K01,_,01,N,02,200,EWA,3.21,20180202,,Y
20180205,FANH01,K01,_,02,N,02,200,EWA,3.21,20180202,,Y
20180205,FANH01,K01,_,03,N,02,200,EWA,3.21,20180202,,Y
20180205,FANH01,K01,_,04,N,02,200,EWA,3.21,20180202,,Y
20180205,FANH01,K01,_,05,N,02,200,EWA,3.21,20180202,,Y
20180205,FANH01,K01,_,01,N,02,200,FBT,3.21,20180202,,Y
20180205,FANH01,K01,_,02,N,02,200,FBT,3.21,20180202,,Y
20180205,FANH01,K01,_,03,N,02,200,FBT,3.21,20180202,,Y
20180205,FANH01,K01,_,04,N,02,200,FBT,3.21,20180202,,Y
20180205,FANH01,K01,_,05,N,02,200,FBT,3.21,20180202,,Y
20180205,FANH01,K01,_,01,N,02,200,FEZ,3.21,20180202,,Y
20180205,FANH01,K01,_,02,N,02,200,FEZ,3.21,20180202,,Y
20180205,FANH01,K01,_,03,N,02,200,FEZ,3.21,20180202,,Y
20180205,FANH01,K01,_,04,N,02,200,FEZ,3.21,20180202,,Y
20180205,FANH01,K01,_,05,N,02,200,FEZ,3.21,20180202,,Y
20180205,FANH01,K01,_,01,N,02,200,GLD,5.0,20180202,,Y
20180205,FANH01,K01,_,02,N,02,200,GLD,5.0,20180202,,Y
20180205,FANH01,K01,_,03,N,02,200,GLD,5.0,20180202,,Y
20180205,FANH01,K01,_,04,N,02,200,GLD,5.0,20180202,,Y
20180205,FANH01,K01,_,05,N,02,200,GLD,5.0,20180202,,Y
20180205,FANH01,K01,_,01,N,02,200,GNR,3.21,20180202,,Y
20180205,FANH01,K01,_,02,N,02,200,GNR,3.21,20180202,,Y
20180205,FANH01,K01,_,03,N,02,200,GNR,3.21,20180202,,Y
20180205,FANH01,K01,_,04,N,02,200,GNR,3.21,20180202,,Y
20180205,FANH01,K01,_,05,N,02,200,GNR,3.21,20180202,,Y
20180205,FANH01,K01,_,01,N,02,200,IGM,3.21,20180202,,Y
20180205,FANH01,K01,_,02,N,02,200,IGM,3.21,20180202,,Y
20180205,FANH01,K01,_,03,N,02,200,IGM,3.21,20180202,,Y
20180205,FANH01,K01,_,04,N,02,200,IGM,3.21,20180202,,Y
20180205,FANH01,K01,_,05,N,02,200,IGM,3.21,20180202,,Y
20180205,FANH01,K01,_,01,N,02,200,IVW,3.21,20180202,,Y
20180205,FANH01,K01,_,02,N,02,200,IVW,3.21,20180202,,Y
20180205,FANH01,K01,_,03,N,02,200,IVW,3.21,20180202,,Y
20180205,FANH01,K01,_,04,N,02,200,IVW,3.21,20180202,,Y
20180205,FANH01,K01,_,05,N,02,200,IVW,3.21,20180202,,Y
20180205,FANH01,K01,_,01,N,02,200,KRE,3.21,20180202,,Y
20180205,FANH01,K01,_,02,N,02,200,KRE,3.21,20180202,,Y
20180205,FANH01,K01,_,03,N,02,200,KRE,3.21,20180202,,Y
20180205,FANH01,K01,_,04,N,02,200,KRE,3.21,20180202,,Y
20180205,FANH01,K01,_,05,N,02,200,KRE,3.21,20180202,,Y
20180205,FANH01,K01,_,01,N,02,200,PPA,3.21,20180202,,Y
20180205,FANH01,K01,_,02,N,02,200,PPA,3.21,20180202,,Y
20180205,FANH01,K01,_,03,N,02,200,PPA,3.21,20180202,,Y
20180205,FANH01,K01,_,04,N,02,200,PPA,3.21,20180202,,Y
20180205,FANH01,K01,_,05,N,02,200,PPA,3.21,20180202,,Y
20180205,FANH01,K01,_,01,N,02,200,QQQ,3.21,20180202,,Y
20180205,FANH01,K01,_,02,N,02,200,QQQ,3.21,20180202,,Y
20180205,FANH01,K01,_,03,N,02,200,QQQ,3.21,20180202,,Y
20180205,FANH01,K01,_,04,N,02,200,QQQ,3.21,20180202,,Y
20180205,FANH01,K01,_,05,N,02,200,QQQ,3.21,20180202,,Y
20180205,FANH01,K01,_,01,N,02,200,USO,5.0,20180202,,Y
20180205,FANH01,K01,_,02,N,02,200,USO,5.0,20180202,,Y
20180205,FANH01,K01,_,03,N,02,200,USO,5.0,20180202,,Y
20180205,FANH01,K01,_,04,N,02,200,USO,5.0,20180202,,Y
20180205,FANH01,K01,_,05,N,02,200,USO,5.0,20180202,,Y
20180205,FANH01,K01,_,01,N,02,200,VNQI,3.21,20180202,,Y
20180205,FANH01,K01,_,02,N,02,200,VNQI,3.21,20180202,,Y
20180205,FANH01,K01,_,03,N,02,200,VNQI,3.21,20180202,,Y
20180205,FANH01,K01,_,04,N,02,200,VNQI,3.21,20180202,,Y
20180205,FANH01,K01,_,05,N,02,200,VNQI,3.21,20180202,,Y
20180205,FANH01,K01,_,01,N,02,200,VO,3.21,20180202,,Y
20180205,FANH01,K01,_,02,N,02,200,VO,3.21,20180202,,Y
20180205,FANH01,K01,_,03,N,02,200,VO,3.21,20180202,,Y
20180205,FANH01,K01,_,04,N,02,200,VO,3.21,20180202,,Y
20180205,FANH01,K01,_,05,N,02,200,VO,3.21,20180202,,Y
