20190506,FANH01,K01,_,01,N,02,200,ACWI,4.28,20190503,,Y
20190506,FANH01,K01,_,02,N,02,200,ACWI,4.28,20190503,,Y
20190506,FANH01,K01,_,03,N,02,200,ACWI,4.28,20190503,,Y
20190506,FANH01,K01,_,04,N,02,200,ACWI,4.28,20190503,,Y
20190506,FANH01,K01,_,05,N,02,200,ACWI,4.28,20190503,,Y
20190506,FANH01,K01,_,01,N,02,200,AMLP,4.28,20190503,,Y
20190506,FANH01,K01,_,02,N,02,200,AMLP,4.28,20190503,,Y
20190506,FANH01,K01,_,03,N,02,200,AMLP,4.28,20190503,,Y
20190506,FANH01,K01,_,04,N,02,200,AMLP,4.28,20190503,,Y
20190506,FANH01,K01,_,05,N,02,200,AMLP,4.28,20190503,,Y
20190506,FANH01,K01,_,01,N,02,200,DIA,4.28,20190503,,Y
20190506,FANH01,K01,_,02,N,02,200,DIA,4.28,20190503,,Y
20190506,FANH01,K01,_,03,N,02,200,DIA,4.28,20190503,,Y
20190506,FANH01,K01,_,04,N,02,200,DIA,4.28,20190503,,Y
20190506,FANH01,K01,_,05,N,02,200,DIA,4.28,20190503,,Y
20190506,FANH01,K01,_,01,N,02,200,DLN,4.28,20190503,,Y
20190506,FANH01,K01,_,02,N,02,200,DLN,4.28,20190503,,Y
20190506,FANH01,K01,_,03,N,02,200,DLN,4.28,20190503,,Y
20190506,FANH01,K01,_,04,N,02,200,DLN,4.28,20190503,,Y
20190506,FANH01,K01,_,05,N,02,200,DLN,4.28,20190503,,Y
20190506,FANH01,K01,_,01,N,02,200,DSI,4.28,20190503,,Y
20190506,FANH01,K01,_,02,N,02,200,DSI,4.28,20190503,,Y
20190506,FANH01,K01,_,03,N,02,200,DSI,4.28,20190503,,Y
20190506,FANH01,K01,_,04,N,02,200,DSI,4.28,20190503,,Y
20190506,FANH01,K01,_,05,N,02,200,DSI,4.28,20190503,,Y
20190506,FANH01,K01,_,01,N,02,200,EWL,4.28,20190503,,Y
20190506,FANH01,K01,_,02,N,02,200,EWL,4.28,20190503,,Y
20190506,FANH01,K01,_,03,N,02,200,EWL,4.28,20190503,,Y
20190506,FANH01,K01,_,04,N,02,200,EWL,4.28,20190503,,Y
20190506,FANH01,K01,_,05,N,02,200,EWL,4.28,20190503,,Y
20190506,FANH01,K01,_,01,N,02,200,EZM,4.28,20190503,,Y
20190506,FANH01,K01,_,02,N,02,200,EZM,4.28,20190503,,Y
20190506,FANH01,K01,_,03,N,02,200,EZM,4.28,20190503,,Y
20190506,FANH01,K01,_,04,N,02,200,EZM,4.28,20190503,,Y
20190506,FANH01,K01,_,05,N,02,200,EZM,4.28,20190503,,Y
20190506,FANH01,K01,_,01,N,02,200,FEZ,4.28,20190503,,Y
20190506,FANH01,K01,_,02,N,02,200,FEZ,4.28,20190503,,Y
20190506,FANH01,K01,_,03,N,02,200,FEZ,4.28,20190503,,Y
20190506,FANH01,K01,_,04,N,02,200,FEZ,4.28,20190503,,Y
20190506,FANH01,K01,_,05,N,02,200,FEZ,4.28,20190503,,Y
20190506,FANH01,K01,_,01,N,02,200,FXL,4.28,20190503,,Y
20190506,FANH01,K01,_,02,N,02,200,FXL,4.28,20190503,,Y
20190506,FANH01,K01,_,03,N,02,200,FXL,4.28,20190503,,Y
20190506,FANH01,K01,_,04,N,02,200,FXL,4.28,20190503,,Y
20190506,FANH01,K01,_,05,N,02,200,FXL,4.28,20190503,,Y
20190506,FANH01,K01,_,01,N,02,200,GLD,10.0,20190503,,Y
20190506,FANH01,K01,_,02,N,02,200,GLD,10.0,20190503,,Y
20190506,FANH01,K01,_,03,N,02,200,GLD,10.0,20190503,,Y
20190506,FANH01,K01,_,04,N,02,200,GLD,10.0,20190503,,Y
20190506,FANH01,K01,_,05,N,02,200,GLD,10.0,20190503,,Y
20190506,FANH01,K01,_,01,N,02,200,IHI,4.28,20190503,,Y
20190506,FANH01,K01,_,02,N,02,200,IHI,4.28,20190503,,Y
20190506,FANH01,K01,_,03,N,02,200,IHI,4.28,20190503,,Y
20190506,FANH01,K01,_,04,N,02,200,IHI,4.28,20190503,,Y
20190506,FANH01,K01,_,05,N,02,200,IHI,4.28,20190503,,Y
20190506,FANH01,K01,_,01,N,02,200,IJH,4.28,20190503,,Y
20190506,FANH01,K01,_,02,N,02,200,IJH,4.28,20190503,,Y
20190506,FANH01,K01,_,03,N,02,200,IJH,4.28,20190503,,Y
20190506,FANH01,K01,_,04,N,02,200,IJH,4.28,20190503,,Y
20190506,FANH01,K01,_,05,N,02,200,IJH,4.28,20190503,,Y
20190506,FANH01,K01,_,01,N,02,200,IYF,4.28,20190503,,Y
20190506,FANH01,K01,_,02,N,02,200,IYF,4.28,20190503,,Y
20190506,FANH01,K01,_,03,N,02,200,IYF,4.28,20190503,,Y
20190506,FANH01,K01,_,04,N,02,200,IYF,4.28,20190503,,Y
20190506,FANH01,K01,_,05,N,02,200,IYF,4.28,20190503,,Y
20190506,FANH01,K01,_,01,N,02,200,IYR,4.28,20190503,,Y
20190506,FANH01,K01,_,02,N,02,200,IYR,4.28,20190503,,Y
20190506,FANH01,K01,_,03,N,02,200,IYR,4.28,20190503,,Y
20190506,FANH01,K01,_,04,N,02,200,IYR,4.28,20190503,,Y
20190506,FANH01,K01,_,05,N,02,200,IYR,4.28,20190503,,Y
20190506,FANH01,K01,_,01,N,02,200,LQD,20.0,20190503,,Y
20190506,FANH01,K01,_,02,N,02,200,LQD,20.0,20190503,,Y
20190506,FANH01,K01,_,03,N,02,200,LQD,20.0,20190503,,Y
20190506,FANH01,K01,_,04,N,02,200,LQD,20.0,20190503,,Y
20190506,FANH01,K01,_,05,N,02,200,LQD,20.0,20190503,,Y
20190506,FANH01,K01,_,01,N,02,200,PPA,4.28,20190503,,Y
20190506,FANH01,K01,_,02,N,02,200,PPA,4.28,20190503,,Y
20190506,FANH01,K01,_,03,N,02,200,PPA,4.28,20190503,,Y
20190506,FANH01,K01,_,04,N,02,200,PPA,4.28,20190503,,Y
20190506,FANH01,K01,_,05,N,02,200,PPA,4.28,20190503,,Y
20190506,FANH01,K01,_,01,N,02,200,USO,10.0,20190503,,Y
20190506,FANH01,K01,_,02,N,02,200,USO,10.0,20190503,,Y
20190506,FANH01,K01,_,03,N,02,200,USO,10.0,20190503,,Y
20190506,FANH01,K01,_,04,N,02,200,USO,10.0,20190503,,Y
20190506,FANH01,K01,_,05,N,02,200,USO,10.0,20190503,,Y
